dump.vcd
$date
	Fri May 14 22:49:28 2021
$end

$version
	Synopsys VCS version R-2020.12
$end

$timescale
	1ns
$end

$comment Csum: 1 9a0d6264bbd70687 $end


$scope module rushi $end
$upscope $end


$scope module top $end
$var reg 1 ! clk $end
$var reg 1 " reset $end

$scope begin unnamed$$_vcs_4 $end
$upscope $end


$scope begin unnamed$$_vcs_0 $end
$upscope $end


$scope begin unnamed$$_vcs_1 $end
$upscope $end


$scope begin unnamed$$_vcs_2 $end
$upscope $end


$scope begin unnamed$$_vcs_3 $end
$upscope $end


$scope module int_f $end
$var reg 1 # clk $end
$var reg 1 $ pushin $end
$var reg 9 % datain [8:0] $end
$var reg 1 & startin $end
$var reg 1 ' pushout $end
$var reg 10 ( dataout [9:0] $end
$var reg 1 ) startout $end
$var reg 1 * reset $end
$var reg 5 + datain_size [4:0] $end
$upscope $end


$scope module enc $end
$var wire 1 , clk $end
$var wire 1 - reset $end
$var wire 1 . pushin $end
$var wire 9 / datain [8:0] $end
$var wire 1 0 startin $end
$var reg 1 1 pushout $end
$var wire 10 2 dataout [9:0] $end
$var reg 1 3 startout $end
$var wire 1 4 Kbit $end
$var wire 1 5 RD6B $end
$var wire 1 6 RD4B $end
$var wire 1 7 RD $end
$var wire 32 8 crcResult [31:0] $end
$var reg 32 9 crcData [31:0] $end
$var wire 10 : outTemp [9:0] $end
$var wire 10 ; kcode [9:0] $end
$var wire 10 < kcodeCRC0 [9:0] $end
$var wire 10 = kcodeCRC1 [9:0] $end
$var wire 10 > firstCRC [9:0] $end
$var wire 10 ? secondCRC [9:0] $end
$var wire 10 @ thirdCRC [9:0] $end
$var wire 10 A fourthCRC [9:0] $end
$var reg 10 B trueOutput [9:0] $end
$var reg 4 C counterK281 [3:0] $end
$var reg 4 D counterK285 [3:0] $end
$var reg 2 E currentState [1:0] $end
$var reg 2 F nextState [1:0] $end

$scope function rearrange $end
$var reg 10 G rearrange [9:0] $end
$var reg 10 H data [9:0] $end
$var integer 32 I i $end
$upscope $end


$scope module rd6b $end
$var wire 1 , clk $end
$var wire 1 - reset $end
$var wire 1 0 startin $end
$var wire 6 J dataout [5:0] $end
$var wire 1 1 pushout $end
$var reg 1 5 RDout $end
$var reg 1 K currentState $end
$var reg 1 L nextState $end

$scope function countOnes $end
$var reg 3 M countOnes [2:0] $end
$var reg 6 N data [5:0] $end
$var integer 32 O i $end
$upscope $end

$upscope $end


$scope module rd4b $end
$var wire 1 , clk $end
$var wire 1 - reset $end
$var wire 1 0 startin $end
$var wire 4 P dataout [3:0] $end
$var wire 1 1 pushout $end
$var reg 1 6 RDout $end
$var reg 1 Q currentState $end
$var reg 1 R nextState $end

$scope function countOnes $end
$var reg 3 S countOnes [2:0] $end
$var reg 4 T data [3:0] $end
$var integer 32 U i $end
$upscope $end

$upscope $end


$scope module rd10b $end
$var wire 1 , clk $end
$var wire 1 - reset $end
$var wire 1 0 startin $end
$var wire 10 B dataout [9:0] $end
$var wire 1 1 pushout $end
$var reg 1 7 RDout $end
$var reg 1 V currentState $end
$var reg 1 W nextState $end

$scope function countOnes $end
$var reg 3 X countOnes [2:0] $end
$var reg 10 Y data [9:0] $end
$var integer 32 Z i $end
$upscope $end

$upscope $end


$scope module ec0 $end
$var wire 5 [ datain [4:0] $end
$var wire 1 \ RD $end
$var wire 6 ] dataout [5:0] $end
$var reg 6 ^ abcdei_d [5:0] $end
$upscope $end


$scope module ec1 $end
$var wire 3 _ datain [2:0] $end
$var wire 1 ` RD $end
$var wire 5 [ lower [4:0] $end
$var wire 4 a dataout [3:0] $end
$var reg 4 b fghj_d [3:0] $end
$upscope $end


$scope module ec2 $end
$var wire 5 c datain [4:0] $end
$var wire 1 \ RD $end
$var wire 6 d dataout [5:0] $end
$var reg 6 e abcdei_d [5:0] $end
$upscope $end


$scope module ec3 $end
$var wire 3 f datain [2:0] $end
$var wire 1 ` RD $end
$var wire 5 c lower [4:0] $end
$var wire 4 g dataout [3:0] $end
$var reg 4 h fghj_d [3:0] $end
$upscope $end


$scope module ec4 $end
$var wire 5 i datain [4:0] $end
$var wire 1 \ RD $end
$var wire 6 j dataout [5:0] $end
$var reg 6 k abcdei_d [5:0] $end
$upscope $end


$scope module ec5 $end
$var wire 3 l datain [2:0] $end
$var wire 1 ` RD $end
$var wire 5 i lower [4:0] $end
$var wire 4 m dataout [3:0] $end
$var reg 4 n fghj_d [3:0] $end
$upscope $end


$scope module ec6 $end
$var wire 5 o datain [4:0] $end
$var wire 1 \ RD $end
$var wire 6 p dataout [5:0] $end
$var reg 6 q abcdei_d [5:0] $end
$upscope $end


$scope module ec7 $end
$var wire 3 r datain [2:0] $end
$var wire 1 ` RD $end
$var wire 5 o lower [4:0] $end
$var wire 4 s dataout [3:0] $end
$var reg 4 t fghj_d [3:0] $end
$upscope $end


$scope module ec8 $end
$var wire 5 u datain [4:0] $end
$var wire 1 \ RD $end
$var wire 6 v dataout [5:0] $end
$var reg 6 w abcdei_d [5:0] $end
$upscope $end


$scope module ec9 $end
$var wire 3 x datain [2:0] $end
$var wire 1 ` RD $end
$var wire 5 u lower [4:0] $end
$var wire 4 y dataout [3:0] $end
$var reg 4 z fghj_d [3:0] $end
$upscope $end


$scope module kc0 $end
$var wire 8 { datain [7:0] $end
$var wire 1 | RD $end
$var wire 10 ; dataout [9:0] $end
$var reg 10 } outTemp [9:0] $end
$upscope $end


$scope module kc1 $end
$var wire 8 ~ datain [7:0] $end
$var wire 1 | RD $end
$var wire 10 < dataout [9:0] $end
$var reg 10 "! outTemp [9:0] $end
$upscope $end


$scope module kc2 $end
$var wire 8 "" datain [7:0] $end
$var wire 1 | RD $end
$var wire 10 = dataout [9:0] $end
$var reg 10 "# outTemp [9:0] $end
$upscope $end


$scope module crc0 $end
$var wire 1 , clk $end
$var wire 1 - rst $end
$var wire 8 { crc32_in [7:0] $end
$var wire 1 "$ valid $end
$var wire 1 "% is_S1DATA $end
$var wire 32 8 crc32_out [31:0] $end
$var reg 32 "& crc32_out_buff [31:0] $end
$var reg 32 "' crc32_table [31:0] $end
$var wire 8 "( crc32_lut_in [7:0] $end
$upscope $end

$upscope $end

$upscope $end


$scope module uvm_pkg $end
$var reg 32 ") UVM_UNBOUNDED_CONNECTIONS [31:0] $end
$var reg 1 "* uvm_start_uvm_declarations $end
$var reg 32 "+ uvm_global_random_seed [31:0] $end
$upscope $end

$enddefinitions $end

#0
$dumpvars
1"*
b11111111111111111111111111111111 ")
b01000010000001111100110001000111 "+
0!
1"
bxxxxx +
b0000000000 (
b000000000 %
04
05
01
07
0V
0W
06
0Q
0R
0K
0L
03
x"%
0"$
b000 M
b000000 N
b00000000000000000000000000000110 O
b0000 C
b0000 D
b11111111 "(
b11111111111111111111111111111111 "&
b00101101000000101110111110001101 "'
b00000000000000000000000000000000 9
b00000000000000000000000000000000 8
b00 E
b00 F
b0000000000 Y
b00000000000000000000000000001010 Z
b000 X
b0000 T
b00000000000000000000000000000100 U
b000 S
bxxxxxxxxxx H
bxxxxxxxxxxxxxxxxxxxxxxxxxxxxxxxx I
bxxxxxxxxxx G
bxxxx P
bxxxxxx J
b0000000000 B
b100111 ^
b1011 b
b100111 e
b1011 h
b100111 k
b1011 n
b100111 q
b1011 t
b100111 w
b1011 z
b0000000000 }
b0011111010 "!
b1110101000 "#
1-
b000000000 /
b0000000000 2
b1001111011 :
b100111 ]
b1011 a
b1001111011 >
b100111 d
b1011 g
b1001111011 ?
b100111 j
b1011 m
b1001111011 @
b100111 p
b1011 s
b1001111011 A
b100111 v
b1011 y
0\
0`
b00000 c
b000 f
b00000 i
b000 l
b00000 o
b000 r
b00000 u
b000 x
0|
b0000000000 ;
b10111100 ~
b0011111010 <
b11110111 ""
b1110101000 =
0$
0'
0&
0)
0.
00
0#
0,
1*
b00000000 {
b00000 [
b000 _
$end
b0000 P
b000000 J
0"%
#4
0"
0*
0-
#5
1!
1,
1#
1&
10
1$
1.
b100111100 %
b100111100 /
14
b001 _
b11100 [
b00111100 {
b11000011 "(
11
1'
13
1)
b0000000000 G
b00000000000000000000000000001010 I
b0000000000 H
b1001 b
b1001 a
b001110 ^
b001110 ]
b00000010011011011001001100001010 "'
b0011111001 }
b0011111001 ;
b0011101001 :
b1001111100 B
b1001 P
b111100 J
b1001111100 2
b1001111100 (
b1001111100 G
b0011111001 H
b110 X
b1001111100 Y
b010 S
b1001 T
b100 M
b111100 N
#10
0!
0,
0#
#15
1!
1,
1#
b0001 C
0&
00
03
0)
1L
15
1\
1W
17
1|
b011000 e
b011000 d
b011000 k
b011000 j
b011000 q
b011000 p
b011000 w
b011000 v
b1100000110 }
b1100000110 ;
b1100000101 "!
b1100000101 <
b0001010111 "#
b0001010111 =
b0110001011 >
b0110001011 ?
b0110001011 @
b0110001011 A
b0110000011 B
b0110 P
b000011 J
b0110000011 2
b0110000011 (
b0110000011 G
b1100000110 H
b100 X
b0110000011 Y
b0110 T
b010 M
b000011 N
#20
0!
0,
0#
#25
1!
1,
1#
b0010 C
1K
1V
0L
05
0\
0W
07
0|
b100111 e
b100111 d
b100111 k
b100111 j
b100111 q
b100111 p
b100111 w
b100111 v
b0011111001 }
b0011111001 ;
b0011111010 "!
b0011111010 <
b1110101000 "#
b1110101000 =
b1001111011 >
b1001111011 ?
b1001111011 @
b1001111011 A
b1001111100 B
b1001 P
b111100 J
b1001111100 2
b1001111100 (
b1001111100 G
b0011111001 H
b110 X
b1001111100 Y
b1001 T
b100 M
b111100 N
#30
0!
0,
0#
#35
1!
1,
1#
b0011 C
0K
0V
b01 F
1L
15
1\
1W
17
1|
b011000 e
b011000 d
b011000 k
b011000 j
b011000 q
b011000 p
b011000 w
b011000 v
b1100000110 }
b1100000110 ;
b1100000101 "!
b1100000101 <
b0001010111 "#
b0001010111 =
b0110001011 >
b0110001011 ?
b0110001011 @
b0110001011 A
b0110000011 B
b0110 P
b000011 J
b0110000011 2
b0110000011 (
b0110000011 G
b1100000110 H
b100 X
b0110000011 Y
b0110 T
b010 M
b000011 N
#40
0!
0,
0#
#45
1!
1,
1#
b0100 C
b01 E
1"%
1K
1V
b011100000 %
b011100000 /
04
b111 _
b00000 [
b11100000 {
b00011111 "(
b1001011100 B
b1001 P
b011100 J
b1001011100 2
b1001011100 (
b1001011100 G
b0011101001 H
1"$
b011 M
b011100 N
b101 X
b1001011100 Y
b1110 b
b1110 a
b011000 ^
b011000 ]
b10001101000010000000110111110101 "'
b0000000000 }
b0000000000 ;
b0110001110 :
b1001 T
b0111000110 B
b0111 P
b000110 J
b0111000110 2
b0111000110 (
b0111000110 G
b0110001110 H
b0111000110 Y
1R
16
1`
b011 S
b0111 T
0L
05
0\
b010 M
b000110 N
b0001 b
b0001 a
b0100 h
b0100 g
b0100 n
b0100 m
b0100 t
b0100 s
b0100 z
b0100 y
b100111 ^
b100111 ]
b100111 e
b100111 d
b100111 k
b100111 j
b100111 q
b100111 p
b100111 w
b100111 v
b1001110001 :
b1001110100 >
b1001110100 ?
b1001110100 @
b1001110100 A
b1000111001 B
b1000 P
b111001 J
b1000111001 2
b1000111001 (
b1000111001 G
b1001110001 H
b1000111001 Y
b001 S
b1000 T
b100 M
b111001 N
#50
0!
0,
0#
#55
1!
1,
1#
b0000 C
b10001101111101111111001000001010 "&
b01110010000010000000110111110101 8
b11101010 "(
0K
1Q
b010011001 %
b010011001 /
b100 _
b11001 [
b10011001 {
b10010011 "(
b01101001000001101100001011111110 "'
1L
15
1\
0R
06
0`
b1101 b
b1101 a
b100110 ^
b100110 ]
b1001101101 :
b011000 e
b011000 d
b011000 k
b011000 j
b011000 q
b011000 p
b011000 w
b011000 v
b1011 h
b1011 g
b1011 n
b1011 m
b1011 t
b1011 s
b1011 z
b1011 y
b1011011001 B
b1011 P
b011001 J
b1011011001 2
b1011011001 (
b1011011001 G
b1001101101 H
b0110001011 >
b0110001011 ?
b0110001011 @
b0110001011 A
0W
07
0|
b110 X
b1011011001 Y
b011 S
b1011 T
0L
05
0\
b011 M
b011001 N
b0011111010 "!
b0011111010 <
b1110101000 "#
b1110101000 =
b100111 e
b100111 d
b100111 k
b100111 j
b100111 q
b100111 p
b100111 w
b100111 v
b1001111011 >
b1001111011 ?
b1001111011 @
b1001111011 A
#60
0!
0,
0#
#65
1!
1,
1#
b01101001100010110011010100001100 "&
b10010110011101001100101011110011 8
b10010101 "(
0Q
0V
b111111110 %
b111111110 /
14
b111 _
b11110 [
b11111110 {
b11110010 "(
b0000000000 B
b0000 P
b000000 J
b0000000000 2
b0000000000 (
b0000000000 G
b0000000000 H
b01010011101100111001001100110000 "'
1R
16
1`
b000 S
b0000 T
1W
17
1|
b000 X
b0000000000 Y
b0001 b
b0001 a
b011110 ^
b011110 ]
b1000010111 }
b1000010111 ;
b0111100001 :
1L
15
1\
b000 M
b000000 N
b0100 h
b0100 g
b0100 n
b0100 m
b0100 t
b0100 s
b0100 z
b0100 y
b1100000101 "!
b1100000101 <
b0001010111 "#
b0001010111 =
b1110100001 B
b1110 P
b100001 J
b1110100001 2
b1110100001 (
b1110100001 G
b1000010111 H
b1001110100 >
b1001110100 ?
b1001110100 @
b1001110100 A
b100001 ^
b100001 ]
b011000 e
b011000 d
b011000 k
b011000 j
b011000 q
b011000 p
b011000 w
b011000 v
0W
07
0|
b101 X
b1110100001 Y
b011 S
b1110 T
b010 M
b100001 N
b1000010001 :
b0110000100 >
b0110000100 ?
b0110000100 @
b0110000100 A
b0111101000 }
b0111101000 ;
b0011111010 "!
b0011111010 <
b1110101000 "#
b1110101000 =
b0001011110 B
b0001 P
b011110 J
b0001011110 2
b0001011110 (
b0001011110 G
b0111101000 H
b0001011110 Y
b001 S
b0001 T
b100 M
b011110 N
#70
0!
0,
0#
#75
1!
1,
1#
b01010011110110100001100000000101 "&
b10101100001001011110011111111010 8
b11111011 "(
1K
1Q
b001111101 %
b001111101 /
04
b011 _
b11101 [
b01111101 {
b01111000 "(
b1000100001 B
b1000 P
b100001 J
b1000100001 2
b1000100001 (
b1000100001 G
b1000010001 H
b01011110110111101111100100001110 "'
0L
05
0\
b010 M
b100001 N
0R
06
0`
b1000 T
b1100 b
b1100 a
b101110 ^
b101110 ]
b0000000000 }
b0000000000 ;
b1011101100 :
1W
17
1|
b011 X
b1000100001 Y
b100111 e
b100111 d
b100111 k
b100111 j
b100111 q
b100111 p
b100111 w
b100111 v
b1011 h
b1011 g
b1011 n
b1011 m
b1011 t
b1011 s
b1011 z
b1011 y
b0011011101 B
b0011 P
b011101 J
b0011011101 2
b0011011101 (
b0011011101 G
b1011101100 H
b1001111011 >
b1001111011 ?
b1001111011 @
b1001111011 A
b1100000101 "!
b1100000101 <
b0001010111 "#
b0001010111 =
b110 X
b0011011101 Y
1R
16
1`
b010 S
b0011 T
b100 M
b011101 N
b0011 b
b0011 a
b0100 h
b0100 g
b0100 n
b0100 m
b0100 t
b0100 s
b0100 z
b0100 y
b1011100011 :
b1001110100 >
b1001110100 ?
b1001110100 @
b1001110100 A
b1100011101 B
b1100 P
b1100011101 2
b1100011101 (
b1100011101 G
b1011100011 H
b1100011101 Y
b1100 T
#80
0!
0,
0#
#85
1!
1,
1#
b01011110100011010010001100010110 "&
b10100001011100101101110011101001 8
b01101011 "(
0K
1V
b000110111 %
b000110111 /
b001 _
b10111 [
b00110111 {
b00100001 "(
b01001100011010010001000001011110 "'
1L
15
1\
0W
07
0|
b1001 b
b1001 a
b000101 ^
b000101 ]
b0001011001 :
b011000 e
b011000 d
b011000 k
b011000 j
b011000 q
b011000 p
b011000 w
b011000 v
b0011111010 "!
b0011111010 <
b1110101000 "#
b1110101000 =
b1001101000 B
b1001 P
b101000 J
b1001101000 2
b1001101000 (
b1001101000 G
b0001011001 H
b0110000100 >
b0110000100 ?
b0110000100 @
b0110000100 A
b100 X
b1001101000 Y
b1001 T
b010 M
b101000 N
#90
0!
0,
0#
#95
1!
1,
1#
b01001100001101111001110101111101 "&
b10110011110010000110001010000010 8
b01001010 "(
1K
0V
b110111100 %
b110111100 /
14
b101 _
b11100 [
b10111100 {
b11000001 "(
b10 F
b0001010111 B
b0001 P
b010111 J
b0001010111 2
b0001010111 (
b10110011110010000110001010000010 9
b00010 c
b100 f
b00010 i
b011 l
b01000 o
b110 r
b10011 u
b101 x
b0001010111 G
b1110101000 H
b11101100011000111111001000100110 "'
0L
05
0\
b100 M
b010111 N
b101 X
b0001010111 Y
b1010 b
b1010 a
b001110 ^
b001110 ]
0"$
b0011111010 }
b0011111010 ;
b0011101010 :
0R
06
0`
b001 S
b0001 T
b101101 e
b101101 d
b1101 h
b1101 g
b101101 k
b101101 j
b1100 n
b1100 m
b111001 q
b111001 p
b0110 t
b0110 s
b110010 w
b110010 v
b1010 z
b1010 y
b1011011101 >
b1011011100 ?
b1110010110 @
b1100101010 A
#100
0!
0,
0#
#105
1!
1,
1#
b10 E
0"%
0K
0Q
0$
0.
b1011101101 B
b1011 P
b101101 J
b1011101101 2
b1011101101 (
b1011101101 G
b1011011101 H
1L
15
1\
b101101 N
1R
16
1`
b011 S
b1011 T
1W
17
1|
b111 X
b1011101101 Y
b010010 e
b010010 d
b010010 k
b010010 j
b000110 q
b000110 p
b0010 h
b0010 g
b0011 n
b0011 m
b0100100010 >
b0100100011 ?
b0001100110 @
b1100000101 }
b1100000101 ;
b1100000101 "!
b1100000101 <
b0001010111 "#
b0001010111 =
b0100010010 B
b0100 P
b010010 J
b0100010010 2
b0100010010 (
b0100010010 G
b0100100010 H
b011 X
b0100010010 Y
b001 S
b0100 T
b010 M
b010010 N
#110
0!
0,
0#
#115
1!
1,
1#
b0001 D
b11111111111111111111111111111111 "&
b00000000000000000000000000000000 8
b01000011 "(
1K
1Q
1V
b1100010010 B
b1100 P
b1100010010 2
b1100010010 (
b1100010010 G
b0100100011 H
b11101111110101010001000000101010 "'
0L
05
0\
b010 S
b1100 T
0W
07
0|
b100 X
b1100010010 Y
b101101 e
b101101 d
b101101 k
b101101 j
b111001 q
b111001 p
b0011111010 }
b0011111010 ;
b0011111010 "!
b0011111010 <
b1110101000 "#
b1110101000 =
b1011010010 >
b1011010011 ?
b1110010110 @
b1100101101 B
b101101 J
b1100101101 2
b1100101101 (
b1100101101 G
b1011010011 H
b110 X
b1100101101 Y
b100 M
b101101 N
#120
0!
0,
0#
#125
1!
1,
1#
b0010 D
0K
0V
b0110100111 B
b0110 P
b100111 J
b0110100111 2
b0110100111 (
b0110100111 G
b1110010110 H
1L
15
1\
b100111 N
1W
17
1|
b0110100111 Y
b0110 T
b010010 e
b010010 d
b010010 k
b010010 j
b000110 q
b000110 p
b1100000101 }
b1100000101 ;
b1100000101 "!
b1100000101 <
b0001010111 "#
b0001010111 =
b0100100010 >
b0100100011 ?
b0001100110 @
b0110011000 B
b011000 J
b0110011000 2
b0110011000 (
b0110011000 G
b0001100110 H
b100 X
b0110011000 Y
b010 M
b011000 N
#130
0!
0,
0#
#135
1!
1,
1#
b0011 D
1K
1V
b0101010011 B
b0101 P
b010011 J
b0101010011 2
b0101010011 (
b0101010011 G
b1100101010 H
b011 M
b010011 N
b101 X
b0101010011 Y
b0101 T
#140
0!
0,
0#
#145
1!
1,
1#
b0100 D
b00 F
b1010000011 B
b1010 P
b000011 J
b1010000011 2
b1010000011 (
b00000000000000000000000000000000 9
b00000 c
b000 f
b00000 i
b000 l
b00000 o
b000 r
b00000 u
b000 x
b1010000011 G
b1100000101 H
0W
07
0|
b100 X
b1010000011 Y
b1010 T
0L
05
0\
b010 M
b000011 N
b100111 e
b100111 d
b0100 h
b0100 g
b100111 k
b100111 j
b0100 n
b0100 m
b100111 q
b100111 p
b0100 t
b0100 s
b100111 w
b100111 v
b0100 z
b0100 y
b1001110100 >
b1001110100 ?
b1001110100 @
b1001110100 A
b0011111010 }
b0011111010 ;
b0011111010 "!
b0011111010 <
b1110101000 "#
b1110101000 =
b0101111100 B
b0101 P
b111100 J
b0101111100 2
b0101111100 (
b0101111100 G
b0011111010 H
b110 X
b0101111100 Y
b0101 T
b100 M
b111100 N
#150
0!
0,
0#
#155
1!
1,
1#
b0101 D
b00 E
0K
0V
b0000000000 B
b0000 P
b000000 J
b0000000000 2
b0000000000 (
01
0'
b000 M
b000000 N
b000 X
b0000000000 Y
06
0`
b000 S
b0000 T
b1011 h
b1011 g
b1011 n
b1011 m
b1011 t
b1011 s
b1011 z
b1011 y
b1001111011 >
b1001111011 ?
b1001111011 @
b1001111011 A
#160
0!
0,
0#
#165
1!
1,
1#
b0000 D
