dump.vcd
$date
	Thu May  6 15:26:15 2021
$end

$version
	Synopsys VCS version R-2020.12
$end

$timescale
	1ns
$end

$comment Csum: 1 0aef99a3bcadc961 $end


$scope module rushi $end
$upscope $end


$scope module top $end
$var reg 1 ! clk $end
$var reg 1 " reset $end

$scope begin unnamed$$_vcs_4 $end
$upscope $end


$scope begin unnamed$$_vcs_0 $end
$upscope $end


$scope begin unnamed$$_vcs_1 $end
$upscope $end


$scope begin unnamed$$_vcs_2 $end
$upscope $end


$scope begin unnamed$$_vcs_3 $end
$upscope $end


$scope module int_f $end
$var reg 1 # clk $end
$var reg 1 $ reset $end
$var reg 1 % pushin $end
$var reg 9 & datain [8:0] $end
$var reg 1 ' startin $end
$var reg 1 ( pushout $end
$var reg 10 ) dataout [9:0] $end
$var reg 1 * startout $end
$var reg 5 + datain_size [4:0] $end
$upscope $end


$scope module du $end
$var reg 10 , dataout_d [9:0] $end
$var reg 1 - startout_d $end
$var reg 1 . pushout_d $end
$var reg 32 / count [31:0] $end

$scope begin unnamed$$_0 $end
$upscope $end

$upscope $end

$upscope $end


$scope module uvm_pkg $end
$var reg 32 0 UVM_UNBOUNDED_CONNECTIONS [31:0] $end
$var reg 1 1 uvm_start_uvm_declarations $end
$var reg 32 2 uvm_global_random_seed [31:0] $end
$upscope $end

$enddefinitions $end

#0
$dumpvars
11
b11111111111111111111111111111111 0
b01000010000001111100110001000111 2
0!
0.
1"
1-
b0000000000 ,
b00000000000000000000000000000000 /
b10100 +
b0000000000 )
b000000000 &
0%
0(
x'
0*
0#
1$
$end
#4
0"
0$
#5
1!
1#
1'
#10
0!
0#
b100111100 &
1%
0-
#15
1!
1#
#20
0!
0#
#25
1!
1#
#30
0!
0#
#35
1!
1#
#40
0!
0#
#45
1!
1#
#50
0!
0#
b011101011 &
1-
b0011101011 ,
#53
1.
b00000000000000000000000000000001 /
#55
1!
1#
1*
b0011101011 )
1(
#58
0.
#60
0!
0#
b010001001 &
b0010001001 ,
#65
1!
1#
b0010001001 )
0(
#70
0!
0#
b010010001 &
b0010010001 ,
#75
1!
1#
b0010010001 )
#80
0!
0#
b010111001 &
b0010111001 ,
#85
1!
1#
b0010111001 )
#90
0!
0#
b000110111 &
b0000110111 ,
#95
1!
1#
b0000110111 )
#100
0!
0#
b010110101 &
b0010110101 ,
#105
1!
1#
b0010110101 )
#110
0!
0#
b001110101 &
b0001110101 ,
#115
1!
1#
b0001110101 )
#120
0!
0#
b010000010 &
b0010000010 ,
#125
1!
1#
b0010000010 )
#130
0!
0#
b011101111 &
b0011101111 ,
#135
1!
1#
b0011101111 )
#140
0!
0#
b010100001 &
b0010100001 ,
#145
1!
1#
b0010100001 )
#150
0!
0#
b011110101 &
b0011110101 ,
#155
1!
1#
b0011110101 )
#160
0!
0#
b010111011 &
b0010111011 ,
#165
1!
1#
b0010111011 )
#170
0!
0#
b010001101 &
b0010001101 ,
#175
1!
1#
b0010001101 )
#180
0!
0#
b001111011 &
b0001111011 ,
#185
1!
1#
b0001111011 )
#190
0!
0#
b001011010 &
b0001011010 ,
#195
1!
1#
b0001011010 )
#200
0!
0#
b010100111 &
b0010100111 ,
#205
1!
1#
b0010100111 )
#210
0!
0#
b010001001 &
b0010001001 ,
#215
1!
1#
b0010001001 )
#220
0!
0#
b010010001 &
b0010010001 ,
#225
1!
1#
b0010010001 )
#230
0!
0#
b010000111 &
b0010000111 ,
#235
1!
1#
b0010000111 )
#240
0!
0#
b010000101 &
b0010000101 ,
#245
1!
1#
b0010000101 )
#250
0!
0#
b110111100 &
0-
#255
1!
1#
0*
#260
0!
0#
0%
