dump.vcd
$date
	Sun May 16 18:50:02 2021
$end

$version
	Synopsys VCS version R-2020.12
$end

$timescale
	1ns
$end

$comment Csum: 1 ef36075bb0d7b2b9 $end


$scope module rushi $end
$upscope $end


$scope module top $end
$var reg 1 ! clk $end
$var reg 1 " reset $end

$scope begin unnamed$$_vcs_4 $end
$upscope $end


$scope begin unnamed$$_vcs_0 $end
$upscope $end


$scope begin unnamed$$_vcs_1 $end
$upscope $end


$scope begin unnamed$$_vcs_2 $end
$upscope $end


$scope begin unnamed$$_vcs_3 $end
$upscope $end


$scope module int_f $end
$var reg 1 # clk $end
$var reg 1 $ pushin $end
$var reg 9 % datain [8:0] $end
$var reg 1 & startin $end
$var reg 1 ' pushout $end
$var reg 10 ( dataout [9:0] $end
$var reg 1 ) startout $end
$var reg 1 * reset $end
$upscope $end


$scope module enc $end
$var wire 1 + clk $end
$var wire 1 , reset $end
$var wire 1 - pushin $end
$var wire 9 . datain [8:0] $end
$var wire 1 / startin $end
$var reg 1 0 pushout $end
$var wire 10 1 dataout [9:0] $end
$var reg 1 2 startout $end
$var wire 1 3 Kbit $end
$var wire 1 4 RD $end
$var wire 1 5 curRD $end
$var wire 32 6 crcResult [31:0] $end
$var reg 32 7 crcData [31:0] $end
$var reg 1 8 curRD0 $end
$var wire 10 9 outTemp [9:0] $end
$var wire 10 : kcode [9:0] $end
$var wire 10 ; kcodeCRC0 [9:0] $end
$var wire 10 < kcodeCRC1 [9:0] $end
$var wire 10 = firstCRC [9:0] $end
$var wire 10 > secondCRC [9:0] $end
$var wire 10 ? thirdCRC [9:0] $end
$var wire 10 @ fourthCRC [9:0] $end
$var reg 10 A trueOutput [9:0] $end
$var reg 4 B counterK281 [3:0] $end
$var reg 4 C counterK285 [3:0] $end
$var reg 2 D currentState [1:0] $end
$var reg 2 E nextState [1:0] $end

$scope function rearrange $end
$var reg 10 F rearrange [9:0] $end
$var reg 10 G data [9:0] $end
$var integer 32 H i $end
$upscope $end


$scope module rd10b $end
$var wire 1 + clk $end
$var wire 1 , reset $end
$var wire 1 / startin $end
$var wire 10 A dataout [9:0] $end
$var wire 1 0 pushout $end
$var reg 1 4 RDout $end
$var reg 1 I currentState $end
$var reg 1 J nextState $end

$scope function countOnes $end
$var reg 3 K countOnes [2:0] $end
$var reg 10 L data [9:0] $end
$var integer 32 M i $end
$upscope $end

$upscope $end


$scope module ec0 $end
$var wire 5 N datain [4:0] $end
$var wire 1 5 RD $end
$var wire 6 O dataout [5:0] $end
$var reg 6 P abcdei_d [5:0] $end
$upscope $end


$scope module ec1 $end
$var wire 3 Q datain [2:0] $end
$var wire 1 R RD $end
$var wire 5 N lower [4:0] $end
$var wire 4 S dataout [3:0] $end
$var reg 4 T fghj_d [3:0] $end
$var wire 1 U RD0 $end
$upscope $end


$scope module ec2 $end
$var wire 5 V datain [4:0] $end
$var wire 1 5 RD $end
$var wire 6 W dataout [5:0] $end
$var reg 6 X abcdei_d [5:0] $end
$upscope $end


$scope module ec3 $end
$var wire 3 Y datain [2:0] $end
$var wire 1 R RD $end
$var wire 5 V lower [4:0] $end
$var wire 4 Z dataout [3:0] $end
$var reg 4 [ fghj_d [3:0] $end
$var wire 1 \ RD0 $end
$upscope $end


$scope module ec4 $end
$var wire 5 ] datain [4:0] $end
$var wire 1 5 RD $end
$var wire 6 ^ dataout [5:0] $end
$var reg 6 _ abcdei_d [5:0] $end
$upscope $end


$scope module ec5 $end
$var wire 3 ` datain [2:0] $end
$var wire 1 R RD $end
$var wire 5 ] lower [4:0] $end
$var wire 4 a dataout [3:0] $end
$var reg 4 b fghj_d [3:0] $end
$var wire 1 c RD0 $end
$upscope $end


$scope module ec6 $end
$var wire 5 d datain [4:0] $end
$var wire 1 5 RD $end
$var wire 6 e dataout [5:0] $end
$var reg 6 f abcdei_d [5:0] $end
$upscope $end


$scope module ec7 $end
$var wire 3 g datain [2:0] $end
$var wire 1 R RD $end
$var wire 5 d lower [4:0] $end
$var wire 4 h dataout [3:0] $end
$var reg 4 i fghj_d [3:0] $end
$var wire 1 j RD0 $end
$upscope $end


$scope module ec8 $end
$var wire 5 k datain [4:0] $end
$var wire 1 5 RD $end
$var wire 6 l dataout [5:0] $end
$var reg 6 m abcdei_d [5:0] $end
$upscope $end


$scope module ec9 $end
$var wire 3 n datain [2:0] $end
$var wire 1 R RD $end
$var wire 5 k lower [4:0] $end
$var wire 4 o dataout [3:0] $end
$var reg 4 p fghj_d [3:0] $end
$var wire 1 q RD0 $end
$upscope $end


$scope module kc0 $end
$var wire 8 r datain [7:0] $end
$var wire 1 5 RD $end
$var wire 10 : dataout [9:0] $end
$var reg 10 s outTemp [9:0] $end
$upscope $end


$scope module kc1 $end
$var wire 8 t datain [7:0] $end
$var wire 1 5 RD $end
$var wire 10 ; dataout [9:0] $end
$var reg 10 u outTemp [9:0] $end
$upscope $end


$scope module kc2 $end
$var wire 8 v datain [7:0] $end
$var wire 1 5 RD $end
$var wire 10 < dataout [9:0] $end
$var reg 10 w outTemp [9:0] $end
$upscope $end


$scope module crc0 $end
$var wire 1 + clk $end
$var wire 1 , rst $end
$var wire 8 r crc32_in [7:0] $end
$var wire 1 x valid $end
$var wire 1 y is_S1DATA $end
$var wire 32 6 crc32_out [31:0] $end
$var reg 32 z crc32_out_buff [31:0] $end
$var reg 32 { crc32_table [31:0] $end
$var wire 8 | crc32_lut_in [7:0] $end
$upscope $end

$upscope $end

$upscope $end


$scope module uvm_pkg $end
$var reg 32 } UVM_UNBOUNDED_CONNECTIONS [31:0] $end
$var reg 1 ~ uvm_start_uvm_declarations $end
$var reg 32 "! uvm_global_random_seed [31:0] $end
$upscope $end

$enddefinitions $end

#0
$dumpvars
1~
b11111111111111111111111111111111 }
b01000010000001111100110001000111 "!
0!
1"
b0000000000 (
b000000000 %
03
04
08
00
0I
0J
02
xy
0x
b000 K
b0000000000 L
b00000000000000000000000000001010 M
b0000 B
b0000 C
b11111111 |
b11111111111111111111111111111111 z
bxxxxxxxxxxxxxxxxxxxxxxxxxxxxxxxx {
b00000000000000000000000000000000 7
b00000000000000000000000000000000 6
b00 D
b00 E
bxxxxxxxxxx G
bxxxxxxxxxxxxxxxxxxxxxxxxxxxxxxxx H
bxxxxxxxxxx F
b0000000000 A
b100111 P
1U
b0100 T
b100111 X
1\
b0100 [
b100111 _
1c
b0100 b
b100111 f
1j
b0100 i
b100111 m
1q
b0100 p
b0000000000 s
b0011111010 u
b1110101000 w
1,
b000000000 .
b0000000000 1
b1001110100 9
b100111 O
b0100 S
b1001110100 =
b100111 W
b0100 Z
b1001110100 >
b100111 ^
b0100 a
b1001110100 ?
b100111 e
b0100 h
b1001110100 @
b100111 l
b0100 o
05
1R
b00000 V
b000 Y
b00000 ]
b000 `
b00000 d
b000 g
b00000 k
b000 n
b0000000000 :
b10111100 t
b0011111010 ;
b11110111 v
b1110101000 <
0$
0'
0&
0)
0-
0/
0#
0+
1*
b00000000 r
b00000 N
b000 Q
$end
0y
#4
0"
0*
0,
#5
1!
1+
1#
1&
1/
1$
1-
b100111100 %
b100111100 .
13
b001 Q
b11100 N
b00111100 r
10
1'
12
1)
b0000000000 F
b00000000000000000000000000001010 H
b0000000000 G
b1001 T
b1001 S
b001110 P
b001110 O
0U
b0011111001 s
b0011111001 :
b0011101001 9
1J
14
b1001111100 A
b1001111100 1
b1001111100 (
b1001111100 F
b0011111001 G
b110 K
b1001111100 L
#10
0!
0+
0#
#15
1!
1+
1#
b0001 B
18
1I
0&
0/
15
0R
02
0)
0J
04
1U
0\
0c
0j
0q
b011000 X
b011000 W
b011000 _
b011000 ^
b011000 f
b011000 e
b011000 m
b011000 l
b1100000110 s
b1100000110 :
b1100000101 u
b1100000101 ;
b0001010111 w
b0001010111 <
b0110000100 =
b0110000100 >
b0110000100 ?
b0110000100 @
b1011 [
b1011 Z
b1011 b
b1011 a
b1011 i
b1011 h
b1011 p
b1011 o
b0110000011 A
b0110000011 1
b0110000011 (
b0110000011 F
b1100000110 G
b0110001011 =
b0110001011 >
b0110001011 ?
b0110001011 @
b100 K
b0110000011 L
#20
0!
0+
0#
#25
1!
1+
1#
b0010 B
08
05
1R
0I
0U
1\
1c
1j
1q
b100111 X
b100111 W
b100111 _
b100111 ^
b100111 f
b100111 e
b100111 m
b100111 l
b0011111001 s
b0011111001 :
b0011111010 u
b0011111010 ;
b1110101000 w
b1110101000 <
1J
14
b1001111011 =
b1001111011 >
b1001111011 ?
b1001111011 @
b0100 [
b0100 Z
b0100 b
b0100 a
b0100 i
b0100 h
b0100 p
b0100 o
b1001111100 A
b1001111100 1
b1001111100 (
b1001111100 F
b0011111001 G
b1001110100 =
b1001110100 >
b1001110100 ?
b1001110100 @
b110 K
b1001111100 L
#30
0!
0+
0#
#35
1!
1+
1#
b0011 B
18
15
0R
1I
b01 E
1U
0\
0c
0j
0q
b011000 X
b011000 W
b011000 _
b011000 ^
b011000 f
b011000 e
b011000 m
b011000 l
b1100000110 s
b1100000110 :
b1100000101 u
b1100000101 ;
b0001010111 w
b0001010111 <
0J
04
b0110000100 =
b0110000100 >
b0110000100 ?
b0110000100 @
b1011 [
b1011 Z
b1011 b
b1011 a
b1011 i
b1011 h
b1011 p
b1011 o
b0110000011 A
b0110000011 1
b0110000011 (
b0110000011 F
b1100000110 G
b0110001011 =
b0110001011 >
b0110001011 ?
b0110001011 @
b100 K
b0110000011 L
#40
0!
0+
0#
#45
1!
1+
1#
b0100 B
08
05
1R
b01 D
1y
0I
b100011100 %
b100011100 .
b000 Q
b00011100 r
0U
1\
1c
1j
1q
b100111 X
b100111 W
b100111 _
b100111 ^
b100111 f
b100111 e
b100111 m
b100111 l
b0011110100 s
b0011110100 :
b0011111010 u
b0011111010 ;
b1110101000 w
b1110101000 <
1J
14
b1011 T
b1011 S
b1001111011 =
b1001111011 >
b1001111011 ?
b1001111011 @
b0011101011 9
b0100 [
b0100 Z
b0100 b
b0100 a
b0100 i
b0100 h
b0100 p
b0100 o
b0010111100 A
b0010111100 1
b0010111100 (
b0010111100 F
b0011110100 G
b1001110100 =
b1001110100 >
b1001110100 ?
b1001110100 @
0J
04
b101 K
b0010111100 L
#50
0!
0+
0#
#55
1!
1+
1#
b0000 B
b011001100 %
b011001100 .
03
b110 Q
b01100 N
b11001100 r
b1101011100 A
b1101011100 1
b1101011100 (
b1101011100 F
b0011101011 G
1x
b0110 T
b0110 S
b001101 P
b001101 O
0U
b0000000000 s
b0000000000 :
b0011010110 9
1J
14
b110 K
b1101011100 L
b00110011 |
b10111111110100000110000100010110 {
b0110101100 A
b0110101100 1
b0110101100 (
b0110101100 F
b0011010110 G
0J
04
b101 K
b0110101100 L
#60
0!
0+
0#
#65
1!
1+
1#
b10111111001011111001111011101001 z
b01000000110100000110000100010110 6
b011100101 %
b011100101 .
b111 Q
b00101 N
b11100101 r
b00001100 |
b1110 T
b1110 S
b101001 P
b101001 O
0U
b1010011110 9
b00001001101101100100110000101011 {
b0111100101 A
b0111100101 1
b0111100101 (
b0111100101 F
b1010011110 G
1J
14
b110 K
b0111100101 L
#70
0!
0+
0#
#75
1!
1+
1#
b00001001000010010110001110110101 z
b11110110111101101001110001001010 6
18
15
0R
1I
b000011111 %
b000011111 .
b000 Q
b11111 N
b00011111 r
b10101010 |
0U
0\
0c
0j
0q
b010100 P
b010100 O
b011000 X
b011000 W
b011000 _
b011000 ^
b011000 f
b011000 e
b011000 m
b011000 l
b1100000101 u
b1100000101 ;
b0001010111 w
b0001010111 <
0J
04
b1011 T
b1011 S
b0101001011 9
b0110000100 =
b0110000100 >
b0110000100 ?
b0110000100 @
b00110110000000110100101011110110 {
b1011 [
b1011 Z
b1011 b
b1011 a
b1011 i
b1011 h
b1011 p
b1011 o
b1101001010 A
b1101001010 1
b1101001010 (
b1101001010 F
b0101001011 G
b0110001011 =
b0110001011 >
b0110001011 ?
b0110001011 @
1J
14
b101 K
b1101001010 L
#80
0!
0+
0#
#85
1!
1+
1#
b00110110000010100100001110010101 z
b11001001111101011011110001101010 6
b000000001 %
b000000001 .
b00001 N
b00000001 r
b10010100 |
b100010 P
b100010 O
b1000101011 9
b11110111011000100101011101011101 {
b1101010001 A
b1101010001 1
b1101010001 (
b1101010001 F
b1000101011 G
b1101010001 L
#90
0!
0+
0#
#95
1!
1+
1#
b11110111010101000101110100011110 z
b00001000101010111010001011100001 6
b110111100 %
b110111100 .
13
b101 Q
b11100 N
b10111100 r
b10 E
b1110101000 A
b1110101000 1
b1110101000 (
b00001000101010111010001011100001 7
b00001 V
b111 Y
b00010 ]
b101 `
b01011 d
b101 g
b01000 k
b1110101000 F
b0001010111 G
b10100010 |
0x
b1010 T
b1010 S
b001110 P
b001110 O
1U
b1100000101 s
b1100000101 :
b0011101010 9
b1110101000 L
b100010 X
b100010 W
b1110 [
b1110 Z
b010010 _
b010010 ^
b1010 b
b1010 a
b110100 f
b110100 e
b1010 i
b1010 h
1j
b000110 m
b000110 l
b00011110 |
b1000101110 =
b0100101010 >
b1101001010 ?
b0001101011 @
#100
0!
0+
0#
#105
1!
1+
1#
b10 D
0y
0$
0-
b0111010001 A
b0111010001 1
b0111010001 (
b0111010001 F
b1000101110 G
b0111010001 L
#110
0!
0+
0#
#115
1!
1+
1#
b0001 C
b11111111111111111111111111111111 z
b00000000000000000000000000000000 6
b0101010010 A
b0101010010 1
b0101010010 (
b0101010010 F
b0100101010 G
b11111111 |
0J
04
b100 K
b0101010010 L
#120
0!
0+
0#
#125
1!
1+
1#
b0010 C
08
05
1R
0I
b0101001011 A
b0101001011 1
b0101001011 (
b0101001011 F
b1101001010 G
0U
1\
1c
0j
1q
b011101 X
b011101 W
b101101 _
b101101 ^
b111001 m
b111001 l
b0011111010 s
b0011111010 :
b0011111010 u
b0011111010 ;
b1110101000 w
b1110101000 <
b101 K
b0101001011 L
b0111011110 =
b1011011010 >
b1110011011 @
b0001 [
b0001 Z
b0100 p
b0100 o
b0111010001 =
b1110010100 @
#130
0!
0+
0#
#135
1!
1+
1#
b0011 C
b0010100111 A
b0010100111 1
b0010100111 (
b0010100111 F
b1110010100 G
b0010100111 L
#140
0!
0+
0#
#145
1!
1+
1#
b0100 C
b00 E
b0101111100 A
b0101111100 1
b0101111100 (
b00000000000000000000000000000000 7
b00000 V
b000 Y
b00000 ]
b000 `
b00000 d
b000 g
b00000 k
b0101111100 F
b0011111010 G
1J
14
b110 K
b0101111100 L
b100111 X
b100111 W
b0100 [
b0100 Z
b100111 _
b100111 ^
b0100 b
b0100 a
b100111 f
b100111 e
b1011 i
b1011 h
1j
b100111 m
b100111 l
b1001110100 =
b1001110100 >
b1001111011 ?
b1001110100 @
b0100 i
b0100 h
b1001110100 ?
#150
0!
0+
0#
#155
1!
1+
1#
b0101 C
18
15
0R
b00 D
1I
b0000000000 A
b0000000000 1
b0000000000 (
00
0'
1U
0\
0c
0j
0q
b011000 X
b011000 W
b011000 _
b011000 ^
b011000 f
b011000 e
b011000 m
b011000 l
b1100000101 s
b1100000101 :
b1100000101 u
b1100000101 ;
b0001010111 w
b0001010111 <
04
b000 K
b0000000000 L
b0110000100 =
b0110000100 >
b0110000100 ?
b0110000100 @
b1011 [
b1011 Z
b1011 b
b1011 a
b1011 i
b1011 h
b1011 p
b1011 o
b0110001011 =
b0110001011 >
b0110001011 ?
b0110001011 @
#160
0!
0+
0#
#165
1!
1+
1#
b0000 C
08
05
1R
0U
1\
1c
1j
1q
b100111 X
b100111 W
b100111 _
b100111 ^
b100111 f
b100111 e
b100111 m
b100111 l
b0011111010 s
b0011111010 :
b0011111010 u
b0011111010 ;
b1110101000 w
b1110101000 <
b1001111011 =
b1001111011 >
b1001111011 ?
b1001111011 @
b0100 [
b0100 Z
b0100 b
b0100 a
b0100 i
b0100 h
b0100 p
b0100 o
b1001110100 =
b1001110100 >
b1001110100 ?
b1001110100 @
#170
0!
0+
0#
#175
1!
1+
1#
#180
0!
0+
0#
#185
1!
1+
1#
#190
0!
0+
0#
#195
1!
1+
1#
b000000000 %
b000000000 .
03
b000 Q
b00000 N
b00000000 r
b1011 T
b1011 S
b100111 P
b100111 O
1U
b0000000000 s
b0000000000 :
b1001111011 9
b0100 T
b0100 S
b1001110100 9
#200
0!
0+
0#
#205
1!
1+
1#
1&
1/
1$
1-
b100111100 %
b100111100 .
13
b001 Q
b11100 N
b00111100 r
10
1'
12
1)
b0000000000 F
b0000000000 G
b1001 T
b1001 S
b001110 P
b001110 O
0U
b0011111001 s
b0011111001 :
b0011101001 9
14
b1001111100 A
b1001111100 1
b1001111100 (
b1001111100 F
b0011111001 G
b110 K
b1001111100 L
#210
0!
0+
0#
#215
1!
1+
1#
b0001 B
18
0&
0/
15
0R
02
0)
0J
04
1U
0\
0c
0j
0q
b011000 X
b011000 W
b011000 _
b011000 ^
b011000 f
b011000 e
b011000 m
b011000 l
b1100000110 s
b1100000110 :
b1100000101 u
b1100000101 ;
b0001010111 w
b0001010111 <
b0110000100 =
b0110000100 >
b0110000100 ?
b0110000100 @
b1011 [
b1011 Z
b1011 b
b1011 a
b1011 i
b1011 h
b1011 p
b1011 o
b0110000011 A
b0110000011 1
b0110000011 (
b0110000011 F
b1100000110 G
b0110001011 =
b0110001011 >
b0110001011 ?
b0110001011 @
b100 K
b0110000011 L
#220
0!
0+
0#
#225
1!
1+
1#
b0010 B
08
05
1R
0I
0U
1\
1c
1j
1q
b100111 X
b100111 W
b100111 _
b100111 ^
b100111 f
b100111 e
b100111 m
b100111 l
b0011111001 s
b0011111001 :
b0011111010 u
b0011111010 ;
b1110101000 w
b1110101000 <
1J
14
b1001111011 =
b1001111011 >
b1001111011 ?
b1001111011 @
b0100 [
b0100 Z
b0100 b
b0100 a
b0100 i
b0100 h
b0100 p
b0100 o
b1001111100 A
b1001111100 1
b1001111100 (
b1001111100 F
b0011111001 G
b1001110100 =
b1001110100 >
b1001110100 ?
b1001110100 @
b110 K
b1001111100 L
#230
0!
0+
0#
#235
1!
1+
1#
b0011 B
18
15
0R
1I
b01 E
1U
0\
0c
0j
0q
b011000 X
b011000 W
b011000 _
b011000 ^
b011000 f
b011000 e
b011000 m
b011000 l
b1100000110 s
b1100000110 :
b1100000101 u
b1100000101 ;
b0001010111 w
b0001010111 <
0J
04
b0110000100 =
b0110000100 >
b0110000100 ?
b0110000100 @
b1011 [
b1011 Z
b1011 b
b1011 a
b1011 i
b1011 h
b1011 p
b1011 o
b0110000011 A
b0110000011 1
b0110000011 (
b0110000011 F
b1100000110 G
b0110001011 =
b0110001011 >
b0110001011 ?
b0110001011 @
b100 K
b0110000011 L
#240
0!
0+
0#
#245
1!
1+
1#
b0100 B
08
05
1R
b01 D
1y
0I
b000100111 %
b000100111 .
03
b00111 N
b00100111 r
b1001011100 A
b1001011100 1
b1001011100 (
b1001011100 F
b0011101001 G
0U
1\
1c
1j
1q
b111000 P
b111000 O
b100111 X
b100111 W
b100111 _
b100111 ^
b100111 f
b100111 e
b100111 m
b100111 l
b0000000000 s
b0000000000 :
b0011111010 u
b0011111010 ;
b1110101000 w
b1110101000 <
b101 K
b1001011100 L
1x
b1110001001 9
b1001111011 =
b1001111011 >
b1001111011 ?
b1001111011 @
b0100 [
b0100 Z
b0100 b
b0100 a
b0100 i
b0100 h
b0100 p
b0100 o
b1001000111 A
b1001000111 1
b1001000111 (
b1001000111 F
b1110001001 G
b11011000 |
b10001000000010000101101011100110 {
b1001110100 =
b1001110100 >
b1001110100 ?
b1001110100 @
b1001000111 L
#250
0!
0+
0#
#255
1!
1+
1#
b0000 B
b10001000111101111010010100011001 z
b01110111000010000101101011100110 6
b011001101 %
b011001101 .
b110 Q
b01101 N
b11001101 r
b11010100 |
b0110 T
b0110 S
b101100 P
b101100 O
b1011000110 9
b10000001101111100001011011001101 {
b0110001101 A
b0110001101 1
b0110001101 (
b0110001101 F
b1011000110 G
b0110001101 L
#260
0!
0+
0#
#265
1!
1+
1#
b10000001001101101110000101101000 z
b01111110110010010001111010010111 6
b010001000 %
b010001000 .
b100 Q
b01000 N
b10001000 r
b11100000 |
b1101 T
b1101 S
b111001 P
b111001 O
1U
b1110011101 9
b10100000000010101110001001111000 {
b0010 T
b0010 S
b0100100111 A
b0100100111 1
b0100100111 (
b0100100111 F
b1110010010 G
b1110010010 9
b0100100111 L
#270
0!
0+
0#
#275
1!
1+
1#
b10100000100010111101010010011001 z
b01011111011101000010101101100110 6
b001010011 %
b001010011 .
b010 Q
b10011 N
b01010011 r
b11001010 |
b0101 T
b0101 S
b110010 P
b110010 O
0U
b1100100101 9
b01111011101100010010101110101110 {
b1010010011 A
b1010010011 1
b1010010011 (
b1010010011 F
b1100100101 G
b1010010011 L
#280
0!
0+
0#
#285
1!
1+
1#
b01111011000100011010000001111010 z
b10000100111011100101111110000101 6
b011000100 %
b011000100 .
b110 Q
b00100 N
b11000100 r
b10111110 |
b0110 T
b0110 S
b110101 P
b110101 O
1U
b1101010110 9
b00101100110110011001111010001011 {
b0110101011 A
b0110101011 1
b0110101011 (
b0110101011 F
b1101010110 G
1J
14
b110 K
b0110101011 L
#290
0!
0+
0#
#295
1!
1+
1#
b00101100101000101000111100101011 z
b11010011010111010111000011010100 6
18
15
0R
1I
b110111100 %
b110111100 .
13
b101 Q
b11100 N
b10111100 r
b10 E
b0001010111 A
b0001010111 1
b0001010111 (
b11010011010111010111000011010100 7
b10100 V
b110 Y
b10000 ]
b011 `
b11101 d
b010 g
b10011 k
b110 n
b0001010111 F
b1110101000 G
b10010111 |
1U
1\
0c
0j
1q
b001110 P
b001110 O
b001011 X
b001011 W
b100100 _
b100100 ^
b010001 f
b010001 e
b110010 m
b110010 l
b1100000101 s
b1100000101 :
b1100000101 u
b1100000101 ;
b0001010111 w
b0001010111 <
b101 K
b0001010111 L
0x
b1010 T
b1010 S
b0011101010 9
b0010110100 =
b1001000100 >
b0100010100 ?
b1100100100 @
b0110 [
b0110 Z
b1100 b
b1100 a
b0101 i
b0101 h
b0110 p
b0110 o
b1110101000 A
b1110101000 1
b1110101000 (
b1110101000 F
b0001010111 G
b00101011 |
b0010110110 =
b1001001100 >
b0100010101 ?
b1100100110 @
b1110101000 L
#300
0!
0+
0#
#305
1!
1+
1#
b10 D
0y
0$
0-
b0110110100 A
b0110110100 1
b0110110100 (
b0110110100 F
b0010110110 G
b0110110100 L
#310
0!
0+
0#
#315
1!
1+
1#
b0001 C
b11111111111111111111111111111111 z
b00000000000000000000000000000000 6
b0011001001 A
b0011001001 1
b0011001001 (
b0011001001 F
b1001001100 G
b11111111 |
0J
04
b100 K
b0011001001 L
#320
0!
0+
0#
#325
1!
1+
1#
b0010 C
08
05
1R
0I
b1010100010 A
b1010100010 1
b1010100010 (
b1010100010 F
b0100010101 G
0U
0\
1c
1j
0q
b011011 _
b011011 ^
b101110 f
b101110 e
b0011111010 s
b0011111010 :
b0011111010 u
b0011111010 ;
b1110101000 w
b1110101000 <
1J
14
b1010100010 L
b0110111100 >
b1011100101 ?
b0011 b
b0011 a
b1010011101 A
b1010011101 1
b1010011101 (
b1010011101 F
b1011100101 G
b0110110011 >
b110 K
b1010011101 L
#330
0!
0+
0#
#335
1!
1+
1#
b0011 C
18
15
0R
1I
b0110010011 A
b0110010011 1
b0110010011 (
b0110010011 F
b1100100110 G
1U
1\
0c
0j
1q
b100100 _
b100100 ^
b010001 f
b010001 e
b1100000101 s
b1100000101 :
b1100000101 u
b1100000101 ;
b0001010111 w
b0001010111 <
b101 K
b0110010011 L
b1001000011 >
b0100010101 ?
b1100 b
b1100 a
b1001001100 >
#340
0!
0+
0#
#345
1!
1+
1#
b0100 C
b00 E
b1010000011 A
b1010000011 1
b1010000011 (
b00000000000000000000000000000000 7
b00000 V
b000 Y
b00000 ]
b000 `
b00000 d
b000 g
b00000 k
b000 n
b1010000011 F
b1100000101 G
0J
04
b100 K
b1010000011 L
b011000 X
b011000 W
b0100 [
b0100 Z
0\
b011000 _
b011000 ^
b1011 b
b1011 a
b011000 f
b011000 e
b1011 i
b1011 h
b011000 m
b011000 l
b0100 p
b0100 o
0q
b0110000100 =
b0110001011 >
b0110001011 ?
b0110000100 @
b1011 [
b1011 Z
b1011 p
b1011 o
b0110001011 =
b0110001011 @
#350
0!
0+
0#
#355
1!
1+
1#
b0101 C
08
05
1R
b00 D
0I
b0000000000 A
b0000000000 1
b0000000000 (
00
0'
0U
1\
1c
1j
1q
b100111 X
b100111 W
b100111 _
b100111 ^
b100111 f
b100111 e
b100111 m
b100111 l
b0011111010 s
b0011111010 :
b0011111010 u
b0011111010 ;
b1110101000 w
b1110101000 <
b000 K
b0000000000 L
b1001111011 =
b1001111011 >
b1001111011 ?
b1001111011 @
b0100 [
b0100 Z
b0100 b
b0100 a
b0100 i
b0100 h
b0100 p
b0100 o
b1001110100 =
b1001110100 >
b1001110100 ?
b1001110100 @
#360
0!
0+
0#
#365
1!
1+
1#
b0000 C
#370
0!
0+
0#
#375
1!
1+
1#
#380
0!
0+
0#
#385
1!
1+
1#
#390
0!
0+
0#
#395
1!
1+
1#
b000000000 %
b000000000 .
03
b000 Q
b00000 N
b00000000 r
b1011 T
b1011 S
b100111 P
b100111 O
1U
b0000000000 s
b0000000000 :
b1001111011 9
b0100 T
b0100 S
b1001110100 9
#400
0!
0+
0#
#405
1!
1+
1#
1&
1/
1$
1-
b100111100 %
b100111100 .
13
b001 Q
b11100 N
b00111100 r
10
1'
12
1)
b0000000000 F
b0000000000 G
b1001 T
b1001 S
b001110 P
b001110 O
0U
b0011111001 s
b0011111001 :
b0011101001 9
1J
14
b1001111100 A
b1001111100 1
b1001111100 (
b1001111100 F
b0011111001 G
b110 K
b1001111100 L
#410
0!
0+
0#
#415
1!
1+
1#
b0001 B
18
1I
0&
0/
15
0R
02
0)
0J
04
1U
0\
0c
0j
0q
b011000 X
b011000 W
b011000 _
b011000 ^
b011000 f
b011000 e
b011000 m
b011000 l
b1100000110 s
b1100000110 :
b1100000101 u
b1100000101 ;
b0001010111 w
b0001010111 <
b0110000100 =
b0110000100 >
b0110000100 ?
b0110000100 @
b1011 [
b1011 Z
b1011 b
b1011 a
b1011 i
b1011 h
b1011 p
b1011 o
b0110000011 A
b0110000011 1
b0110000011 (
b0110000011 F
b1100000110 G
b0110001011 =
b0110001011 >
b0110001011 ?
b0110001011 @
b100 K
b0110000011 L
#420
0!
0+
0#
#425
1!
1+
1#
b0010 B
08
05
1R
0I
0U
1\
1c
1j
1q
b100111 X
b100111 W
b100111 _
b100111 ^
b100111 f
b100111 e
b100111 m
b100111 l
b0011111001 s
b0011111001 :
b0011111010 u
b0011111010 ;
b1110101000 w
b1110101000 <
1J
14
b1001111011 =
b1001111011 >
b1001111011 ?
b1001111011 @
b0100 [
b0100 Z
b0100 b
b0100 a
b0100 i
b0100 h
b0100 p
b0100 o
b1001111100 A
b1001111100 1
b1001111100 (
b1001111100 F
b0011111001 G
b1001110100 =
b1001110100 >
b1001110100 ?
b1001110100 @
b110 K
b1001111100 L
#430
0!
0+
0#
#435
1!
1+
1#
b0011 B
18
15
0R
1I
b01 E
1U
0\
0c
0j
0q
b011000 X
b011000 W
b011000 _
b011000 ^
b011000 f
b011000 e
b011000 m
b011000 l
b1100000110 s
b1100000110 :
b1100000101 u
b1100000101 ;
b0001010111 w
b0001010111 <
0J
04
b0110000100 =
b0110000100 >
b0110000100 ?
b0110000100 @
b1011 [
b1011 Z
b1011 b
b1011 a
b1011 i
b1011 h
b1011 p
b1011 o
b0110000011 A
b0110000011 1
b0110000011 (
b0110000011 F
b1100000110 G
b0110001011 =
b0110001011 >
b0110001011 ?
b0110001011 @
b100 K
b0110000011 L
#440
0!
0+
0#
#445
1!
1+
1#
b0100 B
08
05
1R
b01 D
1y
0I
b000111001 %
b000111001 .
03
b11001 N
b00111001 r
b1001011100 A
b1001011100 1
b1001011100 (
b1001011100 F
b0011101001 G
0U
1\
1c
1j
1q
b100110 P
b100110 O
b100111 X
b100111 W
b100111 _
b100111 ^
b100111 f
b100111 e
b100111 m
b100111 l
b0000000000 s
b0000000000 :
b0011111010 u
b0011111010 ;
b1110101000 w
b1110101000 <
b101 K
b1001011100 L
1x
b1001101001 9
b1001111011 =
b1001111011 >
b1001111011 ?
b1001111011 @
b0100 [
b0100 Z
b0100 b
b0100 a
b0100 i
b0100 h
b0100 p
b0100 o
b1001011001 A
b1001011001 1
b1001011001 (
b1001011001 F
b1001101001 G
b11000110 |
b01110010000001110110011110000101 {
b1001110100 =
b1001110100 >
b1001110100 ?
b1001110100 @
b1001011001 L
#450
0!
0+
0#
#455
1!
1+
1#
b0000 B
b01110010111110001001100001111010 z
b10001101000001110110011110000101 6
b011011111 %
b011011111 .
b110 Q
b11111 N
b11011111 r
b10100101 |
b0110 T
b0110 S
b101011 P
b101011 O
1U
b1010110110 9
b10100110101111000101011101100111 {
b0110110101 A
b0110110101 1
b0110110101 (
b0110110101 F
b1010110110 G
1J
14
b110 K
b0110110101 L
#460
0!
0+
0#
#465
1!
1+
1#
b10100110110011101010111111111111 z
b01011001001100010101000000000000 6
18
15
0R
1I
b010110110 %
b010110110 .
b101 Q
b10110 N
b10110110 r
b01001001 |
1U
0\
0c
0j
0q
b011010 P
b011010 O
b011000 X
b011000 W
b011000 _
b011000 ^
b011000 f
b011000 e
b011000 m
b011000 l
b1100000101 u
b1100000101 ;
b0001010111 w
b0001010111 <
0J
04
b1010 T
b1010 S
b0110101010 9
b0110000100 =
b0110000100 >
b0110000100 ?
b0110000100 @
b00001111000000001111100100110100 {
b1011 [
b1011 Z
b1011 b
b1011 a
b1011 i
b1011 h
b1011 p
b1011 o
b0101010110 A
b0101010110 1
b0101010110 (
b0101010110 F
b0110101010 G
b0110001011 =
b0110001011 >
b0110001011 ?
b0110001011 @
1J
14
b101 K
b0101010110 L
