dump.vcd
$date
	Sun May 16 16:27:37 2021
$end

$version
	Synopsys VCS version R-2020.12
$end

$timescale
	1ns
$end

$comment Csum: 1 9a0d6264bbd70687 $end


$scope module rushi $end
$upscope $end


$scope module top $end
$var reg 1 ! clk $end
$var reg 1 " reset $end

$scope begin unnamed$$_vcs_4 $end
$upscope $end


$scope begin unnamed$$_vcs_0 $end
$upscope $end


$scope begin unnamed$$_vcs_1 $end
$upscope $end


$scope begin unnamed$$_vcs_2 $end
$upscope $end


$scope begin unnamed$$_vcs_3 $end
$upscope $end


$scope module int_f $end
$var reg 1 # clk $end
$var reg 1 $ pushin $end
$var reg 9 % datain [8:0] $end
$var reg 1 & startin $end
$var reg 1 ' pushout $end
$var reg 10 ( dataout [9:0] $end
$var reg 1 ) startout $end
$var reg 1 * reset $end
$upscope $end


$scope module enc $end
$var wire 1 + clk $end
$var wire 1 , reset $end
$var wire 1 - pushin $end
$var wire 9 . datain [8:0] $end
$var wire 1 / startin $end
$var reg 1 0 pushout $end
$var wire 10 1 dataout [9:0] $end
$var reg 1 2 startout $end
$var wire 1 3 Kbit $end
$var wire 1 4 RD6B $end
$var wire 1 5 RD4B $end
$var wire 1 6 RD $end
$var wire 1 7 curRD $end
$var wire 32 8 crcResult [31:0] $end
$var reg 32 9 crcData [31:0] $end
$var reg 1 : curRD6B $end
$var reg 1 ; curRD4B $end
$var reg 1 < curRD0 $end
$var wire 10 = outTemp [9:0] $end
$var wire 10 > kcode [9:0] $end
$var wire 10 ? kcodeCRC0 [9:0] $end
$var wire 10 @ kcodeCRC1 [9:0] $end
$var wire 10 A firstCRC [9:0] $end
$var wire 10 B secondCRC [9:0] $end
$var wire 10 C thirdCRC [9:0] $end
$var wire 10 D fourthCRC [9:0] $end
$var reg 10 E trueOutput [9:0] $end
$var reg 4 F counterK281 [3:0] $end
$var reg 4 G counterK285 [3:0] $end
$var reg 2 H currentState [1:0] $end
$var reg 2 I nextState [1:0] $end

$scope function rearrange $end
$var reg 10 J rearrange [9:0] $end
$var reg 10 K data [9:0] $end
$var integer 32 L i $end
$upscope $end


$scope module rd6b $end
$var wire 1 + clk $end
$var wire 1 , reset $end
$var wire 1 / startin $end
$var wire 6 M dataout [5:0] $end
$var wire 1 0 pushout $end
$var reg 1 4 RDout $end
$var reg 1 N currentState $end
$var reg 1 O nextState $end

$scope function countOnes $end
$var reg 3 P countOnes [2:0] $end
$var reg 6 Q data [5:0] $end
$var integer 32 R i $end
$upscope $end

$upscope $end


$scope module rd4b $end
$var wire 1 + clk $end
$var wire 1 , reset $end
$var wire 1 / startin $end
$var wire 4 S dataout [3:0] $end
$var wire 1 0 pushout $end
$var reg 1 5 RDout $end
$var reg 1 T currentState $end
$var reg 1 U nextState $end

$scope function countOnes $end
$var reg 3 V countOnes [2:0] $end
$var reg 4 W data [3:0] $end
$var integer 32 X i $end
$upscope $end

$upscope $end


$scope module rd10b $end
$var wire 1 + clk $end
$var wire 1 , reset $end
$var wire 1 / startin $end
$var wire 10 E dataout [9:0] $end
$var wire 1 0 pushout $end
$var reg 1 6 RDout $end
$var reg 1 Y currentState $end
$var reg 1 Z nextState $end

$scope function countOnes $end
$var reg 3 [ countOnes [2:0] $end
$var reg 10 \ data [9:0] $end
$var integer 32 ] i $end
$upscope $end

$upscope $end


$scope module ec0 $end
$var wire 5 ^ datain [4:0] $end
$var wire 1 7 RD $end
$var wire 6 _ dataout [5:0] $end
$var reg 6 ` abcdei_d [5:0] $end
$upscope $end


$scope module ec1 $end
$var wire 3 a datain [2:0] $end
$var wire 1 b RD $end
$var wire 5 ^ lower [4:0] $end
$var wire 4 c dataout [3:0] $end
$var reg 4 d fghj_d [3:0] $end
$var wire 1 e RD0 $end
$upscope $end


$scope module ec2 $end
$var wire 5 f datain [4:0] $end
$var wire 1 7 RD $end
$var wire 6 g dataout [5:0] $end
$var reg 6 h abcdei_d [5:0] $end
$upscope $end


$scope module ec3 $end
$var wire 3 i datain [2:0] $end
$var wire 1 b RD $end
$var wire 5 f lower [4:0] $end
$var wire 4 j dataout [3:0] $end
$var reg 4 k fghj_d [3:0] $end
$var wire 1 l RD0 $end
$upscope $end


$scope module ec4 $end
$var wire 5 m datain [4:0] $end
$var wire 1 7 RD $end
$var wire 6 n dataout [5:0] $end
$var reg 6 o abcdei_d [5:0] $end
$upscope $end


$scope module ec5 $end
$var wire 3 p datain [2:0] $end
$var wire 1 b RD $end
$var wire 5 m lower [4:0] $end
$var wire 4 q dataout [3:0] $end
$var reg 4 r fghj_d [3:0] $end
$var wire 1 s RD0 $end
$upscope $end


$scope module ec6 $end
$var wire 5 t datain [4:0] $end
$var wire 1 7 RD $end
$var wire 6 u dataout [5:0] $end
$var reg 6 v abcdei_d [5:0] $end
$upscope $end


$scope module ec7 $end
$var wire 3 w datain [2:0] $end
$var wire 1 b RD $end
$var wire 5 t lower [4:0] $end
$var wire 4 x dataout [3:0] $end
$var reg 4 y fghj_d [3:0] $end
$var wire 1 z RD0 $end
$upscope $end


$scope module ec8 $end
$var wire 5 { datain [4:0] $end
$var wire 1 7 RD $end
$var wire 6 | dataout [5:0] $end
$var reg 6 } abcdei_d [5:0] $end
$upscope $end


$scope module ec9 $end
$var wire 3 ~ datain [2:0] $end
$var wire 1 b RD $end
$var wire 5 { lower [4:0] $end
$var wire 4 "! dataout [3:0] $end
$var reg 4 "" fghj_d [3:0] $end
$var wire 1 "# RD0 $end
$upscope $end


$scope module kc0 $end
$var wire 8 "$ datain [7:0] $end
$var wire 1 7 RD $end
$var wire 10 > dataout [9:0] $end
$var reg 10 "% outTemp [9:0] $end
$upscope $end


$scope module kc1 $end
$var wire 8 "& datain [7:0] $end
$var wire 1 7 RD $end
$var wire 10 ? dataout [9:0] $end
$var reg 10 "' outTemp [9:0] $end
$upscope $end


$scope module kc2 $end
$var wire 8 "( datain [7:0] $end
$var wire 1 7 RD $end
$var wire 10 @ dataout [9:0] $end
$var reg 10 ") outTemp [9:0] $end
$upscope $end


$scope module crc0 $end
$var wire 1 + clk $end
$var wire 1 , rst $end
$var wire 8 "$ crc32_in [7:0] $end
$var wire 1 "* valid $end
$var wire 1 "+ is_S1DATA $end
$var wire 32 8 crc32_out [31:0] $end
$var reg 32 ", crc32_out_buff [31:0] $end
$var reg 32 "- crc32_table [31:0] $end
$var wire 8 ". crc32_lut_in [7:0] $end
$upscope $end

$upscope $end

$upscope $end


$scope module uvm_pkg $end
$var reg 32 "/ UVM_UNBOUNDED_CONNECTIONS [31:0] $end
$var reg 1 "0 uvm_start_uvm_declarations $end
$var reg 32 "1 uvm_global_random_seed [31:0] $end
$upscope $end

$enddefinitions $end

#0
$dumpvars
1"0
b11111111111111111111111111111111 "/
b01000010000001111100110001000111 "1
0!
1"
b0000000000 (
b000000000 %
03
04
0<
0;
0:
00
06
0Y
0Z
05
0T
0U
0N
0O
02
x"+
0"*
b000 P
b000000 Q
b00000000000000000000000000000110 R
b0000 F
b0000 G
b11111111 ".
b11111111111111111111111111111111 ",
bxxxxxxxxxxxxxxxxxxxxxxxxxxxxxxxx "-
b00000000000000000000000000000000 9
b00000000000000000000000000000000 8
b00 H
b00 I
b0000000000 \
b00000000000000000000000000001010 ]
b000 [
b0000 W
b00000000000000000000000000000100 X
b000 V
bxxxxxxxxxx K
bxxxxxxxxxxxxxxxxxxxxxxxxxxxxxxxx L
bxxxxxxxxxx J
bxxxx S
bxxxxxx M
b0000000000 E
b100111 `
1e
b0100 d
b100111 h
1l
b0100 k
b100111 o
1s
b0100 r
b100111 v
1z
b0100 y
b100111 }
1"#
b0100 ""
b0000000000 "%
b0011111010 "'
b1110101000 ")
1,
b000000000 .
b0000000000 1
b1001110100 =
b100111 _
b0100 c
b1001110100 A
b100111 g
b0100 j
b1001110100 B
b100111 n
b0100 q
b1001110100 C
b100111 u
b0100 x
b1001110100 D
b100111 |
b0100 "!
07
1b
b00000 f
b000 i
b00000 m
b000 p
b00000 t
b000 w
b00000 {
b000 ~
b0000000000 >
b10111100 "&
b0011111010 ?
b11110111 "(
b1110101000 @
0$
0'
0&
0)
0-
0/
0#
0+
1*
b00000000 "$
b00000 ^
b000 a
$end
b0000 S
b000000 M
0"+
#4
0"
0*
0,
#5
1!
1+
1#
1&
1/
1$
1-
b100111100 %
b100111100 .
13
b001 a
b11100 ^
b00111100 "$
10
1'
12
1)
b0000000000 J
b00000000000000000000000000001010 L
b0000000000 K
b1001 d
b1001 c
b001110 `
b001110 _
0e
b0011111001 "%
b0011111001 >
b0011101001 =
1O
14
1U
15
1Z
16
b1001111100 E
b1001 S
b111100 M
b1001111100 1
b1001111100 (
b1001111100 J
b0011111001 K
b110 [
b1001111100 \
0U
05
b010 V
b1001 W
b100 P
b111100 Q
#10
0!
0+
0#
#15
1!
1+
1#
b0001 F
1<
1:
1N
1Y
0&
0/
17
0b
02
0)
0O
04
0Z
06
1e
0l
0s
0z
0"#
b011000 h
b011000 g
b011000 o
b011000 n
b011000 v
b011000 u
b011000 }
b011000 |
b1100000110 "%
b1100000110 >
b1100000101 "'
b1100000101 ?
b0001010111 ")
b0001010111 @
b0110000100 A
b0110000100 B
b0110000100 C
b0110000100 D
b1011 k
b1011 j
b1011 r
b1011 q
b1011 y
b1011 x
b1011 ""
b1011 "!
b0110000011 E
b0110 S
b000011 M
b0110000011 1
b0110000011 (
b0110000011 J
b1100000110 K
b0110001011 A
b0110001011 B
b0110001011 C
b0110001011 D
b100 [
b0110000011 \
b0110 W
b010 P
b000011 Q
#20
0!
0+
0#
#25
1!
1+
1#
b0010 F
0<
07
1b
0:
0N
0Y
0e
1l
1s
1z
1"#
b100111 h
b100111 g
b100111 o
b100111 n
b100111 v
b100111 u
b100111 }
b100111 |
b0011111001 "%
b0011111001 >
b0011111010 "'
b0011111010 ?
b1110101000 ")
b1110101000 @
1O
14
1Z
16
b1001111011 A
b1001111011 B
b1001111011 C
b1001111011 D
b0100 k
b0100 j
b0100 r
b0100 q
b0100 y
b0100 x
b0100 ""
b0100 "!
b1001111100 E
b1001 S
b111100 M
b1001111100 1
b1001111100 (
b1001111100 J
b0011111001 K
b1001110100 A
b1001110100 B
b1001110100 C
b1001110100 D
b110 [
b1001111100 \
b1001 W
b100 P
b111100 Q
#30
0!
0+
0#
#35
1!
1+
1#
b0011 F
1<
17
0b
1:
1N
1Y
b01 I
1e
0l
0s
0z
0"#
b011000 h
b011000 g
b011000 o
b011000 n
b011000 v
b011000 u
b011000 }
b011000 |
b1100000110 "%
b1100000110 >
b1100000101 "'
b1100000101 ?
b0001010111 ")
b0001010111 @
0O
04
0Z
06
b0110000100 A
b0110000100 B
b0110000100 C
b0110000100 D
b1011 k
b1011 j
b1011 r
b1011 q
b1011 y
b1011 x
b1011 ""
b1011 "!
b0110000011 E
b0110 S
b000011 M
b0110000011 1
b0110000011 (
b0110000011 J
b1100000110 K
b0110001011 A
b0110001011 B
b0110001011 C
b0110001011 D
b100 [
b0110000011 \
b0110 W
b010 P
b000011 Q
#40
0!
0+
0#
#45
1!
1+
1#
b0100 F
0<
07
1b
0:
b01 H
1"+
0N
0Y
b100011100 %
b100011100 .
b000 a
b00011100 "$
0e
1l
1s
1z
1"#
b100111 h
b100111 g
b100111 o
b100111 n
b100111 v
b100111 u
b100111 }
b100111 |
b0011110100 "%
b0011110100 >
b0011111010 "'
b0011111010 ?
b1110101000 ")
b1110101000 @
1O
14
1Z
16
b1011 d
b1011 c
b1001111011 A
b1001111011 B
b1001111011 C
b1001111011 D
b0011101011 =
b0100 k
b0100 j
b0100 r
b0100 q
b0100 y
b0100 x
b0100 ""
b0100 "!
b0010111100 E
b0010 S
b111100 M
b0010111100 1
b0010111100 (
b0010111100 J
b0011110100 K
b1001110100 A
b1001110100 B
b1001110100 C
b1001110100 D
0Z
06
b101 [
b0010111100 \
1U
15
b001 V
b0010 W
b100 P
b111100 Q
#50
0!
0+
0#
#55
1!
1+
1#
b0000 F
1;
1:
1N
1T
b011001100 %
b011001100 .
03
b110 a
b01100 ^
b11001100 "$
b1101011100 E
b1101 S
b011100 M
b1101011100 1
b1101011100 (
b1101011100 J
b0011101011 K
b011 P
b011100 Q
0U
05
b011 V
b1101 W
1"*
b0110 d
b0110 c
b001101 `
b001101 _
0e
b0000000000 "%
b0000000000 >
b0011010110 =
1Z
16
b110 [
b1101011100 \
b00110011 ".
b10111111110100000110000100010110 "-
b0110101100 E
b0110 S
b101100 M
b0110101100 1
b0110101100 (
b0110101100 J
b0011010110 K
0Z
06
b101 [
b0110101100 \
1U
15
b010 V
b0110 W
b101100 Q
#60
0!
0+
0#
#65
1!
1+
1#
b10111111001011111001111011101001 ",
b01000000110100000110000100010110 8
b011100101 %
b011100101 .
b111 a
b00101 ^
b11100101 "$
b00001100 ".
b1110 d
b1110 c
b101001 `
b101001 _
0e
b1010011110 =
b00001001101101100100110000101011 "-
b0111100101 E
b0111 S
b100101 M
b0111100101 1
b0111100101 (
b0111100101 J
b1010011110 K
1Z
16
b110 [
b0111100101 \
0U
05
b011 V
b0111 W
b100101 Q
#70
0!
0+
0#
#75
1!
1+
1#
b00001001000010010110001110110101 ",
b11110110111101101001110001001010 8
1<
17
0b
0;
0T
1Y
b000011111 %
b000011111 .
b000 a
b11111 ^
b00011111 "$
b10101010 ".
0e
0l
0s
0z
0"#
b010100 `
b010100 _
b011000 h
b011000 g
b011000 o
b011000 n
b011000 v
b011000 u
b011000 }
b011000 |
b1100000101 "'
b1100000101 ?
b0001010111 ")
b0001010111 @
1U
15
0Z
06
b1011 d
b1011 c
b0101001011 =
b0110000100 A
b0110000100 B
b0110000100 C
b0110000100 D
b00110110000000110100101011110110 "-
b1011 k
b1011 j
b1011 r
b1011 q
b1011 y
b1011 x
b1011 ""
b1011 "!
b1101001010 E
b1101 S
b001010 M
b1101001010 1
b1101001010 (
b1101001010 J
b0101001011 K
b0110001011 A
b0110001011 B
b0110001011 C
b0110001011 D
1Z
16
b101 [
b1101001010 \
b1101 W
0O
04
b010 P
b001010 Q
#80
0!
0+
0#
#85
1!
1+
1#
b00110110000010100100001110010101 ",
b11001001111101011011110001101010 8
1;
0:
0N
1T
b000000001 %
b000000001 .
b00001 ^
b00000001 "$
b10010100 ".
1O
14
0U
05
b100010 `
b100010 _
b1000101011 =
b11110111011000100101011101011101 "-
b1101010001 E
b010001 M
b1101010001 1
b1101010001 (
b1101010001 J
b1000101011 K
b1101010001 \
b010001 Q
#90
0!
0+
0#
#95
1!
1+
1#
b11110111010101000101110100011110 ",
b00001000101010111010001011100001 8
0;
1:
1N
0T
b110111100 %
b110111100 .
13
b101 a
b11100 ^
b10111100 "$
b10 I
b1110101000 E
b1110 S
b101000 M
b1110101000 1
b1110101000 (
b00001000101010111010001011100001 9
b00001 f
b111 i
b00010 m
b101 p
b01011 t
b101 w
b01000 {
b1110101000 J
b0001010111 K
b10100010 ".
0O
04
b101000 Q
1U
15
b1110 W
0"*
b1010 d
b1010 c
b001110 `
b001110 _
1e
b1100000101 "%
b1100000101 >
b0011101010 =
b1110101000 \
b100010 h
b100010 g
b1110 k
b1110 j
b010010 o
b010010 n
b1010 r
b1010 q
b110100 v
b110100 u
b1010 y
b1010 x
1z
b000110 }
b000110 |
b00011110 ".
b1000101110 A
b0100101010 B
b1101001010 C
b0001101011 D
#100
0!
0+
0#
#105
1!
1+
1#
1;
0:
b10 H
0"+
0N
1T
0$
0-
b0111010001 E
b0111 S
b010001 M
b0111010001 1
b0111010001 (
b0111010001 J
b1000101110 K
1O
14
b010001 Q
0U
05
b0111 W
b0111010001 \
#110
0!
0+
0#
#115
1!
1+
1#
b0001 G
b11111111111111111111111111111111 ",
b00000000000000000000000000000000 8
0;
1:
1N
0T
b0101010010 E
b0101 S
b010010 M
b0101010010 1
b0101010010 (
b0101010010 J
b0100101010 K
b11111111 ".
0O
04
b010010 Q
b010 V
b0101 W
0Z
06
b100 [
b0101010010 \
#120
0!
0+
0#
#125
1!
1+
1#
b0010 G
0<
07
1b
0:
0N
0Y
b0101001011 E
b001011 M
b0101001011 1
b0101001011 (
b0101001011 J
b1101001010 K
0e
1l
1s
0z
1"#
b011101 h
b011101 g
b101101 o
b101101 n
b111001 }
b111001 |
b0011111010 "%
b0011111010 >
b0011111010 "'
b0011111010 ?
b1110101000 ")
b1110101000 @
b011 P
b001011 Q
b101 [
b0101001011 \
b0111011110 A
b1011011010 B
b1110011011 D
b0001 k
b0001 j
b0100 ""
b0100 "!
b0111010001 A
b1110010100 D
#130
0!
0+
0#
#135
1!
1+
1#
b0011 G
b0010100111 E
b0010 S
b100111 M
b0010100111 1
b0010100111 (
b0010100111 J
b1110010100 K
b0010100111 \
1U
15
b001 V
b0010 W
1O
14
b100 P
b100111 Q
#140
0!
0+
0#
#145
1!
1+
1#
b0100 G
1;
1:
1N
1T
b00 I
b0101111100 E
b0101 S
b111100 M
b0101111100 1
b0101111100 (
b00000000000000000000000000000000 9
b00000 f
b000 i
b00000 m
b000 p
b00000 t
b000 w
b00000 {
b0101111100 J
b0011111010 K
0O
04
b111100 Q
b010 V
b0101 W
1Z
16
b110 [
b0101111100 \
b100111 h
b100111 g
b0100 k
b0100 j
b100111 o
b100111 n
b0100 r
b0100 q
b100111 v
b100111 u
b1011 y
b1011 x
1z
b100111 }
b100111 |
b1001110100 A
b1001110100 B
b1001111011 C
b1001110100 D
b0100 y
b0100 x
b1001110100 C
#150
0!
0+
0#
#155
1!
1+
1#
b0101 G
1<
17
0b
0:
b00 H
0N
1Y
b0000000000 E
b0000 S
b000000 M
b0000000000 1
b0000000000 (
00
0'
1e
0l
0s
0z
0"#
b011000 h
b011000 g
b011000 o
b011000 n
b011000 v
b011000 u
b011000 }
b011000 |
b1100000101 "%
b1100000101 >
b1100000101 "'
b1100000101 ?
b0001010111 ")
b0001010111 @
b000 P
b000000 Q
06
b000 [
b0000000000 \
b0110000100 A
b0110000100 B
b0110000100 C
b0110000100 D
05
b000 V
b0000 W
b1011 k
b1011 j
b1011 r
b1011 q
b1011 y
b1011 x
b1011 ""
b1011 "!
b0110001011 A
b0110001011 B
b0110001011 C
b0110001011 D
#160
0!
0+
0#
#165
1!
1+
1#
b0000 G
0<
07
1b
0;
0e
1l
1s
1z
1"#
b100111 h
b100111 g
b100111 o
b100111 n
b100111 v
b100111 u
b100111 }
b100111 |
b0011111010 "%
b0011111010 >
b0011111010 "'
b0011111010 ?
b1110101000 ")
b1110101000 @
b1001111011 A
b1001111011 B
b1001111011 C
b1001111011 D
b0100 k
b0100 j
b0100 r
b0100 q
b0100 y
b0100 x
b0100 ""
b0100 "!
b1001110100 A
b1001110100 B
b1001110100 C
b1001110100 D
#170
0!
0+
0#
#175
1!
1+
1#
#180
0!
0+
0#
#185
1!
1+
1#
#190
0!
0+
0#
#195
1!
1+
1#
b000000000 %
b000000000 .
03
b000 a
b00000 ^
b00000000 "$
b1011 d
b1011 c
b100111 `
b100111 _
1e
b0000000000 "%
b0000000000 >
b1001111011 =
b0100 d
b0100 c
b1001110100 =
#200
0!
0+
0#
#205
1!
1+
1#
1&
1/
1$
1-
b100111100 %
b100111100 .
13
b001 a
b11100 ^
b00111100 "$
10
1'
12
1)
b0000000000 J
b0000000000 K
b1001 d
b1001 c
b001110 `
b001110 _
0e
b0011111001 "%
b0011111001 >
b0011101001 =
1O
14
15
16
b1001111100 E
b1001 S
b111100 M
b1001111100 1
b1001111100 (
b1001111100 J
b0011111001 K
b110 [
b1001111100 \
0U
05
b010 V
b1001 W
b100 P
b111100 Q
#210
0!
0+
0#
#215
1!
1+
1#
b0001 F
1<
1:
1N
0T
0&
0/
17
0b
02
0)
0O
04
0Z
06
1e
0l
0s
0z
0"#
b011000 h
b011000 g
b011000 o
b011000 n
b011000 v
b011000 u
b011000 }
b011000 |
b1100000110 "%
b1100000110 >
b1100000101 "'
b1100000101 ?
b0001010111 ")
b0001010111 @
b0110000100 A
b0110000100 B
b0110000100 C
b0110000100 D
b1011 k
b1011 j
b1011 r
b1011 q
b1011 y
b1011 x
b1011 ""
b1011 "!
b0110000011 E
b0110 S
b000011 M
b0110000011 1
b0110000011 (
b0110000011 J
b1100000110 K
b0110001011 A
b0110001011 B
b0110001011 C
b0110001011 D
b100 [
b0110000011 \
b0110 W
b010 P
b000011 Q
#220
0!
0+
0#
#225
1!
1+
1#
b0010 F
0<
07
1b
0:
0N
0Y
0e
1l
1s
1z
1"#
b100111 h
b100111 g
b100111 o
b100111 n
b100111 v
b100111 u
b100111 }
b100111 |
b0011111001 "%
b0011111001 >
b0011111010 "'
b0011111010 ?
b1110101000 ")
b1110101000 @
1O
14
1Z
16
b1001111011 A
b1001111011 B
b1001111011 C
b1001111011 D
b0100 k
b0100 j
b0100 r
b0100 q
b0100 y
b0100 x
b0100 ""
b0100 "!
b1001111100 E
b1001 S
b111100 M
b1001111100 1
b1001111100 (
b1001111100 J
b0011111001 K
b1001110100 A
b1001110100 B
b1001110100 C
b1001110100 D
b110 [
b1001111100 \
b1001 W
b100 P
b111100 Q
#230
0!
0+
0#
#235
1!
1+
1#
b0011 F
1<
17
0b
1:
1N
1Y
b01 I
1e
0l
0s
0z
0"#
b011000 h
b011000 g
b011000 o
b011000 n
b011000 v
b011000 u
b011000 }
b011000 |
b1100000110 "%
b1100000110 >
b1100000101 "'
b1100000101 ?
b0001010111 ")
b0001010111 @
0O
04
0Z
06
b0110000100 A
b0110000100 B
b0110000100 C
b0110000100 D
b1011 k
b1011 j
b1011 r
b1011 q
b1011 y
b1011 x
b1011 ""
b1011 "!
b0110000011 E
b0110 S
b000011 M
b0110000011 1
b0110000011 (
b0110000011 J
b1100000110 K
b0110001011 A
b0110001011 B
b0110001011 C
b0110001011 D
b100 [
b0110000011 \
b0110 W
b010 P
b000011 Q
#240
0!
0+
0#
#245
1!
1+
1#
b0100 F
0<
07
1b
0:
b01 H
1"+
0N
0Y
b000100111 %
b000100111 .
03
b00111 ^
b00100111 "$
b1001011100 E
b1001 S
b011100 M
b1001011100 1
b1001011100 (
b1001011100 J
b0011101001 K
1e
1l
1s
1z
1"#
b111000 `
b111000 _
b100111 h
b100111 g
b100111 o
b100111 n
b100111 v
b100111 u
b100111 }
b100111 |
b0000000000 "%
b0000000000 >
b0011111010 "'
b0011111010 ?
b1110101000 ")
b1110101000 @
b011 P
b011100 Q
b101 [
b1001011100 \
1"*
b1110001001 =
b1001111011 A
b1001111011 B
b1001111011 C
b1001111011 D
b1001 W
b0100 k
b0100 j
b0100 r
b0100 q
b0100 y
b0100 x
b0100 ""
b0100 "!
b1001000111 E
b000111 M
b1001000111 1
b1001000111 (
b1001000111 J
b1110001001 K
b11011000 ".
b10001000000010000101101011100110 "-
b1001110100 A
b1001110100 B
b1001110100 C
b1001110100 D
b1001000111 \
b000111 Q
#250
0!
0+
0#
#255
1!
1+
1#
b0000 F
b10001000111101111010010100011001 ",
b01110111000010000101101011100110 8
b011001101 %
b011001101 .
b110 a
b01101 ^
b11001101 "$
b11010100 ".
b0110 d
b0110 c
b101100 `
b101100 _
0e
b1011000110 =
b10000001101111100001011011001101 "-
b0110001101 E
b0110 S
b001101 M
b0110001101 1
b0110001101 (
b0110001101 J
b1011000110 K
b0110001101 \
b0110 W
b001101 Q
#260
0!
0+
0#
#265
1!
1+
1#
b10000001001101101110000101101000 ",
b01111110110010010001111010010111 8
b010001000 %
b010001000 .
b100 a
b01000 ^
b10001000 "$
b11100000 ".
b1101 d
b1101 c
b111001 `
b111001 _
1e
b1110011101 =
b10100000000010101110001001111000 "-
b0010 d
b0010 c
b0100100111 E
b0100 S
b100111 M
b0100100111 1
b0100100111 (
b0100100111 J
b1110010010 K
b1110010010 =
b0100100111 \
1U
15
b001 V
b0100 W
1O
14
b100 P
b100111 Q
#270
0!
0+
0#
#275
1!
1+
1#
b10100000100010111101010010011001 ",
b01011111011101000010101101100110 8
1;
1:
1N
1T
b001010011 %
b001010011 .
b010 a
b10011 ^
b01010011 "$
b11001010 ".
0O
04
0U
05
b0101 d
b0101 c
b110010 `
b110010 _
0e
b1100100101 =
b01111011101100010010101110101110 "-
b1010010011 E
b1010 S
b010011 M
b1010010011 1
b1010010011 (
b1010010011 J
b1100100101 K
b1010010011 \
1U
15
b010 V
b1010 W
1O
14
b011 P
b010011 Q
#280
0!
0+
0#
#285
1!
1+
1#
b01111011000100011010000001111010 ",
b10000100111011100101111110000101 8
b011000100 %
b011000100 .
b110 a
b00100 ^
b11000100 "$
b10111110 ".
b0110 d
b0110 c
b110101 `
b110101 _
1e
b1101010110 =
b00101100110110011001111010001011 "-
b0110101011 E
b0110 S
b101011 M
b0110101011 1
b0110101011 (
b0110101011 J
b1101010110 K
1Z
16
b110 [
b0110101011 \
b0110 W
0O
04
b100 P
b101011 Q
#290
0!
0+
0#
#295
1!
1+
1#
b00101100101000101000111100101011 ",
b11010011010111010111000011010100 8
1<
17
0b
0:
0N
1Y
b110111100 %
b110111100 .
13
b101 a
b11100 ^
b10111100 "$
b10 I
b0001010111 E
b0001 S
b010111 M
b0001010111 1
b0001010111 (
b11010011010111010111000011010100 9
b10100 f
b110 i
b10000 m
b011 p
b11101 t
b010 w
b10011 {
b110 ~
b0001010111 J
b1110101000 K
b10010111 ".
1e
1l
0s
0z
1"#
b001110 `
b001110 _
b001011 h
b001011 g
b100100 o
b100100 n
b010001 v
b010001 u
b110010 }
b110010 |
b1100000101 "%
b1100000101 >
b1100000101 "'
b1100000101 ?
b0001010111 ")
b0001010111 @
1O
14
b010111 Q
b101 [
b0001010111 \
0"*
b1010 d
b1010 c
b0011101010 =
b0010110100 A
b1001000100 B
b0100010100 C
b1100100100 D
0U
05
b001 V
b0001 W
b0110 k
b0110 j
b1100 r
b1100 q
b0101 y
b0101 x
b0110 ""
b0110 "!
b1110101000 E
b1110 S
b101000 M
b1110101000 1
b1110101000 (
b1110101000 J
b0001010111 K
b00101011 ".
b0010110110 A
b1001001100 B
b0100010101 C
b1100100110 D
b1110101000 \
b011 V
b1110 W
b010 P
b101000 Q
#300
0!
0+
0#
#305
1!
1+
1#
0;
1:
b10 H
0"+
1N
0T
0$
0-
b0110110100 E
b0110 S
b110100 M
b0110110100 1
b0110110100 (
b0110110100 J
b0010110110 K
b011 P
b110100 Q
b010 V
b0110 W
b0110110100 \
#310
0!
0+
0#
#315
1!
1+
1#
b0001 G
b11111111111111111111111111111111 ",
b00000000000000000000000000000000 8
b0011001001 E
b0011 S
b001001 M
b0011001001 1
b0011001001 (
b0011001001 J
b1001001100 K
b11111111 ".
0Z
06
b100 [
b0011001001 \
b0011 W
0O
04
b010 P
b001001 Q
#320
0!
0+
0#
#325
1!
1+
1#
b0010 G
0<
07
1b
0:
0N
0Y
b1010100010 E
b1010 S
b100010 M
b1010100010 1
b1010100010 (
b1010100010 J
b0100010101 K
0e
0l
1s
1z
0"#
b011011 o
b011011 n
b101110 v
b101110 u
b0011111010 "%
b0011111010 >
b0011111010 "'
b0011111010 ?
b1110101000 ")
b1110101000 @
1O
14
b100010 Q
1Z
16
b1010100010 \
b0110111100 B
b1011100101 C
b1010 W
b0011 r
b0011 q
b1010011101 E
b011101 M
b1010011101 1
b1010011101 (
b1010011101 J
b1011100101 K
b0110110011 B
b110 [
b1010011101 \
b100 P
b011101 Q
#330
0!
0+
0#
#335
1!
1+
1#
b0011 G
1<
17
0b
1:
1N
1Y
b0110010011 E
b0110 S
b010011 M
b0110010011 1
b0110010011 (
b0110010011 J
b1100100110 K
1e
1l
0s
0z
1"#
b100100 o
b100100 n
b010001 v
b010001 u
b1100000101 "%
b1100000101 >
b1100000101 "'
b1100000101 ?
b0001010111 ")
b0001010111 @
b011 P
b010011 Q
b101 [
b0110010011 \
b1001000011 B
b0100010101 C
b0110 W
b1100 r
b1100 q
b1001001100 B
#340
0!
0+
0#
#345
1!
1+
1#
b0100 G
b00 I
b1010000011 E
b1010 S
b000011 M
b1010000011 1
b1010000011 (
b00000000000000000000000000000000 9
b00000 f
b000 i
b00000 m
b000 p
b00000 t
b000 w
b00000 {
b000 ~
b1010000011 J
b1100000101 K
0Z
06
b100 [
b1010000011 \
b1010 W
0O
04
b010 P
b000011 Q
b011000 h
b011000 g
b0100 k
b0100 j
0l
b011000 o
b011000 n
b1011 r
b1011 q
b011000 v
b011000 u
b1011 y
b1011 x
b011000 }
b011000 |
b0100 ""
b0100 "!
0"#
b0110000100 A
b0110001011 B
b0110001011 C
b0110000100 D
b1011 k
b1011 j
b1011 ""
b1011 "!
b0110001011 A
b0110001011 D
#350
0!
0+
0#
#355
1!
1+
1#
b0101 G
0<
07
1b
0:
b00 H
0N
0Y
b0000000000 E
b0000 S
b000000 M
b0000000000 1
b0000000000 (
00
0'
0e
1l
1s
1z
1"#
b100111 h
b100111 g
b100111 o
b100111 n
b100111 v
b100111 u
b100111 }
b100111 |
b0011111010 "%
b0011111010 >
b0011111010 "'
b0011111010 ?
b1110101000 ")
b1110101000 @
b000 P
b000000 Q
b000 [
b0000000000 \
b1001111011 A
b1001111011 B
b1001111011 C
b1001111011 D
b000 V
b0000 W
b0100 k
b0100 j
b0100 r
b0100 q
b0100 y
b0100 x
b0100 ""
b0100 "!
b1001110100 A
b1001110100 B
b1001110100 C
b1001110100 D
#360
0!
0+
0#
#365
1!
1+
1#
b0000 G
#370
0!
0+
0#
#375
1!
1+
1#
#380
0!
0+
0#
#385
1!
1+
1#
#390
0!
0+
0#
#395
1!
1+
1#
b000000000 %
b000000000 .
03
b000 a
b00000 ^
b00000000 "$
b1011 d
b1011 c
b100111 `
b100111 _
1e
b0000000000 "%
b0000000000 >
b1001111011 =
b0100 d
b0100 c
b1001110100 =
#400
0!
0+
0#
