dump.vcd
$date
	Mon May 17 18:12:48 2021
$end

$version
	Synopsys VCS version R-2020.12
$end

$timescale
	1ns
$end

$comment Csum: 1 ef36075bb0d7b2b9 $end


$scope module rushi $end
$upscope $end


$scope module top $end
$var reg 1 ! clk $end
$var reg 1 " reset $end

$scope begin unnamed$$_vcs_4 $end
$upscope $end


$scope begin unnamed$$_vcs_0 $end
$upscope $end


$scope begin unnamed$$_vcs_1 $end
$upscope $end


$scope begin unnamed$$_vcs_2 $end
$upscope $end


$scope begin unnamed$$_vcs_3 $end
$upscope $end


$scope module int_f $end
$var reg 1 # clk $end
$var reg 1 $ pushin $end
$var reg 9 % datain [8:0] $end
$var reg 1 & startin $end
$var reg 1 ' pushout $end
$var reg 10 ( dataout [9:0] $end
$var reg 1 ) startout $end
$var reg 1 * reset $end
$upscope $end


$scope module enc $end
$var wire 1 + clk $end
$var wire 1 , reset $end
$var wire 1 - pushin $end
$var wire 9 . datain [8:0] $end
$var wire 1 / startin $end
$var reg 1 0 pushout $end
$var wire 10 1 dataout [9:0] $end
$var reg 1 2 startout $end
$var wire 1 3 Kbit $end
$var wire 1 4 RD $end
$var wire 1 5 curRD $end
$var wire 32 6 crcResult [31:0] $end
$var reg 32 7 crcData [31:0] $end
$var reg 1 8 curRD0 $end
$var wire 10 9 outTemp [9:0] $end
$var wire 10 : kcode [9:0] $end
$var wire 10 ; kcodeCRC0 [9:0] $end
$var wire 10 < kcodeCRC1 [9:0] $end
$var wire 10 = firstCRC [9:0] $end
$var wire 10 > secondCRC [9:0] $end
$var wire 10 ? thirdCRC [9:0] $end
$var wire 10 @ fourthCRC [9:0] $end
$var reg 10 A trueOutput [9:0] $end
$var reg 4 B counterK281 [3:0] $end
$var reg 4 C counterK285 [3:0] $end
$var reg 2 D currentState [1:0] $end
$var reg 2 E nextState [1:0] $end

$scope function rearrange $end
$var reg 10 F rearrange [9:0] $end
$var reg 10 G data [9:0] $end
$var integer 32 H i $end
$upscope $end


$scope module rd10b $end
$var wire 1 + clk $end
$var wire 1 , reset $end
$var wire 1 / startin $end
$var wire 10 A dataout [9:0] $end
$var wire 1 0 pushout $end
$var reg 1 4 RDout $end
$var reg 1 I currentState $end
$var reg 1 J nextState $end

$scope function countOnes $end
$var reg 3 K countOnes [2:0] $end
$var reg 10 L data [9:0] $end
$var integer 32 M i $end
$upscope $end

$upscope $end


$scope module ec0 $end
$var wire 5 N datain [4:0] $end
$var wire 1 5 RD $end
$var wire 6 O dataout [5:0] $end
$var reg 6 P abcdei_d [5:0] $end
$upscope $end


$scope module ec1 $end
$var wire 3 Q datain [2:0] $end
$var wire 1 R RD $end
$var wire 5 N lower [4:0] $end
$var wire 4 S dataout [3:0] $end
$var reg 4 T fghj_d [3:0] $end
$var wire 1 U RD0 $end
$upscope $end


$scope module ec2 $end
$var wire 5 V datain [4:0] $end
$var wire 1 5 RD $end
$var wire 6 W dataout [5:0] $end
$var reg 6 X abcdei_d [5:0] $end
$upscope $end


$scope module ec3 $end
$var wire 3 Y datain [2:0] $end
$var wire 1 R RD $end
$var wire 5 V lower [4:0] $end
$var wire 4 Z dataout [3:0] $end
$var reg 4 [ fghj_d [3:0] $end
$var wire 1 \ RD0 $end
$upscope $end


$scope module ec4 $end
$var wire 5 ] datain [4:0] $end
$var wire 1 5 RD $end
$var wire 6 ^ dataout [5:0] $end
$var reg 6 _ abcdei_d [5:0] $end
$upscope $end


$scope module ec5 $end
$var wire 3 ` datain [2:0] $end
$var wire 1 R RD $end
$var wire 5 ] lower [4:0] $end
$var wire 4 a dataout [3:0] $end
$var reg 4 b fghj_d [3:0] $end
$var wire 1 c RD0 $end
$upscope $end


$scope module ec6 $end
$var wire 5 d datain [4:0] $end
$var wire 1 5 RD $end
$var wire 6 e dataout [5:0] $end
$var reg 6 f abcdei_d [5:0] $end
$upscope $end


$scope module ec7 $end
$var wire 3 g datain [2:0] $end
$var wire 1 R RD $end
$var wire 5 d lower [4:0] $end
$var wire 4 h dataout [3:0] $end
$var reg 4 i fghj_d [3:0] $end
$var wire 1 j RD0 $end
$upscope $end


$scope module ec8 $end
$var wire 5 k datain [4:0] $end
$var wire 1 5 RD $end
$var wire 6 l dataout [5:0] $end
$var reg 6 m abcdei_d [5:0] $end
$upscope $end


$scope module ec9 $end
$var wire 3 n datain [2:0] $end
$var wire 1 R RD $end
$var wire 5 k lower [4:0] $end
$var wire 4 o dataout [3:0] $end
$var reg 4 p fghj_d [3:0] $end
$var wire 1 q RD0 $end
$upscope $end


$scope module kc0 $end
$var wire 8 r datain [7:0] $end
$var wire 1 5 RD $end
$var wire 10 : dataout [9:0] $end
$var reg 10 s outTemp [9:0] $end
$upscope $end


$scope module kc1 $end
$var wire 8 t datain [7:0] $end
$var wire 1 5 RD $end
$var wire 10 ; dataout [9:0] $end
$var reg 10 u outTemp [9:0] $end
$upscope $end


$scope module kc2 $end
$var wire 8 v datain [7:0] $end
$var wire 1 5 RD $end
$var wire 10 < dataout [9:0] $end
$var reg 10 w outTemp [9:0] $end
$upscope $end


$scope module crc0 $end
$var wire 1 + clk $end
$var wire 1 , rst $end
$var wire 8 r crc32_in [7:0] $end
$var wire 1 x valid $end
$var wire 1 y is_S1DATA $end
$var wire 32 6 crc32_out [31:0] $end
$var reg 32 z crc32_out_buff [31:0] $end
$var reg 32 { crc32_table [31:0] $end
$var wire 8 | crc32_lut_in [7:0] $end
$upscope $end

$upscope $end

$upscope $end


$scope module uvm_pkg $end
$var reg 32 } UVM_UNBOUNDED_CONNECTIONS [31:0] $end
$var reg 1 ~ uvm_start_uvm_declarations $end
$var reg 32 "! uvm_global_random_seed [31:0] $end
$upscope $end

$enddefinitions $end

#0
$dumpvars
1~
b11111111111111111111111111111111 }
b01000010000001111100110001000111 "!
0!
1"
b0000000000 (
b000000000 %
03
04
08
00
0I
0J
02
xy
0x
b000 K
b0000000000 L
b00000000000000000000000000001010 M
b0000 B
b0000 C
b11111111 |
b11111111111111111111111111111111 z
bxxxxxxxxxxxxxxxxxxxxxxxxxxxxxxxx {
b00000000000000000000000000000000 7
b00000000000000000000000000000000 6
b00 D
b00 E
bxxxxxxxxxx G
bxxxxxxxxxxxxxxxxxxxxxxxxxxxxxxxx H
bxxxxxxxxxx F
b0000000000 A
b100111 P
1U
b0100 T
b100111 X
1\
b0100 [
b100111 _
1c
b0100 b
b100111 f
1j
b0100 i
b100111 m
1q
b0100 p
b0000000000 s
b0011111010 u
b1110101000 w
1,
b000000000 .
b0000000000 1
b1001110100 9
b100111 O
b0100 S
b1001110100 =
b100111 W
b0100 Z
b1001110100 >
b100111 ^
b0100 a
b1001110100 ?
b100111 e
b0100 h
b1001110100 @
b100111 l
b0100 o
05
1R
b00000 V
b000 Y
b00000 ]
b000 `
b00000 d
b000 g
b00000 k
b000 n
b0000000000 :
b10111100 t
b0011111010 ;
b11110111 v
b1110101000 <
0$
0'
0&
0)
0-
0/
0#
0+
1*
b00000000 r
b00000 N
b000 Q
$end
0y
#4
0"
0*
0,
#5
1!
1+
1#
1&
1/
1$
1-
b100111100 %
b100111100 .
13
b001 Q
b11100 N
b00111100 r
10
1'
12
1)
b0000000000 F
b00000000000000000000000000001010 H
b0000000000 G
b1001 T
b1001 S
b001110 P
b001110 O
0U
b0011111001 s
b0011111001 :
b0011101001 9
1J
14
b1001111100 A
b1001111100 1
b1001111100 (
b1001111100 F
b0011111001 G
b110 K
b1001111100 L
#10
0!
0+
0#
#15
1!
1+
1#
b0001 B
18
1I
0&
0/
15
0R
02
0)
0J
04
1U
0\
0c
0j
0q
b011000 X
b011000 W
b011000 _
b011000 ^
b011000 f
b011000 e
b011000 m
b011000 l
b1100000110 s
b1100000110 :
b1100000101 u
b1100000101 ;
b0001010111 w
b0001010111 <
b0110000100 =
b0110000100 >
b0110000100 ?
b0110000100 @
b1011 [
b1011 Z
b1011 b
b1011 a
b1011 i
b1011 h
b1011 p
b1011 o
b0110000011 A
b0110000011 1
b0110000011 (
b0110000011 F
b1100000110 G
b0110001011 =
b0110001011 >
b0110001011 ?
b0110001011 @
b100 K
b0110000011 L
#20
0!
0+
0#
#25
1!
1+
1#
b0010 B
08
05
1R
0I
0U
1\
1c
1j
1q
b100111 X
b100111 W
b100111 _
b100111 ^
b100111 f
b100111 e
b100111 m
b100111 l
b0011111001 s
b0011111001 :
b0011111010 u
b0011111010 ;
b1110101000 w
b1110101000 <
1J
14
b1001111011 =
b1001111011 >
b1001111011 ?
b1001111011 @
b0100 [
b0100 Z
b0100 b
b0100 a
b0100 i
b0100 h
b0100 p
b0100 o
b1001111100 A
b1001111100 1
b1001111100 (
b1001111100 F
b0011111001 G
b1001110100 =
b1001110100 >
b1001110100 ?
b1001110100 @
b110 K
b1001111100 L
#30
0!
0+
0#
#35
1!
1+
1#
b0011 B
18
15
0R
1I
b01 E
1U
0\
0c
0j
0q
b011000 X
b011000 W
b011000 _
b011000 ^
b011000 f
b011000 e
b011000 m
b011000 l
b1100000110 s
b1100000110 :
b1100000101 u
b1100000101 ;
b0001010111 w
b0001010111 <
0J
04
b0110000100 =
b0110000100 >
b0110000100 ?
b0110000100 @
b1011 [
b1011 Z
b1011 b
b1011 a
b1011 i
b1011 h
b1011 p
b1011 o
b0110000011 A
b0110000011 1
b0110000011 (
b0110000011 F
b1100000110 G
b0110001011 =
b0110001011 >
b0110001011 ?
b0110001011 @
b100 K
b0110000011 L
#40
0!
0+
0#
#45
1!
1+
1#
b0100 B
08
05
1R
b01 D
1y
0I
b011100100 %
b011100100 .
03
b111 Q
b00100 N
b11100100 r
b1001011100 A
b1001011100 1
b1001011100 (
b1001011100 F
b0011101001 G
1U
1\
1c
1j
1q
b110101 P
b110101 O
b100111 X
b100111 W
b100111 _
b100111 ^
b100111 f
b100111 e
b100111 m
b100111 l
b0000000000 s
b0000000000 :
b0011111010 u
b0011111010 ;
b1110101000 w
b1110101000 <
b101 K
b1001011100 L
1x
b0001 T
b0001 S
b1101010001 9
b1001111011 =
b1001111011 >
b1001111011 ?
b1001111011 @
b0100 [
b0100 Z
b0100 b
b0100 a
b0100 i
b0100 h
b0100 p
b0100 o
b1000101011 A
b1000101011 1
b1000101011 (
b1000101011 F
b1101010001 G
b00011011 |
b10001010011001011100100111101100 {
b1001110100 =
b1001110100 >
b1001110100 ?
b1001110100 @
b1000101011 L
#50
0!
0+
0#
#55
1!
1+
1#
b0000 B
b10001010100110100011011000010011 z
b01110101011001011100100111101100 6
b010011011 %
b010011011 .
b100 Q
b11011 N
b10011011 r
b10001000 |
b0010 T
b0010 S
b110110 P
b110110 O
b1101100010 9
b11100011011000110000101100010010 {
b0100011011 A
b0100011011 1
b0100011011 (
b0100011011 F
b1101100010 G
b0100011011 L
#60
0!
0+
0#
#65
1!
1+
1#
b11100011111010011001000100100100 z
b00011100000101100110111011011011 6
b010100110 %
b010100110 .
b101 Q
b00110 N
b10100110 r
b10000010 |
b1010 T
b1010 S
b011001 P
b011001 O
0U
b0110011010 9
b00000011101101101110001000001100 {
b0101100110 A
b0101100110 1
b0101100110 (
b0101100110 F
b0110011010 G
b0101100110 L
#70
0!
0+
0#
#75
1!
1+
1#
b00000011010101010000101110011101 z
b11111100101010101111010001100010 6
b001111111 %
b001111111 .
b011 Q
b11111 N
b01111111 r
b11100010 |
b1100 T
b1100 S
b101011 P
b101011 O
1U
b1010111100 9
b01001110000001001000001101010100 {
b0011 T
b0011 S
b1100110101 A
b1100110101 1
b1100110101 (
b1100110101 F
b1010110011 G
b1010110011 9
1J
14
b110 K
b1100110101 L
#80
0!
0+
0#
#85
1!
1+
1#
b01001110000001111101011001011111 z
b10110001111110000010100110100000 6
18
15
0R
1I
b000110111 %
b000110111 .
b001 Q
b10111 N
b00110111 r
b01101000 |
0U
0\
0c
0j
0q
b000101 P
b000101 O
b011000 X
b011000 W
b011000 _
b011000 ^
b011000 f
b011000 e
b011000 m
b011000 l
b1100000101 u
b1100000101 ;
b0001010111 w
b0001010111 <
0J
04
b1001 T
b1001 S
b0001011001 9
b0110000100 =
b0110000100 >
b0110000100 ?
b0110000100 @
b01000011011010011110100101101010 {
b1011 [
b1011 Z
b1011 b
b1011 a
b1011 i
b1011 h
b1011 p
b1011 o
b1001101000 A
b1001101000 1
b1001101000 (
b1001101000 F
b0001011001 G
b0110001011 =
b0110001011 >
b0110001011 ?
b0110001011 @
b100 K
b1001101000 L
#90
0!
0+
0#
#95
1!
1+
1#
b01000011001001111110111010111100 z
b10111100110110000001000101000011 6
08
05
1R
0I
b011001101 %
b011001101 .
b110 Q
b01101 N
b11001101 r
b01110001 |
0U
1\
1c
1j
1q
b101100 P
b101100 O
b100111 X
b100111 W
b100111 _
b100111 ^
b100111 f
b100111 e
b100111 m
b100111 l
b0011111010 u
b0011111010 ;
b1110101000 w
b1110101000 <
1J
14
b0110 T
b0110 S
b1011000110 9
b1001111011 =
b1001111011 >
b1001111011 ?
b1001111011 @
b00100111000000100100000110101010 {
b0100 [
b0100 Z
b0100 b
b0100 a
b0100 i
b0100 h
b0100 p
b0100 o
b0110001101 A
b0110001101 1
b0110001101 (
b0110001101 F
b1011000110 G
b1001110100 =
b1001110100 >
b1001110100 ?
b1001110100 @
0J
04
b101 K
b0110001101 L
#100
0!
0+
0#
#105
1!
1+
1#
b00100111010000010110011001000100 z
b11011000101111101001100110111011 6
b011001011 %
b011001011 .
b01011 N
b11001011 r
b10001111 |
b110100 P
b110100 O
0U
b1101000110 9
b01111101000001111001111010110001 {
b0110001011 A
b0110001011 1
b0110001011 (
b0110001011 F
b1101000110 G
b0110001011 L
#110
0!
0+
0#
#115
1!
1+
1#
b01111101001000001101111111010111 z
b10000010110111110010000000101000 6
b010110110 %
b010110110 .
b101 Q
b10110 N
b10110110 r
b01100001 |
b1010 T
b1010 S
b011010 P
b011010 O
b0110101010 9
b00111010101101010101000111001110 {
b0101010110 A
b0101010110 1
b0101010110 (
b0101010110 F
b0110101010 G
b0101010110 L
#120
0!
0+
0#
#125
1!
1+
1#
b00111010110010000111000100010001 z
b11000101001101111000111011101110 6
b011000000 %
b011000000 .
b110 Q
b00000 N
b11000000 r
b11010001 |
b0110 T
b0110 S
b100111 P
b100111 O
1U
b1001110110 9
b11110001110101001110001001000010 {
b0110111001 A
b0110111001 1
b0110111001 (
b0110111001 F
b1001110110 G
1J
14
b110 K
b0110111001 L
#130
0!
0+
0#
#135
1!
1+
1#
b11110001111011100010101000110011 z
b00001110000100011101010111001100 6
18
15
0R
1I
b001111011 %
b001111011 .
b011 Q
b11011 N
b01111011 r
b01001000 |
0U
0\
0c
0j
0q
b001001 P
b001001 O
b011000 X
b011000 W
b011000 _
b011000 ^
b011000 f
b011000 e
b011000 m
b011000 l
b1100000101 u
b1100000101 ;
b0001010111 w
b0001010111 <
0J
04
b1100 T
b1100 S
b0010011100 9
b0110000100 =
b0110000100 >
b0110000100 ?
b0110000100 @
b01111000000001111100100110100010 {
b1011 [
b1011 Z
b1011 b
b1011 a
b1011 i
b1011 h
b1011 p
b1011 o
b0011100100 A
b0011100100 1
b0011100100 (
b0011100100 F
b0010011100 G
b0110001011 =
b0110001011 >
b0110001011 ?
b0110001011 @
b100 K
b0011100100 L
#140
0!
0+
0#
#145
1!
1+
1#
b01111000111101100010011110001000 z
b10000111000010011101100001110111 6
08
05
1R
0I
b001101010 %
b001101010 .
b01010 N
b01101010 r
b11100010 |
0U
1\
1c
1j
1q
b010101 P
b010101 O
b100111 X
b100111 W
b100111 _
b100111 ^
b100111 f
b100111 e
b100111 m
b100111 l
b0011111010 u
b0011111010 ;
b1110101000 w
b1110101000 <
1J
14
b0101011100 9
b1001111011 =
b1001111011 >
b1001111011 ?
b1001111011 @
b01001110000001001000001101010100 {
b0100 [
b0100 Z
b0100 b
b0100 a
b0100 i
b0100 h
b0100 p
b0100 o
b0011101010 A
b0011101010 1
b0011101010 (
b0011101010 F
b0101011100 G
b1001110100 =
b1001110100 >
b1001110100 ?
b1001110100 @
0J
04
b101 K
b0011101010 L
#150
0!
0+
0#
#155
1!
1+
1#
b01001110011111000111010101110011 z
b10110001100000111000101010001100 6
b011110101 %
b011110101 .
b111 Q
b10101 N
b11110101 r
b10000110 |
b1110 T
b1110 S
b101010 P
b101010 O
b1010101110 9
b00000100110110110010011000010101 {
b0111010101 A
b0111010101 1
b0111010101 (
b0111010101 F
b1010101110 G
1J
14
b110 K
b0111010101 L
#160
0!
0+
0#
#165
1!
1+
1#
b00000100100101010101101001100000 z
b11111011011010101010010110011111 6
18
15
0R
1I
b000100001 %
b000100001 .
b001 Q
b00001 N
b00100001 r
b01000001 |
0U
0\
0c
0j
0q
b100010 P
b100010 O
b011000 X
b011000 W
b011000 _
b011000 ^
b011000 f
b011000 e
b011000 m
b011000 l
b1100000101 u
b1100000101 ;
b0001010111 w
b0001010111 <
0J
04
b1001 T
b1001 S
b1000101001 9
b0110000100 =
b0110000100 >
b0110000100 ?
b0110000100 @
b00000001110110110111000100000110 {
b1011 [
b1011 Z
b1011 b
b1011 a
b1011 i
b1011 h
b1011 p
b1011 o
b1001010001 A
b1001010001 1
b1001010001 (
b1001010001 F
b1000101001 G
b0110001011 =
b0110001011 >
b0110001011 ?
b0110001011 @
b100 K
b1001010001 L
#170
0!
0+
0#
#175
1!
1+
1#
b00000001110111111110010001011100 z
b11111110001000000001101110100011 6
08
05
1R
0I
b110111100 %
b110111100 .
13
b101 Q
b11100 N
b10111100 r
b10 E
b1110101000 A
b1110101000 1
b1110101000 (
b11111110001000000001101110100011 7
b00011 V
b101 Y
b11011 ]
b001 g
b11110 k
b111 n
b1110101000 F
b0001010111 G
b11100000 |
0U
0\
1c
1j
1q
b001110 P
b001110 O
b110001 X
b110001 W
b110110 _
b110110 ^
b100111 f
b100111 e
b011110 m
b011110 l
b0011111010 s
b0011111010 :
b0011111010 u
b0011111010 ;
b1110101000 w
b1110101000 <
b101 K
b1110101000 L
0x
b1010 T
b1010 S
b0011101010 9
b1100011011 =
b1101101011 >
b1001111011 ?
b0111101011 @
b1010 [
b1010 Z
b0100 b
b0100 a
b1001 i
b1001 h
b0001 p
b0001 o
b0001010111 A
b0001010111 1
b0001010111 (
b0001010111 F
b1110101000 G
b01011100 |
b1100011010 =
b1101100100 >
b1001111001 ?
b0111100001 @
b0001010111 L
#180
0!
0+
0#
#185
1!
1+
1#
b10 D
0y
0$
0-
b0101100011 A
b0101100011 1
b0101100011 (
b0101100011 F
b1100011010 G
b0101100011 L
#190
0!
0+
0#
#195
1!
1+
1#
b0001 C
b11111111111111111111111111111111 z
b00000000000000000000000000000000 6
b0010011011 A
b0010011011 1
b0010011011 (
b0010011011 F
b1101100100 G
b11111111 |
b0010011011 L
#200
0!
0+
0#
#205
1!
1+
1#
b0010 C
b1001111001 A
b1001111001 1
b1001111001 (
b1001111001 F
b1001111001 G
1J
14
b110 K
b1001111001 L
#210
0!
0+
0#
#215
1!
1+
1#
b0011 C
18
15
0R
1I
b1000011110 A
b1000011110 1
b1000011110 (
b1000011110 F
b0111100001 G
1U
1\
0c
0j
0q
b001001 _
b001001 ^
b011000 f
b011000 e
b100001 m
b100001 l
b1100000101 s
b1100000101 :
b1100000101 u
b1100000101 ;
b0001010111 w
b0001010111 <
b101 K
b1000011110 L
b0010010100 >
b0110001001 ?
b1000010001 @
b1011 b
b1011 a
b1110 p
b1110 o
b0111100001 A
b0111100001 1
b0111100001 (
b0111100001 F
b1000011110 G
b0010011011 >
b1000011110 @
b0111100001 L
#220
0!
0+
0#
#225
1!
1+
1#
b0100 C
b00 E
b1010000011 A
b1010000011 1
b1010000011 (
b00000000000000000000000000000000 7
b00000 V
b000 Y
b00000 ]
b000 g
b00000 k
b000 n
b1010000011 F
b1100000101 G
0J
04
b100 K
b1010000011 L
b011000 X
b011000 W
b0100 [
b0100 Z
0\
b011000 _
b011000 ^
b1011 i
b1011 h
b011000 m
b011000 l
b1011 p
b1011 o
b0110000100 =
b0110001011 >
b0110001011 ?
b0110001011 @
b1011 [
b1011 Z
b0110001011 =
#230
0!
0+
0#
#235
1!
1+
1#
b0101 C
08
05
1R
b00 D
0I
b0000000000 A
b0000000000 1
b0000000000 (
00
0'
0U
1\
1c
1j
1q
b100111 X
b100111 W
b100111 _
b100111 ^
b100111 f
b100111 e
b100111 m
b100111 l
b0011111010 s
b0011111010 :
b0011111010 u
b0011111010 ;
b1110101000 w
b1110101000 <
b000 K
b0000000000 L
b1001111011 =
b1001111011 >
b1001111011 ?
b1001111011 @
b0100 [
b0100 Z
b0100 b
b0100 a
b0100 i
b0100 h
b0100 p
b0100 o
b1001110100 =
b1001110100 >
b1001110100 ?
b1001110100 @
#240
0!
0+
0#
#245
1!
1+
1#
b0000 C
#250
0!
0+
0#
#255
1!
1+
1#
#260
0!
0+
0#
#265
1!
1+
1#
#270
0!
0+
0#
#275
1!
1+
1#
b000000000 %
b000000000 .
03
b000 Q
b00000 N
b00000000 r
b1011 T
b1011 S
b100111 P
b100111 O
1U
b0000000000 s
b0000000000 :
b1001111011 9
b0100 T
b0100 S
b1001110100 9
#280
0!
0+
0#
#285
1!
1+
1#
1&
1/
1$
1-
b100111100 %
b100111100 .
13
b001 Q
b11100 N
b00111100 r
10
1'
12
1)
b0000000000 F
b0000000000 G
b1001 T
b1001 S
b001110 P
b001110 O
0U
b0011111001 s
b0011111001 :
b0011101001 9
1J
14
b1001111100 A
b1001111100 1
b1001111100 (
b1001111100 F
b0011111001 G
b110 K
b1001111100 L
#290
0!
0+
0#
#295
1!
1+
1#
b0001 B
18
1I
0&
0/
15
0R
02
0)
0J
04
1U
0\
0c
0j
0q
b011000 X
b011000 W
b011000 _
b011000 ^
b011000 f
b011000 e
b011000 m
b011000 l
b1100000110 s
b1100000110 :
b1100000101 u
b1100000101 ;
b0001010111 w
b0001010111 <
b0110000100 =
b0110000100 >
b0110000100 ?
b0110000100 @
b1011 [
b1011 Z
b1011 b
b1011 a
b1011 i
b1011 h
b1011 p
b1011 o
b0110000011 A
b0110000011 1
b0110000011 (
b0110000011 F
b1100000110 G
b0110001011 =
b0110001011 >
b0110001011 ?
b0110001011 @
b100 K
b0110000011 L
#300
0!
0+
0#
#305
1!
1+
1#
b0010 B
08
05
1R
0I
0U
1\
1c
1j
1q
b100111 X
b100111 W
b100111 _
b100111 ^
b100111 f
b100111 e
b100111 m
b100111 l
b0011111001 s
b0011111001 :
b0011111010 u
b0011111010 ;
b1110101000 w
b1110101000 <
1J
14
b1001111011 =
b1001111011 >
b1001111011 ?
b1001111011 @
b0100 [
b0100 Z
b0100 b
b0100 a
b0100 i
b0100 h
b0100 p
b0100 o
b1001111100 A
b1001111100 1
b1001111100 (
b1001111100 F
b0011111001 G
b1001110100 =
b1001110100 >
b1001110100 ?
b1001110100 @
b110 K
b1001111100 L
#310
0!
0+
0#
#315
1!
1+
1#
b0011 B
18
15
0R
1I
b01 E
1U
0\
0c
0j
0q
b011000 X
b011000 W
b011000 _
b011000 ^
b011000 f
b011000 e
b011000 m
b011000 l
b1100000110 s
b1100000110 :
b1100000101 u
b1100000101 ;
b0001010111 w
b0001010111 <
0J
04
b0110000100 =
b0110000100 >
b0110000100 ?
b0110000100 @
b1011 [
b1011 Z
b1011 b
b1011 a
b1011 i
b1011 h
b1011 p
b1011 o
b0110000011 A
b0110000011 1
b0110000011 (
b0110000011 F
b1100000110 G
b0110001011 =
b0110001011 >
b0110001011 ?
b0110001011 @
b100 K
b0110000011 L
#320
0!
0+
0#
#325
1!
1+
1#
b0100 B
08
05
1R
b01 D
1y
0I
b010101100 %
b010101100 .
03
b101 Q
b01100 N
b10101100 r
b1001011100 A
b1001011100 1
b1001011100 (
b1001011100 F
b0011101001 G
0U
1\
1c
1j
1q
b001101 P
b001101 O
b100111 X
b100111 W
b100111 _
b100111 ^
b100111 f
b100111 e
b100111 m
b100111 l
b0000000000 s
b0000000000 :
b0011111010 u
b0011111010 ;
b1110101000 w
b1110101000 <
b101 K
b1001011100 L
1x
b1010 T
b1010 S
b0011011010 9
b1001111011 =
b1001111011 >
b1001111011 ?
b1001111011 @
b0100 [
b0100 Z
b0100 b
b0100 a
b0100 i
b0100 h
b0100 p
b0100 o
b0101101100 A
b0101101100 1
b0101101100 (
b0101101100 F
b0011011010 G
b01010011 |
b11110010011000100000000001001110 {
b1001110100 =
b1001110100 >
b1001110100 ?
b1001110100 @
b0101101100 L
#330
0!
0+
0#
#335
1!
1+
1#
b0000 B
b11110010100111011111111110110001 z
b00001101011000100000000001001110 6
b010001000 %
b010001000 .
b100 Q
b01000 N
b10001000 r
b00111001 |
b1101 T
b1101 S
b111001 P
b111001 O
1U
b1110011101 9
b01011111000001011000100000001000 {
b0010 T
b0010 S
b0100100111 A
b0100100111 1
b0100100111 (
b0100100111 F
b1110010010 G
b1110010010 9
b0100100111 L
#340
0!
0+
0#
#345
1!
1+
1#
b01011111111101110001010111110111 z
b10100000000010001110101000001000 6
b010111011 %
b010111011 .
b101 Q
b11011 N
b10111011 r
b01001100 |
b1010 T
b1010 S
b110110 P
b110110 O
b1101101010 9
b01111111011010100000110110111011 {
b0101011011 A
b0101011011 1
b0101011011 (
b0101011011 F
b1101101010 G
1J
14
b110 K
b0101011011 L
#350
0!
0+
0#
#355
1!
1+
1#
b01111111001101011111101010101110 z
b10000000110010100000010101010001 6
18
15
0R
1I
b001001101 %
b001001101 .
b010 Q
b01101 N
b01001101 r
b11100011 |
1U
0\
0c
0j
0q
b101100 P
b101100 O
b011000 X
b011000 W
b011000 _
b011000 ^
b011000 f
b011000 e
b011000 m
b011000 l
b1100000101 u
b1100000101 ;
b0001010111 w
b0001010111 <
0J
04
b0101 T
b0101 S
b1011000101 9
b0110000100 =
b0110000100 >
b0110000100 ?
b0110000100 @
b00111001000000111011001111000010 {
b1011 [
b1011 Z
b1011 b
b1011 a
b1011 i
b1011 h
b1011 p
b1011 o
b1010001101 A
b1010001101 1
b1010001101 (
b1010001101 F
b1011000101 G
b0110001011 =
b0110001011 >
b0110001011 ?
b0110001011 @
1J
14
b101 K
b1010001101 L
#360
0!
0+
0#
#365
1!
1+
1#
b00111001011111001000011000111000 z
b11000110100000110111100111000111 6
b011110001 %
b011110001 .
b111 Q
b10001 N
b11110001 r
b11001001 |
b0001 T
b0001 S
b100011 P
b100011 O
b1000110001 9
b11100010101110000111101000010100 {
b1000110001 A
b1000110001 1
b1000110001 (
b1000110001 F
b1000110001 G
0J
04
b100 K
b1000110001 L
#370
0!
0+
0#
#375
1!
1+
1#
b11100010100000010000011010010010 z
b00011101011111101111100101101101 6
08
05
1R
0I
b000000010 %
b000000010 .
b000 Q
b00010 N
b00000010 r
b10010000 |
1U
1\
1c
1j
1q
b101101 P
b101101 O
b100111 X
b100111 W
b100111 _
b100111 ^
b100111 f
b100111 e
b100111 m
b100111 l
b0011111010 u
b0011111010 ;
b1110101000 w
b1110101000 <
1J
14
b0100 T
b0100 S
b1011010100 9
b1001111011 =
b1001111011 >
b1001111011 ?
b1001111011 @
b11110000000011111001001101000100 {
b0100 [
b0100 Z
b0100 b
b0100 a
b0100 i
b0100 h
b0100 p
b0100 o
b0010101101 A
b0010101101 1
b0010101101 (
b0010101101 F
b1011010100 G
b1001110100 =
b1001110100 >
b1001110100 ?
b1001110100 @
0J
04
b101 K
b0010101101 L
#380
0!
0+
0#
#385
1!
1+
1#
b11110000111011010001001001000010 z
b00001111000100101110110110111101 6
b011001011 %
b011001011 .
b110 Q
b01011 N
b11001011 r
b10001001 |
b0110 T
b0110 S
b110100 P
b110100 O
0U
b1101000110 9
b10010100011001000011101110000100 {
b0110001011 A
b0110001011 1
b0110001011 (
b0110001011 F
b1101000110 G
b0110001011 L
#390
0!
0+
0#
#395
1!
1+
1#
b10010100100101001101011010010110 z
b01101011011010110010100101101001 6
b010101010 %
b010101010 .
b101 Q
b01010 N
b10101010 r
b00111100 |
b1010 T
b1010 S
b010101 P
b010101 O
0U
b0101011010 9
b00101111011011110111110010000111 {
b0101101010 A
b0101101010 1
b0101101010 (
b0101101010 F
b0101011010 G
b0101101010 L
#400
0!
0+
0#
#405
1!
1+
1#
b00101111111110111110100001010001 z
b11010000000001000001011110101110 6
b010111001 %
b010111001 .
b11001 N
b10111001 r
b11101000 |
b100110 P
b100110 O
b1001101010 9
b10101110110100010110101001001010 {
b0101011001 A
b0101011001 1
b0101011001 (
b0101011001 F
b1001101010 G
b0101011001 L
#410
0!
0+
0#
#415
1!
1+
1#
b10101110111111101001000110100010 z
b01010001000000010110111001011101 6
b011101001 %
b011101001 .
b111 Q
b01001 N
b11101001 r
b01001011 |
b1110 T
b1110 S
b100101 P
b100101 O
0U
b1001011110 9
b11100001000011101001100000011000 {
b0111101001 A
b0111101001 1
b0111101001 (
b0111101001 F
b1001011110 G
1J
14
b110 K
b0111101001 L
#420
0!
0+
0#
#425
1!
1+
1#
b11100001101000000110011010001001 z
b00011110010111111001100101110110 6
18
15
0R
1I
b010100011 %
b010100011 .
b101 Q
b00011 N
b10100011 r
b00101010 |
1U
0\
0c
0j
0q
b110001 P
b110001 O
b011000 X
b011000 W
b011000 _
b011000 ^
b011000 f
b011000 e
b011000 m
b011000 l
b1100000101 u
b1100000101 ;
b0001010111 w
b0001010111 <
0J
04
b1010 T
b1010 S
b1100011010 9
b0110000100 =
b0110000100 >
b0110000100 ?
b0110000100 @
b11011011101110111100100111010110 {
b1011 [
b1011 Z
b1011 b
b1011 a
b1011 i
b1011 h
b1011 p
b1011 o
b0101100011 A
b0101100011 1
b0101100011 (
b0101100011 F
b1100011010 G
b0110001011 =
b0110001011 >
b0110001011 ?
b0110001011 @
1J
14
b101 K
b0101100011 L
#430
0!
0+
0#
