dump.vcd
$date
	Sun May 16 19:05:36 2021
$end

$version
	Synopsys VCS version R-2020.12
$end

$timescale
	1ns
$end

$comment Csum: 1 ef36075bb0d7b2b9 $end


$scope module rushi $end
$upscope $end


$scope module top $end
$var reg 1 ! clk $end
$var reg 1 " reset $end

$scope begin unnamed$$_vcs_4 $end
$upscope $end


$scope begin unnamed$$_vcs_0 $end
$upscope $end


$scope begin unnamed$$_vcs_1 $end
$upscope $end


$scope begin unnamed$$_vcs_2 $end
$upscope $end


$scope begin unnamed$$_vcs_3 $end
$upscope $end


$scope module int_f $end
$var reg 1 # clk $end
$var reg 1 $ pushin $end
$var reg 9 % datain [8:0] $end
$var reg 1 & startin $end
$var reg 1 ' pushout $end
$var reg 10 ( dataout [9:0] $end
$var reg 1 ) startout $end
$var reg 1 * reset $end
$upscope $end


$scope module enc $end
$var wire 1 + clk $end
$var wire 1 , reset $end
$var wire 1 - pushin $end
$var wire 9 . datain [8:0] $end
$var wire 1 / startin $end
$var reg 1 0 pushout $end
$var wire 10 1 dataout [9:0] $end
$var reg 1 2 startout $end
$var wire 1 3 Kbit $end
$var wire 1 4 RD $end
$var wire 1 5 curRD $end
$var wire 32 6 crcResult [31:0] $end
$var reg 32 7 crcData [31:0] $end
$var reg 1 8 curRD0 $end
$var wire 10 9 outTemp [9:0] $end
$var wire 10 : kcode [9:0] $end
$var wire 10 ; kcodeCRC0 [9:0] $end
$var wire 10 < kcodeCRC1 [9:0] $end
$var wire 10 = firstCRC [9:0] $end
$var wire 10 > secondCRC [9:0] $end
$var wire 10 ? thirdCRC [9:0] $end
$var wire 10 @ fourthCRC [9:0] $end
$var reg 10 A trueOutput [9:0] $end
$var reg 4 B counterK281 [3:0] $end
$var reg 4 C counterK285 [3:0] $end
$var reg 2 D currentState [1:0] $end
$var reg 2 E nextState [1:0] $end

$scope function rearrange $end
$var reg 10 F rearrange [9:0] $end
$var reg 10 G data [9:0] $end
$var integer 32 H i $end
$upscope $end


$scope module rd10b $end
$var wire 1 + clk $end
$var wire 1 , reset $end
$var wire 1 / startin $end
$var wire 10 A dataout [9:0] $end
$var wire 1 0 pushout $end
$var reg 1 4 RDout $end
$var reg 1 I currentState $end
$var reg 1 J nextState $end

$scope function countOnes $end
$var reg 3 K countOnes [2:0] $end
$var reg 10 L data [9:0] $end
$var integer 32 M i $end
$upscope $end

$upscope $end


$scope module ec0 $end
$var wire 5 N datain [4:0] $end
$var wire 1 5 RD $end
$var wire 6 O dataout [5:0] $end
$var reg 6 P abcdei_d [5:0] $end
$upscope $end


$scope module ec1 $end
$var wire 3 Q datain [2:0] $end
$var wire 1 R RD $end
$var wire 5 N lower [4:0] $end
$var wire 4 S dataout [3:0] $end
$var reg 4 T fghj_d [3:0] $end
$var wire 1 U RD0 $end
$upscope $end


$scope module ec2 $end
$var wire 5 V datain [4:0] $end
$var wire 1 5 RD $end
$var wire 6 W dataout [5:0] $end
$var reg 6 X abcdei_d [5:0] $end
$upscope $end


$scope module ec3 $end
$var wire 3 Y datain [2:0] $end
$var wire 1 R RD $end
$var wire 5 V lower [4:0] $end
$var wire 4 Z dataout [3:0] $end
$var reg 4 [ fghj_d [3:0] $end
$var wire 1 \ RD0 $end
$upscope $end


$scope module ec4 $end
$var wire 5 ] datain [4:0] $end
$var wire 1 5 RD $end
$var wire 6 ^ dataout [5:0] $end
$var reg 6 _ abcdei_d [5:0] $end
$upscope $end


$scope module ec5 $end
$var wire 3 ` datain [2:0] $end
$var wire 1 R RD $end
$var wire 5 ] lower [4:0] $end
$var wire 4 a dataout [3:0] $end
$var reg 4 b fghj_d [3:0] $end
$var wire 1 c RD0 $end
$upscope $end


$scope module ec6 $end
$var wire 5 d datain [4:0] $end
$var wire 1 5 RD $end
$var wire 6 e dataout [5:0] $end
$var reg 6 f abcdei_d [5:0] $end
$upscope $end


$scope module ec7 $end
$var wire 3 g datain [2:0] $end
$var wire 1 R RD $end
$var wire 5 d lower [4:0] $end
$var wire 4 h dataout [3:0] $end
$var reg 4 i fghj_d [3:0] $end
$var wire 1 j RD0 $end
$upscope $end


$scope module ec8 $end
$var wire 5 k datain [4:0] $end
$var wire 1 5 RD $end
$var wire 6 l dataout [5:0] $end
$var reg 6 m abcdei_d [5:0] $end
$upscope $end


$scope module ec9 $end
$var wire 3 n datain [2:0] $end
$var wire 1 R RD $end
$var wire 5 k lower [4:0] $end
$var wire 4 o dataout [3:0] $end
$var reg 4 p fghj_d [3:0] $end
$var wire 1 q RD0 $end
$upscope $end


$scope module kc0 $end
$var wire 8 r datain [7:0] $end
$var wire 1 5 RD $end
$var wire 10 : dataout [9:0] $end
$var reg 10 s outTemp [9:0] $end
$upscope $end


$scope module kc1 $end
$var wire 8 t datain [7:0] $end
$var wire 1 5 RD $end
$var wire 10 ; dataout [9:0] $end
$var reg 10 u outTemp [9:0] $end
$upscope $end


$scope module kc2 $end
$var wire 8 v datain [7:0] $end
$var wire 1 5 RD $end
$var wire 10 < dataout [9:0] $end
$var reg 10 w outTemp [9:0] $end
$upscope $end


$scope module crc0 $end
$var wire 1 + clk $end
$var wire 1 , rst $end
$var wire 8 r crc32_in [7:0] $end
$var wire 1 x valid $end
$var wire 1 y is_S1DATA $end
$var wire 32 6 crc32_out [31:0] $end
$var reg 32 z crc32_out_buff [31:0] $end
$var reg 32 { crc32_table [31:0] $end
$var wire 8 | crc32_lut_in [7:0] $end
$upscope $end

$upscope $end

$upscope $end


$scope module uvm_pkg $end
$var reg 32 } UVM_UNBOUNDED_CONNECTIONS [31:0] $end
$var reg 1 ~ uvm_start_uvm_declarations $end
$var reg 32 "! uvm_global_random_seed [31:0] $end
$upscope $end

$enddefinitions $end

#0
$dumpvars
1~
b11111111111111111111111111111111 }
b01000010000001111100110001000111 "!
0!
1"
b0000000000 (
b000000000 %
03
04
08
00
0I
0J
02
xy
0x
b000 K
b0000000000 L
b00000000000000000000000000001010 M
b0000 B
b0000 C
b11111111 |
b11111111111111111111111111111111 z
bxxxxxxxxxxxxxxxxxxxxxxxxxxxxxxxx {
b00000000000000000000000000000000 7
b00000000000000000000000000000000 6
b00 D
b00 E
bxxxxxxxxxx G
bxxxxxxxxxxxxxxxxxxxxxxxxxxxxxxxx H
bxxxxxxxxxx F
b0000000000 A
b100111 P
1U
b0100 T
b100111 X
1\
b0100 [
b100111 _
1c
b0100 b
b100111 f
1j
b0100 i
b100111 m
1q
b0100 p
b0000000000 s
b0011111010 u
b1110101000 w
1,
b000000000 .
b0000000000 1
b1001110100 9
b100111 O
b0100 S
b1001110100 =
b100111 W
b0100 Z
b1001110100 >
b100111 ^
b0100 a
b1001110100 ?
b100111 e
b0100 h
b1001110100 @
b100111 l
b0100 o
05
1R
b00000 V
b000 Y
b00000 ]
b000 `
b00000 d
b000 g
b00000 k
b000 n
b0000000000 :
b10111100 t
b0011111010 ;
b11110111 v
b1110101000 <
0$
0'
0&
0)
0-
0/
0#
0+
1*
b00000000 r
b00000 N
b000 Q
$end
0y
#4
0"
0*
0,
#5
1!
1+
1#
1&
1/
1$
1-
b100111100 %
b100111100 .
13
b001 Q
b11100 N
b00111100 r
10
1'
12
1)
b0000000000 F
b00000000000000000000000000001010 H
b0000000000 G
b1001 T
b1001 S
b001110 P
b001110 O
0U
b0011111001 s
b0011111001 :
b0011101001 9
1J
14
b1001111100 A
b1001111100 1
b1001111100 (
b1001111100 F
b0011111001 G
b110 K
b1001111100 L
#10
0!
0+
0#
#15
1!
1+
1#
b0001 B
18
1I
0&
0/
15
0R
02
0)
0J
04
1U
0\
0c
0j
0q
b011000 X
b011000 W
b011000 _
b011000 ^
b011000 f
b011000 e
b011000 m
b011000 l
b1100000110 s
b1100000110 :
b1100000101 u
b1100000101 ;
b0001010111 w
b0001010111 <
b0110000100 =
b0110000100 >
b0110000100 ?
b0110000100 @
b1011 [
b1011 Z
b1011 b
b1011 a
b1011 i
b1011 h
b1011 p
b1011 o
b0110000011 A
b0110000011 1
b0110000011 (
b0110000011 F
b1100000110 G
b0110001011 =
b0110001011 >
b0110001011 ?
b0110001011 @
b100 K
b0110000011 L
#20
0!
0+
0#
#25
1!
1+
1#
b0010 B
08
05
1R
0I
0U
1\
1c
1j
1q
b100111 X
b100111 W
b100111 _
b100111 ^
b100111 f
b100111 e
b100111 m
b100111 l
b0011111001 s
b0011111001 :
b0011111010 u
b0011111010 ;
b1110101000 w
b1110101000 <
1J
14
b1001111011 =
b1001111011 >
b1001111011 ?
b1001111011 @
b0100 [
b0100 Z
b0100 b
b0100 a
b0100 i
b0100 h
b0100 p
b0100 o
b1001111100 A
b1001111100 1
b1001111100 (
b1001111100 F
b0011111001 G
b1001110100 =
b1001110100 >
b1001110100 ?
b1001110100 @
b110 K
b1001111100 L
#30
0!
0+
0#
#35
1!
1+
1#
b0011 B
18
15
0R
1I
b01 E
1U
0\
0c
0j
0q
b011000 X
b011000 W
b011000 _
b011000 ^
b011000 f
b011000 e
b011000 m
b011000 l
b1100000110 s
b1100000110 :
b1100000101 u
b1100000101 ;
b0001010111 w
b0001010111 <
0J
04
b0110000100 =
b0110000100 >
b0110000100 ?
b0110000100 @
b1011 [
b1011 Z
b1011 b
b1011 a
b1011 i
b1011 h
b1011 p
b1011 o
b0110000011 A
b0110000011 1
b0110000011 (
b0110000011 F
b1100000110 G
b0110001011 =
b0110001011 >
b0110001011 ?
b0110001011 @
b100 K
b0110000011 L
#40
0!
0+
0#
#45
1!
1+
1#
b0100 B
08
05
1R
b01 D
1y
0I
b000000000 %
b000000000 .
03
b000 Q
b00000 N
b00000000 r
b1001011100 A
b1001011100 1
b1001011100 (
b1001011100 F
b0011101001 G
1U
1\
1c
1j
1q
b100111 P
b100111 O
b100111 X
b100111 W
b100111 _
b100111 ^
b100111 f
b100111 e
b100111 m
b100111 l
b0000000000 s
b0000000000 :
b0011111010 u
b0011111010 ;
b1110101000 w
b1110101000 <
b101 K
b1001011100 L
1x
b0100 T
b0100 S
b1001110100 9
b1001111011 =
b1001111011 >
b1001111011 ?
b1001111011 @
b0100 [
b0100 Z
b0100 b
b0100 a
b0100 i
b0100 h
b0100 p
b0100 o
b0010111001 A
b0010111001 1
b0010111001 (
b0010111001 F
b1001110100 G
b00101101000000101110111110001101 {
b1001110100 =
b1001110100 >
b1001110100 ?
b1001110100 @
b0010111001 L
#50
0!
0+
0#
#55
1!
1+
1#
b0000 B
b00101101111111010001000001110010 z
b11010010000000101110111110001101 6
b011111111 %
b011111111 .
b111 Q
b11111 N
b11111111 r
b10001101 |
b0001 T
b0001 S
b101011 P
b101011 O
b1010110001 9
b10010011000010011111111110011101 {
b1000110101 A
b1000110101 1
b1000110101 (
b1000110101 F
b1010110001 G
b1000110101 L
#60
0!
0+
0#
#65
1!
1+
1#
b10010011001001000000001010001101 z
b01101100110110111111110101110010 6
b000000000 %
b000000000 .
b000 Q
b00000 N
b00000000 r
b10001101 |
b0100 T
b0100 S
b100111 P
b100111 O
b1001110100 9
b0010111001 A
b0010111001 1
b0010111001 (
b0010111001 F
b1001110100 G
b0010111001 L
#70
0!
0+
0#
#75
1!
1+
1#
b10010011100110101101101110011111 z
b01101100011001010010010001100000 6
b011111111 %
b011111111 .
b111 Q
b11111 N
b11111111 r
b01100000 |
b0001 T
b0001 S
b101011 P
b101011 O
b1010110001 9
b01001101101100100110000101011000 {
b1000110101 A
b1000110101 1
b1000110101 (
b1000110101 F
b1010110001 G
b1000110101 L
#80
0!
0+
0#
#85
1!
1+
1#
b01001101001000011111101110000011 z
b10110010110111100000010001111100 6
b000000000 %
b000000000 .
b000 Q
b00000 N
b00000000 r
b10000011 |
b0100 T
b0100 S
b100111 P
b100111 O
b1001110100 9
b01110100101100011101001010011010 {
b0010111001 A
b0010111001 1
b0010111001 (
b0010111001 F
b1001110100 G
b0010111001 L
#90
0!
0+
0#
#95
1!
1+
1#
b01110100111111001111001101100001 z
b10001011000000110000110010011110 6
b110111100 %
b110111100 .
13
b101 Q
b11100 N
b10111100 r
b10 E
b0001010111 A
b0001010111 1
b0001010111 (
b10001011000000110000110010011110 7
b11110 V
b100 Y
b01100 ]
b00011 d
b01011 k
b100 n
b0001010111 F
b1110101000 G
b11011101 |
0x
b1010 T
b1010 S
b001110 P
b001110 O
0U
b0011111010 s
b0011111010 :
b0011101010 9
b0001010111 L
b011110 X
b011110 W
b0010 [
b0010 Z
b001101 _
b001101 ^
0c
b110001 f
b110001 e
0j
b110100 m
b110100 l
b0010 p
b0010 o
0q
b01100001 |
b0111100010 =
b0011010100 >
b1100010100 ?
b1101000010 @
b1011 b
b1011 a
b1011 i
b1011 h
b1101 p
b1101 o
b0011011011 >
b1100011011 ?
b1101001101 @
#100
0!
0+
0#
#105
1!
1+
1#
b10 D
0y
0$
0-
b0100011110 A
b0100011110 1
b0100011110 (
b0100011110 F
b0111100010 G
b0100011110 L
#110
0!
0+
0#
#115
1!
1+
1#
b0001 C
b11111111111111111111111111111111 z
b00000000000000000000000000000000 6
b1101101100 A
b1101101100 1
b1101101100 (
b1101101100 F
b0011011011 G
b11111111 |
1J
14
b110 K
b1101101100 L
#120
0!
0+
0#
#125
1!
1+
1#
b0010 C
18
15
0R
1I
b1101100011 A
b1101100011 1
b1101100011 (
b1101100011 F
b1100011011 G
1U
0\
1c
1j
1q
b100001 X
b100001 W
b1100000101 s
b1100000101 :
b1100000101 u
b1100000101 ;
b0001010111 w
b0001010111 <
0J
04
b1101100011 L
b1000010010 =
b1101 [
b1101 Z
b0100 b
b0100 a
b0100 i
b0100 h
b0010 p
b0010 o
b0010100011 A
b0010100011 1
b0010100011 (
b0010100011 F
b1100010100 G
b1000011101 =
b0011010100 >
b1100010100 ?
b1101000010 @
b100 K
b0010100011 L
#130
0!
0+
0#
#135
1!
1+
1#
b0011 C
08
05
1R
0I
b0100001011 A
b0100001011 1
b0100001011 (
b0100001011 F
b1101000010 G
0U
1\
0c
0j
0q
b011110 X
b011110 W
b0011111010 s
b0011111010 :
b0011111010 u
b0011111010 ;
b1110101000 w
b1110101000 <
1J
14
b0100001011 L
b0111101101 =
b0010 [
b0010 Z
b1011 b
b1011 a
b1011 i
b1011 h
b1101 p
b1101 o
b1011001011 A
b1011001011 1
b1011001011 (
b1011001011 F
b1101001101 G
b0111100010 =
b0011011011 >
b1100011011 ?
b1101001101 @
b110 K
b1011001011 L
#140
0!
0+
0#
#145
1!
1+
1#
b0100 C
18
15
0R
1I
b00 E
b0101111100 A
b0101111100 1
b0101111100 (
b00000000000000000000000000000000 7
b00000 V
b000 Y
b00000 ]
b00000 d
b00000 k
b000 n
b0101111100 F
b0011111010 G
1U
0\
0c
0j
0q
b011000 X
b011000 W
b011000 _
b011000 ^
b011000 f
b011000 e
b011000 m
b011000 l
b1100000101 s
b1100000101 :
b1100000101 u
b1100000101 ;
b0001010111 w
b0001010111 <
0J
04
b0101111100 L
b0110000010 =
b0110001011 >
b0110001011 ?
b0110001101 @
b1011 [
b1011 Z
b1011 p
b1011 o
b1010000011 A
b1010000011 1
b1010000011 (
b1010000011 F
b1100000101 G
b0110001011 =
b0110001011 @
b100 K
b1010000011 L
#150
0!
0+
0#
#155
1!
1+
1#
b0101 C
08
05
1R
b00 D
0I
b0000000000 A
b0000000000 1
b0000000000 (
00
0'
0U
1\
1c
1j
1q
b100111 X
b100111 W
b100111 _
b100111 ^
b100111 f
b100111 e
b100111 m
b100111 l
b0011111010 s
b0011111010 :
b0011111010 u
b0011111010 ;
b1110101000 w
b1110101000 <
b000 K
b0000000000 L
b1001111011 =
b1001111011 >
b1001111011 ?
b1001111011 @
b0100 [
b0100 Z
b0100 b
b0100 a
b0100 i
b0100 h
b0100 p
b0100 o
b1001110100 =
b1001110100 >
b1001110100 ?
b1001110100 @
#160
0!
0+
0#
#165
1!
1+
1#
b0000 C
#170
0!
0+
0#
#175
1!
1+
1#
#180
0!
0+
0#
#185
1!
1+
1#
#190
0!
0+
0#
#195
1!
1+
1#
b000000000 %
b000000000 .
03
b000 Q
b00000 N
b00000000 r
b1011 T
b1011 S
b100111 P
b100111 O
1U
b0000000000 s
b0000000000 :
b1001111011 9
b0100 T
b0100 S
b1001110100 9
#200
0!
0+
0#
#205
1!
1+
1#
1&
1/
1$
1-
b100111100 %
b100111100 .
13
b001 Q
b11100 N
b00111100 r
10
1'
12
1)
b0000000000 F
b0000000000 G
b1001 T
b1001 S
b001110 P
b001110 O
0U
b0011111001 s
b0011111001 :
b0011101001 9
1J
14
b1001111100 A
b1001111100 1
b1001111100 (
b1001111100 F
b0011111001 G
b110 K
b1001111100 L
#210
0!
0+
0#
#215
1!
1+
1#
b0001 B
18
1I
0&
0/
15
0R
02
0)
0J
04
1U
0\
0c
0j
0q
b011000 X
b011000 W
b011000 _
b011000 ^
b011000 f
b011000 e
b011000 m
b011000 l
b1100000110 s
b1100000110 :
b1100000101 u
b1100000101 ;
b0001010111 w
b0001010111 <
b0110000100 =
b0110000100 >
b0110000100 ?
b0110000100 @
b1011 [
b1011 Z
b1011 b
b1011 a
b1011 i
b1011 h
b1011 p
b1011 o
b0110000011 A
b0110000011 1
b0110000011 (
b0110000011 F
b1100000110 G
b0110001011 =
b0110001011 >
b0110001011 ?
b0110001011 @
b100 K
b0110000011 L
#220
0!
0+
0#
#225
1!
1+
1#
b0010 B
08
05
1R
0I
0U
1\
1c
1j
1q
b100111 X
b100111 W
b100111 _
b100111 ^
b100111 f
b100111 e
b100111 m
b100111 l
b0011111001 s
b0011111001 :
b0011111010 u
b0011111010 ;
b1110101000 w
b1110101000 <
1J
14
b1001111011 =
b1001111011 >
b1001111011 ?
b1001111011 @
b0100 [
b0100 Z
b0100 b
b0100 a
b0100 i
b0100 h
b0100 p
b0100 o
b1001111100 A
b1001111100 1
b1001111100 (
b1001111100 F
b0011111001 G
b1001110100 =
b1001110100 >
b1001110100 ?
b1001110100 @
b110 K
b1001111100 L
#230
0!
0+
0#
#235
1!
1+
1#
b0011 B
18
15
0R
1I
b01 E
1U
0\
0c
0j
0q
b011000 X
b011000 W
b011000 _
b011000 ^
b011000 f
b011000 e
b011000 m
b011000 l
b1100000110 s
b1100000110 :
b1100000101 u
b1100000101 ;
b0001010111 w
b0001010111 <
0J
04
b0110000100 =
b0110000100 >
b0110000100 ?
b0110000100 @
b1011 [
b1011 Z
b1011 b
b1011 a
b1011 i
b1011 h
b1011 p
b1011 o
b0110000011 A
b0110000011 1
b0110000011 (
b0110000011 F
b1100000110 G
b0110001011 =
b0110001011 >
b0110001011 ?
b0110001011 @
b100 K
b0110000011 L
#240
0!
0+
0#
#245
1!
1+
1#
b0100 B
08
05
1R
b01 D
1y
0I
b011111111 %
b011111111 .
03
b111 Q
b11111 N
b11111111 r
b1001011100 A
b1001011100 1
b1001011100 (
b1001011100 F
b0011101001 G
1U
1\
1c
1j
1q
b101011 P
b101011 O
b100111 X
b100111 W
b100111 _
b100111 ^
b100111 f
b100111 e
b100111 m
b100111 l
b0000000000 s
b0000000000 :
b0011111010 u
b0011111010 ;
b1110101000 w
b1110101000 <
b101 K
b1001011100 L
1x
b0001 T
b0001 S
b1010110001 9
b1001111011 =
b1001111011 >
b1001111011 ?
b1001111011 @
b0100 [
b0100 Z
b0100 b
b0100 a
b0100 i
b0100 h
b0100 p
b0100 o
b1000110101 A
b1000110101 1
b1000110101 (
b1000110101 F
b1010110001 G
b00000000 |
b00000000000000000000000000000000 {
b1001110100 =
b1001110100 >
b1001110100 ?
b1001110100 @
b1000110101 L
#250
0!
0+
0#
#255
1!
1+
1#
b0000 B
b00000000111111111111111111111111 z
b11111111000000000000000000000000 6
b000000000 %
b000000000 .
b000 Q
b00000 N
b00000000 r
b0100 T
b0100 S
b100111 P
b100111 O
b11111111 |
b1001110100 9
b00101101000000101110111110001101 {
b0010111001 A
b0010111001 1
b0010111001 (
b0010111001 F
b1001110100 G
b0010111001 L
#260
0!
0+
0#
#265
1!
1+
1#
b00101101000000100001000001110010 z
b11010010111111011110111110001101 6
b011111111 %
b011111111 .
b111 Q
b11111 N
b11111111 r
b10001101 |
b0001 T
b0001 S
b101011 P
b101011 O
b1010110001 9
b10010011000010011111111110011101 {
b1000110101 A
b1000110101 1
b1000110101 (
b1000110101 F
b1010110001 G
b1000110101 L
#270
0!
0+
0#
#275
1!
1+
1#
b10010011001001001111110110001101 z
b01101100110110110000001001110010 6
b000000000 %
b000000000 .
b000 Q
b00000 N
b00000000 r
b10001101 |
b0100 T
b0100 S
b100111 P
b100111 O
b1001110100 9
b0010111001 A
b0010111001 1
b0010111001 (
b0010111001 F
b1001110100 G
b0010111001 L
#280
0!
0+
0#
#285
1!
1+
1#
b10010011100110101101101101100000 z
b01101100011001010010010010011111 6
b01100000 |
b01001101101100100110000101011000 {
#290
0!
0+
0#
#295
1!
1+
1#
b01001101001000011111101110000011 z
b10110010110111100000010001111100 6
b110111100 %
b110111100 .
13
b101 Q
b11100 N
b10111100 r
b10 E
b0001010111 A
b0001010111 1
b0001010111 (
b10110010110111100000010001111100 7
b11100 V
b011 Y
b00100 ]
b11110 d
b110 g
b10010 k
b101 n
b0001010111 F
b1110101000 G
b00111111 |
0x
b1010 T
b1010 S
b001110 P
b001110 O
0U
b0011111010 s
b0011111010 :
b0011101010 9
b0001010111 L
b001110 X
b001110 W
b0011 [
b0011 Z
0\
b110101 _
b110101 ^
b011110 f
b011110 e
b0110 i
b0110 h
b010011 m
b010011 l
b1010 p
b1010 o
0q
b10000011 |
b0011100011 =
b1101010100 >
b0111100110 ?
b0100111010 @
b1100 [
b1100 Z
b0011101100 =
#300
0!
0+
0#
#305
1!
1+
1#
b10 D
0y
0$
0-
b0011011100 A
b0011011100 1
b0011011100 (
b0011011100 F
b0011101100 G
b0011011100 L
#310
0!
0+
0#
#315
1!
1+
1#
b0001 C
b11111111111111111111111111111111 z
b00000000000000000000000000000000 6
b0010101011 A
b0010101011 1
b0010101011 (
b0010101011 F
b1101010100 G
b11111111 |
b0010101011 L
#320
0!
0+
0#
#325
1!
1+
1#
b0010 C
b0110011110 A
b0110011110 1
b0110011110 (
b0110011110 F
b0111100110 G
1J
14
b110 K
b0110011110 L
#330
0!
0+
0#
#335
1!
1+
1#
b0011 C
18
15
0R
1I
b0101110010 A
b0101110010 1
b0101110010 (
b0101110010 F
b0100111010 G
1U
1\
0c
0j
1q
b001010 _
b001010 ^
b100001 f
b100001 e
b1100000101 s
b1100000101 :
b1100000101 u
b1100000101 ;
b0001010111 w
b0001010111 <
b101 K
b0101110010 L
b0010100100 >
b1000010110 ?
b0011 [
b0011 Z
b1011 b
b1011 a
b0011100011 =
b0010101011 >
#340
0!
0+
0#
#345
1!
1+
1#
b0100 C
b00 E
b1010000011 A
b1010000011 1
b1010000011 (
b00000000000000000000000000000000 7
b00000 V
b000 Y
b00000 ]
b00000 d
b000 g
b00000 k
b000 n
b1010000011 F
b1100000101 G
0J
04
b100 K
b1010000011 L
b011000 X
b011000 W
b0100 [
b0100 Z
0\
b011000 _
b011000 ^
b011000 f
b011000 e
b1011 i
b1011 h
b011000 m
b011000 l
b0100 p
b0100 o
0q
b0110000100 =
b0110001011 >
b0110001011 ?
b0110000100 @
b1011 [
b1011 Z
b1011 p
b1011 o
b0110001011 =
b0110001011 @
#350
0!
0+
0#
#355
1!
1+
1#
b0101 C
08
05
1R
b00 D
0I
b0000000000 A
b0000000000 1
b0000000000 (
00
0'
0U
1\
1c
1j
1q
b100111 X
b100111 W
b100111 _
b100111 ^
b100111 f
b100111 e
b100111 m
b100111 l
b0011111010 s
b0011111010 :
b0011111010 u
b0011111010 ;
b1110101000 w
b1110101000 <
b000 K
b0000000000 L
b1001111011 =
b1001111011 >
b1001111011 ?
b1001111011 @
b0100 [
b0100 Z
b0100 b
b0100 a
b0100 i
b0100 h
b0100 p
b0100 o
b1001110100 =
b1001110100 >
b1001110100 ?
b1001110100 @
#360
0!
0+
0#
#365
1!
1+
1#
b0000 C
#370
0!
0+
0#
#375
1!
1+
1#
#380
0!
0+
0#
#385
1!
1+
1#
#390
0!
0+
0#
#395
1!
1+
1#
b000000000 %
b000000000 .
03
b000 Q
b00000 N
b00000000 r
b1011 T
b1011 S
b100111 P
b100111 O
1U
b0000000000 s
b0000000000 :
b1001111011 9
b0100 T
b0100 S
b1001110100 9
#400
0!
0+
0#
#405
1!
1+
1#
1&
1/
1$
1-
b100111100 %
b100111100 .
13
b001 Q
b11100 N
b00111100 r
10
1'
12
1)
b0000000000 F
b0000000000 G
b1001 T
b1001 S
b001110 P
b001110 O
0U
b0011111001 s
b0011111001 :
b0011101001 9
1J
14
b1001111100 A
b1001111100 1
b1001111100 (
b1001111100 F
b0011111001 G
b110 K
b1001111100 L
#410
0!
0+
0#
#415
1!
1+
1#
b0001 B
18
1I
0&
0/
15
0R
02
0)
0J
04
1U
0\
0c
0j
0q
b011000 X
b011000 W
b011000 _
b011000 ^
b011000 f
b011000 e
b011000 m
b011000 l
b1100000110 s
b1100000110 :
b1100000101 u
b1100000101 ;
b0001010111 w
b0001010111 <
b0110000100 =
b0110000100 >
b0110000100 ?
b0110000100 @
b1011 [
b1011 Z
b1011 b
b1011 a
b1011 i
b1011 h
b1011 p
b1011 o
b0110000011 A
b0110000011 1
b0110000011 (
b0110000011 F
b1100000110 G
b0110001011 =
b0110001011 >
b0110001011 ?
b0110001011 @
b100 K
b0110000011 L
#420
0!
0+
0#
#425
1!
1+
1#
b0010 B
08
05
1R
0I
0U
1\
1c
1j
1q
b100111 X
b100111 W
b100111 _
b100111 ^
b100111 f
b100111 e
b100111 m
b100111 l
b0011111001 s
b0011111001 :
b0011111010 u
b0011111010 ;
b1110101000 w
b1110101000 <
1J
14
b1001111011 =
b1001111011 >
b1001111011 ?
b1001111011 @
b0100 [
b0100 Z
b0100 b
b0100 a
b0100 i
b0100 h
b0100 p
b0100 o
b1001111100 A
b1001111100 1
b1001111100 (
b1001111100 F
b0011111001 G
b1001110100 =
b1001110100 >
b1001110100 ?
b1001110100 @
b110 K
b1001111100 L
#430
0!
0+
0#
#435
1!
1+
1#
b0011 B
18
15
0R
1I
b01 E
1U
0\
0c
0j
0q
b011000 X
b011000 W
b011000 _
b011000 ^
b011000 f
b011000 e
b011000 m
b011000 l
b1100000110 s
b1100000110 :
b1100000101 u
b1100000101 ;
b0001010111 w
b0001010111 <
0J
04
b0110000100 =
b0110000100 >
b0110000100 ?
b0110000100 @
b1011 [
b1011 Z
b1011 b
b1011 a
b1011 i
b1011 h
b1011 p
b1011 o
b0110000011 A
b0110000011 1
b0110000011 (
b0110000011 F
b1100000110 G
b0110001011 =
b0110001011 >
b0110001011 ?
b0110001011 @
b100 K
b0110000011 L
#440
0!
0+
0#
#445
1!
1+
1#
b0100 B
08
05
1R
b01 D
1y
0I
b000000000 %
b000000000 .
03
b000 Q
b00000 N
b00000000 r
b1001011100 A
b1001011100 1
b1001011100 (
b1001011100 F
b0011101001 G
1U
1\
1c
1j
1q
b100111 P
b100111 O
b100111 X
b100111 W
b100111 _
b100111 ^
b100111 f
b100111 e
b100111 m
b100111 l
b0000000000 s
b0000000000 :
b0011111010 u
b0011111010 ;
b1110101000 w
b1110101000 <
b101 K
b1001011100 L
1x
b0100 T
b0100 S
b1001110100 9
b1001111011 =
b1001111011 >
b1001111011 ?
b1001111011 @
b0100 [
b0100 Z
b0100 b
b0100 a
b0100 i
b0100 h
b0100 p
b0100 o
b0010111001 A
b0010111001 1
b0010111001 (
b0010111001 F
b1001110100 G
b00101101000000101110111110001101 {
b1001110100 =
b1001110100 >
b1001110100 ?
b1001110100 @
b0010111001 L
#450
0!
0+
0#
#455
1!
1+
1#
b0000 B
b00101101111111010001000001110010 z
b11010010000000101110111110001101 6
b01110010 |
b10111110000010110001000000010000 {
#460
0!
0+
0#
#465
1!
1+
1#
b10111110001001101110110100000000 z
b01000001110110010001001011111111 6
b011111111 %
b011111111 .
b111 Q
b11111 N
b11111111 r
b11111111 |
b0001 T
b0001 S
b101011 P
b101011 O
b1010110001 9
b00101101000000101110111110001101 {
b1000110101 A
b1000110101 1
b1000110101 (
b1000110101 F
b1010110001 G
b1000110101 L
#470
0!
0+
0#
#475
1!
1+
1#
b00101101101111001100100101100000 z
b11010010010000110011011010011111 6
b10011111 |
b01100000101100001000111011010101 {
#480
0!
0+
0#
#485
1!
1+
1#
b01100000100111010011001000011100 z
b10011111011000101100110111100011 6
b000000000 %
b000000000 .
b000 Q
b00000 N
b00000000 r
b00011100 |
b0100 T
b0100 S
b100111 P
b100111 O
b1001110100 9
b00010100000000010101110001001111 {
b0010111001 A
b0010111001 1
b0010111001 (
b0010111001 F
b1001110100 G
b0010111001 L
#490
0!
0+
0#
#495
1!
1+
1#
b00010100011000011100000101111101 z
b11101011100111100011111010000010 6
b01111101 |
b00101110101101000000110110000001 {
#500
0!
0+
0#
#505
1!
1+
1#
b00101110101000000110110001000000 z
b11010001010111111001001110111111 6
b110111100 %
b110111100 .
13
b101 Q
b11100 N
b10111100 r
b10 E
b0001010111 A
b0001010111 1
b0001010111 (
b11010001010111111001001110111111 7
b11111 V
b101 Y
b10011 ]
b100 `
b11111 d
b010 g
b10001 k
b110 n
b0001010111 F
b1110101000 G
b11111100 |
0x
b1010 T
b1010 S
b001110 P
b001110 O
0U
b0011111010 s
b0011111010 :
b0011101010 9
b0001010111 L
b101011 X
b101011 W
b1010 [
b1010 Z
b110010 _
b110010 ^
b0010 b
b0010 a
0c
b101011 f
b101011 e
b0101 i
b0101 h
b100011 m
b100011 l
b0110 p
b0110 o
0q
b01000000 |
b1010111010 =
b1100100010 >
b1010110101 ?
b1000110110 @
b1101 b
b1101 a
b1100101101 >
#510
0!
0+
0#
