dump.vcd
$date
	Sun May  9 14:33:01 2021
$end

$version
	Synopsys VCS version R-2020.12
$end

$timescale
	1ns
$end

$comment Csum: 1 402ff56fd3bb274a $end


$scope module rushi $end
$upscope $end


$scope module top $end
$var reg 1 ! clk $end
$var reg 1 " reset $end
$var wire 1 # startout $end

$scope begin unnamed$$_vcs_4 $end
$upscope $end


$scope begin unnamed$$_vcs_0 $end
$upscope $end


$scope begin unnamed$$_vcs_1 $end
$upscope $end


$scope begin unnamed$$_vcs_2 $end
$upscope $end


$scope begin unnamed$$_vcs_3 $end
$upscope $end


$scope module int_f $end
$var reg 1 $ clk $end
$var reg 1 % pushin $end
$var reg 9 & datain [8:0] $end
$var reg 1 ' startin $end
$var reg 1 ( pushout $end
$var reg 10 ) dataout [9:0] $end
$var reg 1 * startout $end
$var reg 5 + datain_size [4:0] $end
$var reg 1 , reset $end
$upscope $end


$scope module enc $end
$var wire 1 - clk $end
$var wire 1 . reset $end
$var wire 1 / pushin $end
$var wire 9 0 datain [8:0] $end
$var wire 1 1 startin $end
$var reg 1 2 pushout $end
$var wire 10 3 dataout [9:0] $end
$var reg 1 4 startout $end
$var wire 1 5 Kbit $end
$var wire 1 6 RD $end
$var wire 32 7 crcResult [31:0] $end
$var reg 32 8 crcData [31:0] $end
$var wire 10 9 outTemp [9:0] $end
$var wire 10 : kcode [9:0] $end
$var wire 10 ; kcodeCRC0 [9:0] $end
$var wire 10 < kcodeCRC1 [9:0] $end
$var wire 10 = firstCRC [9:0] $end
$var wire 10 > secondCRC [9:0] $end
$var wire 10 ? thirdCRC [9:0] $end
$var wire 10 @ fourthCRC [9:0] $end
$var reg 10 A trueOutput [9:0] $end
$var reg 4 B counterK281 [3:0] $end
$var reg 4 C counterK285 [3:0] $end
$var reg 2 D currentState [1:0] $end
$var reg 2 E nextState [1:0] $end

$scope function rearrange $end
$var reg 10 F rearrange [9:0] $end
$var reg 10 G data [9:0] $end
$var integer 32 H i $end
$upscope $end


$scope module rd $end
$var wire 1 - clk $end
$var wire 1 . reset $end
$var wire 1 1 startin $end
$var wire 10 A dataout [9:0] $end
$var wire 1 2 pushout $end
$var reg 1 6 RDout $end
$var reg 1 I currentState $end
$var reg 1 J nextState $end
$var wire 2 K numOnes [1:0] $end

$scope function countOnes $end
$var reg 3 L countOnes [2:0] $end
$var reg 10 M data [9:0] $end
$var integer 32 N i $end
$upscope $end

$upscope $end


$scope module ec0 $end
$var wire 5 O datain [4:0] $end
$var wire 1 P RD $end
$var wire 6 Q dataout [5:0] $end
$var reg 6 R abcdei_d [5:0] $end
$upscope $end


$scope module ec1 $end
$var wire 3 S datain [2:0] $end
$var wire 1 T RD $end
$var wire 4 U dataout [3:0] $end
$var reg 4 V fghj_d [3:0] $end
$upscope $end


$scope module ec2 $end
$var wire 5 W datain [4:0] $end
$var wire 1 P RD $end
$var wire 6 X dataout [5:0] $end
$var reg 6 Y abcdei_d [5:0] $end
$upscope $end


$scope module ec3 $end
$var wire 3 Z datain [2:0] $end
$var wire 1 T RD $end
$var wire 4 [ dataout [3:0] $end
$var reg 4 \ fghj_d [3:0] $end
$upscope $end


$scope module ec4 $end
$var wire 5 ] datain [4:0] $end
$var wire 1 P RD $end
$var wire 6 ^ dataout [5:0] $end
$var reg 6 _ abcdei_d [5:0] $end
$upscope $end


$scope module ec5 $end
$var wire 3 ` datain [2:0] $end
$var wire 1 T RD $end
$var wire 4 a dataout [3:0] $end
$var reg 4 b fghj_d [3:0] $end
$upscope $end


$scope module ec6 $end
$var wire 5 c datain [4:0] $end
$var wire 1 P RD $end
$var wire 6 d dataout [5:0] $end
$var reg 6 e abcdei_d [5:0] $end
$upscope $end


$scope module ec7 $end
$var wire 3 f datain [2:0] $end
$var wire 1 T RD $end
$var wire 4 g dataout [3:0] $end
$var reg 4 h fghj_d [3:0] $end
$upscope $end


$scope module ec8 $end
$var wire 5 i datain [4:0] $end
$var wire 1 P RD $end
$var wire 6 j dataout [5:0] $end
$var reg 6 k abcdei_d [5:0] $end
$upscope $end


$scope module ec9 $end
$var wire 3 l datain [2:0] $end
$var wire 1 T RD $end
$var wire 4 m dataout [3:0] $end
$var reg 4 n fghj_d [3:0] $end
$upscope $end


$scope module kc0 $end
$var wire 8 o datain [7:0] $end
$var wire 1 P RD $end
$var wire 10 : dataout [9:0] $end
$var reg 10 p outTemp [9:0] $end
$upscope $end


$scope module kc1 $end
$var wire 8 q datain [7:0] $end
$var wire 1 P RD $end
$var wire 10 ; dataout [9:0] $end
$var reg 10 r outTemp [9:0] $end
$upscope $end


$scope module kc2 $end
$var wire 8 s datain [7:0] $end
$var wire 1 P RD $end
$var wire 10 < dataout [9:0] $end
$var reg 10 t outTemp [9:0] $end
$upscope $end


$scope module crc0 $end
$var wire 1 - clk $end
$var wire 1 . rst $end
$var wire 8 o crc32_in [7:0] $end
$var wire 1 u valid $end
$var wire 1 v is_S1DATA $end
$var wire 32 7 crc32_out [31:0] $end
$var reg 32 w crc32_out_buff [31:0] $end
$var reg 32 x crc32_table [31:0] $end
$var wire 8 y crc32_lut_in [7:0] $end
$upscope $end

$upscope $end

$upscope $end


$scope module uvm_pkg $end
$var reg 32 z UVM_UNBOUNDED_CONNECTIONS [31:0] $end
$var reg 1 { uvm_start_uvm_declarations $end
$var reg 32 | uvm_global_random_seed [31:0] $end
$upscope $end

$enddefinitions $end

#0
$dumpvars
1{
b11111111111111111111111111111111 z
b01000010000001111100110001000111 |
0!
1"
0#
b10100 +
b0000000000 )
b000000000 &
05
06
02
0I
0J
04
xv
0u
b000 L
b0000000000 M
b00000000000000000000000000001010 N
b0000 B
b0000 C
b11111111 y
b11111111111111111111111111111111 w
b00101101000000101110111110001101 x
b00000000000000000000000000000000 8
b00000000000000000000000000000000 7
b00 D
b00 E
bxxxxxxxxxx G
bxxxxxxxxxxxxxxxxxxxxxxxxxxxxxxxx H
bxxxxxxxxxx F
b0000000000 A
b100111 R
b0100 V
b100111 Y
b0100 \
b100111 _
b0100 b
b100111 e
b0100 h
b100111 k
b0100 n
b0000000000 p
b0011111010 r
b1110101000 t
bzz K
1.
b000000000 0
b0000000000 3
b1001110100 9
b100111 Q
b0100 U
b1001110100 =
b100111 X
b0100 [
b1001110100 >
b100111 ^
b0100 a
b1001110100 ?
b100111 d
b0100 g
b1001110100 @
b100111 j
b0100 m
0P
1T
b00000 W
b000 Z
b00000 ]
b000 `
b00000 c
b000 f
b00000 i
b000 l
b0000000000 :
b10111100 q
b0011111010 ;
b11110111 s
b1110101000 <
0%
0(
x'
x*
0/
x1
0$
0-
1,
b00000000 o
b00000 O
b000 S
$end
0v
#4
0"
0,
0.
#5
1!
1-
1$
1'
11
b100111100 &
b100111100 0
15
b001 S
b11100 O
b00111100 o
b11000011 y
1%
1/
12
1(
14
1#
b0000000000 F
b00000000000000000000000000001010 H
b0000000000 G
b1001 V
b1001 U
b001111 R
b001111 Q
b00000010011011011001001100001010 x
b0011111001 p
b0011111001 :
b0011111001 9
b1001111100 A
b1001111100 3
b1001111100 )
b1001111100 F
b0011111001 G
1J
b110 L
b1001111100 M
#10
0!
0-
0$
#15
1!
1-
1$
b0001 B
0'
01
04
0#
#20
0!
0-
0$
#25
1!
1-
1$
b0010 B
1I
16
0T
1P
b1011 \
b1011 [
b1011 b
b1011 a
b1011 h
b1011 g
b1011 n
b1011 m
b110000 R
b110000 Q
b011000 Y
b011000 X
b011000 _
b011000 ^
b011000 e
b011000 d
b011000 k
b011000 j
b1100000110 p
b1100000110 :
b1100000101 r
b1100000101 ;
b0001010111 t
b0001010111 <
b0110001011 =
b0110001011 >
b0110001011 ?
b0110001011 @
b1100001001 9
b0110000011 A
b0110000011 3
b0110000011 )
b0110000011 F
b1100000110 G
0J
b100 L
b0110000011 M
#30
0!
0-
0$
#35
1!
1-
1$
b0011 B
0I
b01 E
06
1T
0P
b0100 \
b0100 [
b0100 b
b0100 a
b0100 h
b0100 g
b0100 n
b0100 m
b001111 R
b001111 Q
b100111 Y
b100111 X
b100111 _
b100111 ^
b100111 e
b100111 d
b100111 k
b100111 j
b0011111001 p
b0011111001 :
b0011111010 r
b0011111010 ;
b1110101000 t
b1110101000 <
b1001110100 =
b1001110100 >
b1001110100 ?
b1001110100 @
b0011111001 9
b1001111100 A
b1001111100 3
b1001111100 )
b1001111100 F
b0011111001 G
1J
b110 L
b1001111100 M
#40
0!
0-
0$
#45
1!
1-
1$
b0100 B
1I
b01 D
1v
b011101011 &
b011101011 0
05
b111 S
b01011 O
b11101011 o
b00010100 y
16
0T
1P
1u
b1110 V
b1110 U
b110100 R
b110100 Q
b00011010110110101101010001111101 x
b0000000000 p
b0000000000 :
b1101001110 9
b1011 \
b1011 [
b1011 b
b1011 a
b1011 h
b1011 g
b1011 n
b1011 m
b011000 Y
b011000 X
b011000 _
b011000 ^
b011000 e
b011000 d
b011000 k
b011000 j
b1100000101 r
b1100000101 ;
b0001010111 t
b0001010111 <
b0111001011 A
b0111001011 3
b0111001011 )
b0111001011 F
b1101001110 G
b0110001011 =
b0110001011 >
b0110001011 ?
b0110001011 @
b0111001011 M
#50
0!
0-
0$
#55
1!
1-
1$
b0000 B
b00011010001001010010101110000010 w
b11100101110110101101010001111101 7
b01101001 y
b010001001 &
b010001001 0
b100 S
b01001 O
b10001001 o
b00001011 y
b10010111110100101101100110001000 x
b1101 V
b1101 U
b100101 R
b100101 Q
b1001011101 9
b1011101001 A
b1011101001 3
b1011101001 )
b1011101001 F
b1001011101 G
b1011101001 M
#60
0!
0-
0$
#65
1!
1-
1$
b10010111110010001111110010100011 w
b01101000001101110000001101011100 7
b00101010 y
b010010001 &
b010010001 0
b10001 O
b10010001 o
b00110010 y
b11001000110101110101000110000000 x
b100011 R
b100011 Q
b1000111101 9
b1011110001 A
b1011110001 3
b1011110001 )
b1011110001 F
b1000111101 G
b1011110001 M
#70
0!
0-
0$
#75
1!
1-
1$
b11001000010000001001100101111100 w
b00110111101111110110011010000011 7
b11101101 y
b010111001 &
b010111001 0
b101 S
b11001 O
b10111001 o
b11000101 y
b11101011000011100011011000111111 x
b1010 V
b1010 U
b100110 R
b100110 Q
b1001101010 9
b0101011001 A
b0101011001 3
b0101011001 )
b0101011001 F
b1001101010 G
b101 L
b0101011001 M
#80
0!
0-
0$
#85
1!
1-
1$
b11101011110001100111011010100110 w
b00010100001110011000100101011001 7
b00011111 y
b000110111 &
b000110111 0
b001 S
b10111 O
b00110111 o
b10010001 y
b10000111000010001010001111010010 x
b1001 V
b1001 U
b000101 R
b000101 Q
b0001011001 9
b1001101000 A
b1001101000 3
b1001101000 )
b1001101000 F
b0001011001 G
0J
b100 L
b1001101000 M
#90
0!
0-
0$
#95
1!
1-
1$
b10000111111000110110010110100100 w
b01111000000111001001101001011011 7
b10010011 y
0I
b010110101 &
b010110101 0
b101 S
b10101 O
b10110101 o
b00010001 y
b01101010101100000010000011110010 x
06
1T
0P
b1010 V
b1010 U
b101010 R
b101010 Q
b1010101010 9
b0100 \
b0100 [
b0100 b
b0100 a
b0100 h
b0100 g
b0100 n
b0100 m
b100111 Y
b100111 X
b100111 _
b100111 ^
b100111 e
b100111 d
b100111 k
b100111 j
b0011111010 r
b0011111010 ;
b1110101000 t
b1110101000 <
b0101010101 A
b0101010101 3
b0101010101 )
b0101010101 F
b1010101010 G
b1001110100 =
b1001110100 >
b1001110100 ?
b1001110100 @
b101 L
b0101010101 M
#100
0!
0-
0$
#105
1!
1-
1$
b01101010001101111100001110010111 w
b10010101110010000011110001101000 7
b00100010 y
b001110101 &
b001110101 0
b011 S
b01110101 o
b11100010 y
b01001110000001001000001101010100 x
b0011 V
b0011 U
b1010100011 9
b1100010101 A
b1100010101 3
b1100010101 )
b1100010101 F
b1010100011 G
b1100010101 M
#110
0!
0-
0$
#115
1!
1-
1$
b01001110011011101011010010010111 w
b10110001100100010100101101101000 7
b010000010 &
b010000010 0
b100 S
b00010 O
b10000010 o
b00010101 y
b0010 V
b0010 U
b101101 R
b101101 Q
b01101101110111011110010011101011 x
b1011010010 9
b0100101101 A
b0100101101 3
b0100101101 )
b0100101101 F
b1011010010 G
b0100101101 M
#120
0!
0-
0$
#125
1!
1-
1$
b01101101100100111000101001011111 w
b10010010011011000111010110100000 7
b11011101 y
b011101111 &
b011101111 0
b111 S
b01111 O
b11101111 o
b10110000 y
b11001011011000011011001110001100 x
b0001 V
b0001 U
b010111 R
b010111 Q
b0101110001 9
b1000111010 A
b1000111010 3
b1000111010 )
b1000111010 F
b0101110001 G
b1000111010 M
#130
0!
0-
0$
#135
1!
1-
1$
b11001011000011000010000000000110 w
b00110100111100111101111111111001 7
b11101001 y
b010100001 &
b010100001 0
b101 S
b00001 O
b10100001 o
b10100111 y
b01001000101100100011011001001011 x
b1010 V
b1010 U
b011101 R
b011101 Q
b0111011010 9
b0101101110 A
b0101101110 3
b0101101110 )
b0101101110 F
b0111011010 G
1J
b110 L
b0101101110 M
#140
0!
0-
0$
#145
1!
1-
1$
b01001000011110010011101001101011 w
b10110111100001101100010110010100 7
b11001010 y
1I
b011110101 &
b011110101 0
b111 S
b10101 O
b11110101 o
b10011110 y
b00010111101101111011111001000011 x
16
0T
1P
b1110 V
b1110 U
b101010 R
b101010 Q
b1010101110 9
b1011 \
b1011 [
b1011 b
b1011 a
b1011 h
b1011 g
b1011 n
b1011 m
b011000 Y
b011000 X
b011000 _
b011000 ^
b011000 e
b011000 d
b011000 k
b011000 j
b1100000101 r
b1100000101 ;
b0001010111 t
b0001010111 <
b0111010101 A
b0111010101 3
b0111010101 )
b0111010101 F
b1010101110 G
b0110001011 =
b0110001011 >
b0110001011 ?
b0110001011 @
b0111010101 M
#150
0!
0-
0$
#155
1!
1-
1$
b00010111111111111100011101111001 w
b11101000000000000011100010000110 7
b10001100 y
b010111011 &
b010111011 0
b101 S
b11011 O
b10111011 o
b11000010 y
b01110101011010101010001110011100 x
b1010 V
b1010 U
b001001 R
b001001 Q
b0010011010 9
b0101100100 A
b0101100100 3
b0101100100 )
b0101100100 F
b0010011010 G
0J
b100 L
b0101100100 M
#160
0!
0-
0$
#165
1!
1-
1$
b01110101011111010101110001011011 w
b10001010100000101010001110100100 7
b11100000 y
0I
b010001101 &
b010001101 0
b100 S
b01101 O
b10001101 o
b11010110 y
b01101111101100000111011111100001 x
06
1T
0P
b0010 V
b0010 U
b101100 R
b101100 Q
b1011000010 9
b0100 \
b0100 [
b0100 b
b0100 a
b0100 h
b0100 g
b0100 n
b0100 m
b100111 Y
b100111 X
b100111 _
b100111 ^
b100111 e
b100111 d
b100111 k
b100111 j
b0011111010 r
b0011111010 ;
b1110101000 t
b1110101000 <
b0100001101 A
b0100001101 3
b0100001101 )
b0100001101 F
b1011000010 G
b1001110100 =
b1001110100 >
b1001110100 ?
b1001110100 @
b0100001101 M
#170
0!
0-
0$
#175
1!
1-
1$
b01101111110001010000101010111101 w
b10010000001110101111010101000010 7
b00110000 y
b001111011 &
b001111011 0
b011 S
b11011 O
b01111011 o
b11000110 y
b01110010000001110110011110000101 x
b0011 V
b0011 U
b110110 R
b110110 Q
b1101100011 9
b1100011011 A
b1100011011 3
b1100011011 )
b1100011011 F
b1101100011 G
1J
b110 L
b1100011011 M
#180
0!
0-
0$
#185
1!
1-
1$
b01110010011010001010001010001111 w
b10001101100101110101110101110000 7
b11110100 y
1I
b001011010 &
b001011010 0
b010 S
b11010 O
b01011010 o
b11010101 y
b11110110101110010010011001011011 x
16
0T
1P
b0101 V
b0101 U
b010110 R
b010110 Q
b0101100101 9
b1011 \
b1011 [
b1011 b
b1011 a
b1011 h
b1011 g
b1011 n
b1011 m
b011000 Y
b011000 X
b011000 _
b011000 ^
b011000 e
b011000 d
b011000 k
b011000 j
b1100000101 r
b1100000101 ;
b0001010111 t
b0001010111 <
b1010011010 A
b1010011010 3
b1010011010 )
b1010011010 F
b0101100101 G
b0110001011 =
b0110001011 >
b0110001011 ?
b0110001011 @
b101 L
b1010011010 M
#190
0!
0-
0$
#195
1!
1-
1$
b11110110110010110100111011111001 w
b00001001001101001011000100000110 7
b10100011 y
b010100111 &
b010100111 0
b101 S
b00111 O
b10100111 o
b01011110 y
b10001100110100110111110011110011 x
b1010 V
b1010 U
b000111 R
b000111 Q
b0001111010 9
b0101111000 A
b0101111000 3
b0101111000 )
b0101111000 F
b0001111010 G
b0101111000 M
#200
0!
0-
0$
#205
1!
1-
1$
b10001100001001011011011110111101 w
b01110011110110100100100001000010 7
b00011010 y
b010001001 &
b010001001 0
b100 S
b01001 O
b10001001 o
b00110100 y
b00100001101101001111010010110101 x
b1101 V
b1101 U
b100101 R
b100101 Q
b1001011101 9
b1011101001 A
b1011101001 3
b1011101001 )
b1011101001 F
b1001011101 G
b110 L
b1011101001 M
#210
0!
0-
0$
#215
1!
1-
1$
b00100001001110001101000100000010 w
b11011110110001110010111011111101 7
b10001011 y
b010010001 &
b010010001 0
b10001 O
b10010001 o
b10010011 y
b01101001000001101100001011111110 x
b100011 R
b100011 Q
b1000111101 9
b1011110001 A
b1011110001 3
b1011110001 )
b1011110001 F
b1000111101 G
b1011110001 M
#220
0!
0-
0$
#225
1!
1-
1$
b01101001001001111111101000101111 w
b10010110110110000000010111010000 7
b10111110 y
b010000111 &
b010000111 0
b00111 O
b10000111 o
b10101000 y
b11011000000011010010101111011010 x
b000111 R
b000111 Q
b0001111101 9
b1011111000 A
b1011111000 3
b1011111000 )
b1011111000 F
b0001111101 G
b1011111000 M
#230
0!
0-
0$
#235
1!
1-
1$
b11011000011001000000110000100000 w
b00100111100110111111001111011111 7
b10100111 y
b010000101 &
b010000101 0
b00101 O
b10000101 o
b10100101 y
b10100110101111000101011101100111 x
b101001 R
b101001 Q
b1010011101 9
b1011100101 A
b1011100101 3
b1011100101 )
b1011100101 F
b1010011101 G
b1011100101 M
#240
0!
0-
0$
#245
1!
1-
1$
b10100110011001000011001101101011 w
b01011001100110111100110010010100 7
b11101110 y
b110111100 &
b110111100 0
15
b101 S
b11100 O
b10111100 o
b11010111 y
b10 E
b1110101000 A
b1110101000 3
b1110101000 )
b01011001100110111100110010010100 8
b10100 W
b100 Z
b01100 ]
b110 `
b11011 c
b100 f
b11001 i
b010 l
b1110101000 F
b0001010111 G
b00011000101101110100011101110111 x
b1010 V
b1010 U
b110000 R
b110000 Q
0u
b1100000101 p
b1100000101 :
b1100001010 9
b101 L
b1110101000 M
b001011 Y
b001011 X
b1101 \
b1101 [
b001101 _
b001101 ^
b0110 b
b0110 a
b001001 e
b001001 d
b1101 h
b1101 g
b100110 k
b100110 j
b0101 n
b0101 m
b0010111101 =
b0011010110 >
b0010011101 ?
b1001100101 @
#250
0!
0-
0$
#255
1!
1-
1$
b10 D
0v
0%
0/
b1011110100 A
b1011110100 3
b1011110100 )
b1011110100 F
b0010111101 G
b110 L
b1011110100 M
#260
0!
0-
0$
#265
1!
1-
1$
b0001 C
b11111111111111111111111111111111 w
b00000000000000000000000000000000 7
b01000011 y
b0110101100 A
b0110101100 3
b0110101100 )
b0110101100 F
b0011010110 G
b11101111110101010001000000101010 x
b101 L
b0110101100 M
#270
0!
0-
0$
#275
1!
1-
1$
b0010 C
b1011100100 A
b1011100100 3
b1011100100 )
b1011100100 F
b0010011101 G
b1011100100 M
#280
0!
0-
0$
#285
1!
1-
1$
b0011 C
b1010011001 A
b1010011001 3
b1010011001 )
b1010011001 F
b1001100101 G
b1010011001 M
#290
0!
0-
0$
#295
1!
1-
1$
b0100 C
b00 E
b1010000011 A
b1010000011 3
b1010000011 )
b00000000000000000000000000000000 8
b00000 W
b000 Z
b00000 ]
b000 `
b00000 c
b000 f
b00000 i
b000 l
b1010000011 F
b1100000101 G
0J
b100 L
b1010000011 M
b011000 Y
b011000 X
b1011 \
b1011 [
b011000 _
b011000 ^
b1011 b
b1011 a
b011000 e
b011000 d
b1011 h
b1011 g
b011000 k
b011000 j
b1011 n
b1011 m
b0110001011 =
b0110001011 >
b0110001011 ?
b0110001011 @
#300
0!
0-
0$
#305
1!
1-
1$
b0101 C
0I
b00 D
b0000000000 A
b0000000000 3
b0000000000 )
02
0(
06
1T
0P
b000 L
b0000000000 M
b0100 \
b0100 [
b0100 b
b0100 a
b0100 h
b0100 g
b0100 n
b0100 m
b001111 R
b001111 Q
b100111 Y
b100111 X
b100111 _
b100111 ^
b100111 e
b100111 d
b100111 k
b100111 j
b0011111010 p
b0011111010 :
b0011111010 r
b0011111010 ;
b1110101000 t
b1110101000 <
b1001110100 =
b1001110100 >
b1001110100 ?
b1001110100 @
b0011111010 9
#310
0!
0-
0$
#315
1!
1-
1$
b0000 C
