dump.vcd
$date
	Sat May 15 22:00:09 2021
$end

$version
	Synopsys VCS version R-2020.12
$end

$timescale
	1ns
$end

$comment Csum: 1 9a0d6264bbd70687 $end


$scope module rushi $end
$upscope $end


$scope module top $end
$var reg 1 ! clk $end
$var reg 1 " reset $end

$scope begin unnamed$$_vcs_4 $end
$upscope $end


$scope begin unnamed$$_vcs_0 $end
$upscope $end


$scope begin unnamed$$_vcs_1 $end
$upscope $end


$scope begin unnamed$$_vcs_2 $end
$upscope $end


$scope begin unnamed$$_vcs_3 $end
$upscope $end


$scope module int_f $end
$var reg 1 # clk $end
$var reg 1 $ pushin $end
$var reg 9 % datain [8:0] $end
$var reg 1 & startin $end
$var reg 1 ' pushout $end
$var reg 10 ( dataout [9:0] $end
$var reg 1 ) startout $end
$var reg 1 * reset $end
$var reg 5 + datain_size [4:0] $end
$upscope $end


$scope module enc $end
$var wire 1 , clk $end
$var wire 1 - reset $end
$var wire 1 . pushin $end
$var wire 9 / datain [8:0] $end
$var wire 1 0 startin $end
$var reg 1 1 pushout $end
$var wire 10 2 dataout [9:0] $end
$var reg 1 3 startout $end
$var wire 1 4 Kbit $end
$var wire 1 5 RD6B $end
$var wire 1 6 RD4B $end
$var wire 1 7 RD $end
$var wire 1 8 curRD $end
$var wire 32 9 crcResult [31:0] $end
$var reg 32 : crcData [31:0] $end
$var reg 1 ; curRD6B $end
$var reg 1 < curRD4B $end
$var reg 1 = curRD0 $end
$var wire 10 > outTemp [9:0] $end
$var wire 10 ? kcode [9:0] $end
$var wire 10 @ kcodeCRC0 [9:0] $end
$var wire 10 A kcodeCRC1 [9:0] $end
$var wire 10 B firstCRC [9:0] $end
$var wire 10 C secondCRC [9:0] $end
$var wire 10 D thirdCRC [9:0] $end
$var wire 10 E fourthCRC [9:0] $end
$var reg 10 F trueOutput [9:0] $end
$var reg 4 G counterK281 [3:0] $end
$var reg 4 H counterK285 [3:0] $end
$var reg 2 I currentState [1:0] $end
$var reg 2 J nextState [1:0] $end

$scope function rearrange $end
$var reg 10 K rearrange [9:0] $end
$var reg 10 L data [9:0] $end
$var integer 32 M i $end
$upscope $end


$scope module rd6b $end
$var wire 1 , clk $end
$var wire 1 - reset $end
$var wire 1 0 startin $end
$var wire 6 N dataout [5:0] $end
$var wire 1 1 pushout $end
$var reg 1 5 RDout $end
$var reg 1 O currentState $end
$var reg 1 P nextState $end

$scope function countOnes $end
$var reg 3 Q countOnes [2:0] $end
$var reg 6 R data [5:0] $end
$var integer 32 S i $end
$upscope $end

$upscope $end


$scope module rd4b $end
$var wire 1 , clk $end
$var wire 1 - reset $end
$var wire 1 0 startin $end
$var wire 4 T dataout [3:0] $end
$var wire 1 1 pushout $end
$var reg 1 6 RDout $end
$var reg 1 U currentState $end
$var reg 1 V nextState $end

$scope function countOnes $end
$var reg 3 W countOnes [2:0] $end
$var reg 4 X data [3:0] $end
$var integer 32 Y i $end
$upscope $end

$upscope $end


$scope module rd10b $end
$var wire 1 , clk $end
$var wire 1 - reset $end
$var wire 1 0 startin $end
$var wire 10 F dataout [9:0] $end
$var wire 1 1 pushout $end
$var reg 1 7 RDout $end
$var reg 1 Z currentState $end
$var reg 1 [ nextState $end

$scope function countOnes $end
$var reg 3 \ countOnes [2:0] $end
$var reg 10 ] data [9:0] $end
$var integer 32 ^ i $end
$upscope $end

$upscope $end


$scope module ec0 $end
$var wire 5 _ datain [4:0] $end
$var wire 1 8 RD $end
$var wire 6 ` dataout [5:0] $end
$var reg 6 a abcdei_d [5:0] $end
$upscope $end


$scope module ec1 $end
$var wire 3 b datain [2:0] $end
$var wire 1 c RD $end
$var wire 5 _ lower [4:0] $end
$var wire 4 d dataout [3:0] $end
$var reg 4 e fghj_d [3:0] $end
$var wire 1 f RD0 $end
$upscope $end


$scope module ec2 $end
$var wire 5 g datain [4:0] $end
$var wire 1 8 RD $end
$var wire 6 h dataout [5:0] $end
$var reg 6 i abcdei_d [5:0] $end
$upscope $end


$scope module ec3 $end
$var wire 3 j datain [2:0] $end
$var wire 1 c RD $end
$var wire 5 g lower [4:0] $end
$var wire 4 k dataout [3:0] $end
$var reg 4 l fghj_d [3:0] $end
$var wire 1 m RD0 $end
$upscope $end


$scope module ec4 $end
$var wire 5 n datain [4:0] $end
$var wire 1 8 RD $end
$var wire 6 o dataout [5:0] $end
$var reg 6 p abcdei_d [5:0] $end
$upscope $end


$scope module ec5 $end
$var wire 3 q datain [2:0] $end
$var wire 1 c RD $end
$var wire 5 n lower [4:0] $end
$var wire 4 r dataout [3:0] $end
$var reg 4 s fghj_d [3:0] $end
$var wire 1 t RD0 $end
$upscope $end


$scope module ec6 $end
$var wire 5 u datain [4:0] $end
$var wire 1 8 RD $end
$var wire 6 v dataout [5:0] $end
$var reg 6 w abcdei_d [5:0] $end
$upscope $end


$scope module ec7 $end
$var wire 3 x datain [2:0] $end
$var wire 1 c RD $end
$var wire 5 u lower [4:0] $end
$var wire 4 y dataout [3:0] $end
$var reg 4 z fghj_d [3:0] $end
$var wire 1 { RD0 $end
$upscope $end


$scope module ec8 $end
$var wire 5 | datain [4:0] $end
$var wire 1 8 RD $end
$var wire 6 } dataout [5:0] $end
$var reg 6 ~ abcdei_d [5:0] $end
$upscope $end


$scope module ec9 $end
$var wire 3 "! datain [2:0] $end
$var wire 1 c RD $end
$var wire 5 | lower [4:0] $end
$var wire 4 "" dataout [3:0] $end
$var reg 4 "# fghj_d [3:0] $end
$var wire 1 "$ RD0 $end
$upscope $end


$scope module kc0 $end
$var wire 8 "% datain [7:0] $end
$var wire 1 8 RD $end
$var wire 10 ? dataout [9:0] $end
$var reg 10 "& outTemp [9:0] $end
$upscope $end


$scope module kc1 $end
$var wire 8 "' datain [7:0] $end
$var wire 1 8 RD $end
$var wire 10 @ dataout [9:0] $end
$var reg 10 "( outTemp [9:0] $end
$upscope $end


$scope module kc2 $end
$var wire 8 ") datain [7:0] $end
$var wire 1 8 RD $end
$var wire 10 A dataout [9:0] $end
$var reg 10 "* outTemp [9:0] $end
$upscope $end


$scope module crc0 $end
$var wire 1 , clk $end
$var wire 1 - rst $end
$var wire 8 "% crc32_in [7:0] $end
$var wire 1 "+ valid $end
$var wire 1 ", is_S1DATA $end
$var wire 32 9 crc32_out [31:0] $end
$var reg 32 "- crc32_out_buff [31:0] $end
$var reg 32 ". crc32_table [31:0] $end
$var wire 8 "/ crc32_lut_in [7:0] $end
$upscope $end

$upscope $end

$upscope $end


$scope module uvm_pkg $end
$var reg 32 "0 UVM_UNBOUNDED_CONNECTIONS [31:0] $end
$var reg 1 "1 uvm_start_uvm_declarations $end
$var reg 32 "2 uvm_global_random_seed [31:0] $end
$upscope $end

$enddefinitions $end

#0
$dumpvars
1"1
b11111111111111111111111111111111 "0
b01000010000001111100110001000111 "2
0!
1"
bxxxxx +
b0000000000 (
b000000000 %
04
05
0=
0<
0;
01
07
0Z
0[
06
0U
0V
0O
0P
03
x",
0"+
b000 Q
b000000 R
b00000000000000000000000000000110 S
b0000 G
b0000 H
b11111111 "/
b11111111111111111111111111111111 "-
b00101101000000101110111110001101 ".
b00000000000000000000000000000000 :
b00000000000000000000000000000000 9
b00 I
b00 J
b0000000000 ]
b00000000000000000000000000001010 ^
b000 \
b0000 X
b00000000000000000000000000000100 Y
b000 W
bxxxxxxxxxx L
bxxxxxxxxxxxxxxxxxxxxxxxxxxxxxxxx M
bxxxxxxxxxx K
bxxxx T
bxxxxxx N
b0000000000 F
b100111 a
1f
b0100 e
b100111 i
1m
b0100 l
b100111 p
1t
b0100 s
b100111 w
1{
b0100 z
b100111 ~
1"$
b0100 "#
b0000000000 "&
b0011111010 "(
b1110101000 "*
1-
b000000000 /
b0000000000 2
b1001110100 >
b100111 `
b0100 d
b1001110100 B
b100111 h
b0100 k
b1001110100 C
b100111 o
b0100 r
b1001110100 D
b100111 v
b0100 y
b1001110100 E
b100111 }
b0100 ""
08
1c
b00000 g
b000 j
b00000 n
b000 q
b00000 u
b000 x
b00000 |
b000 "!
b0000000000 ?
b10111100 "'
b0011111010 @
b11110111 ")
b1110101000 A
0$
0'
0&
0)
0.
00
0#
0,
1*
b00000000 "%
b00000 _
b000 b
$end
b0000 T
b000000 N
0",
#4
0"
0*
0-
#5
1!
1,
1#
1&
10
1$
1.
b100111100 %
b100111100 /
14
b001 b
b11100 _
b00111100 "%
b11000011 "/
11
1'
13
1)
b0000000000 K
b00000000000000000000000000001010 M
b0000000000 L
b1001 e
b1001 d
b001110 a
b001110 `
0f
b00000010011011011001001100001010 ".
b0011111001 "&
b0011111001 ?
b0011101001 >
1P
15
1V
16
1[
17
b1001111100 F
b1001 T
b111100 N
b1001111100 2
b1001111100 (
b1001111100 K
b0011111001 L
b110 \
b1001111100 ]
0V
06
b010 W
b1001 X
b100 Q
b111100 R
#10
0!
0,
0#
#15
1!
1,
1#
b0001 G
1=
1;
1O
1Z
0&
00
18
0c
03
0)
0P
05
0[
07
1f
0m
0t
0{
0"$
b011000 i
b011000 h
b011000 p
b011000 o
b011000 w
b011000 v
b011000 ~
b011000 }
b1100000110 "&
b1100000110 ?
b1100000101 "(
b1100000101 @
b0001010111 "*
b0001010111 A
b0110000100 B
b0110000100 C
b0110000100 D
b0110000100 E
b1011 l
b1011 k
b1011 s
b1011 r
b1011 z
b1011 y
b1011 "#
b1011 ""
b0110000011 F
b0110 T
b000011 N
b0110000011 2
b0110000011 (
b0110000011 K
b1100000110 L
b0110001011 B
b0110001011 C
b0110001011 D
b0110001011 E
b100 \
b0110000011 ]
b0110 X
b010 Q
b000011 R
#20
0!
0,
0#
#25
1!
1,
1#
b0010 G
0=
08
1c
0;
0O
0Z
0f
1m
1t
1{
1"$
b100111 i
b100111 h
b100111 p
b100111 o
b100111 w
b100111 v
b100111 ~
b100111 }
b0011111001 "&
b0011111001 ?
b0011111010 "(
b0011111010 @
b1110101000 "*
b1110101000 A
1P
15
1[
17
b1001111011 B
b1001111011 C
b1001111011 D
b1001111011 E
b0100 l
b0100 k
b0100 s
b0100 r
b0100 z
b0100 y
b0100 "#
b0100 ""
b1001111100 F
b1001 T
b111100 N
b1001111100 2
b1001111100 (
b1001111100 K
b0011111001 L
b1001110100 B
b1001110100 C
b1001110100 D
b1001110100 E
b110 \
b1001111100 ]
b1001 X
b100 Q
b111100 R
#30
0!
0,
0#
#35
1!
1,
1#
b0011 G
1=
18
0c
1;
1O
1Z
b01 J
1f
0m
0t
0{
0"$
b011000 i
b011000 h
b011000 p
b011000 o
b011000 w
b011000 v
b011000 ~
b011000 }
b1100000110 "&
b1100000110 ?
b1100000101 "(
b1100000101 @
b0001010111 "*
b0001010111 A
0P
05
0[
07
b0110000100 B
b0110000100 C
b0110000100 D
b0110000100 E
b1011 l
b1011 k
b1011 s
b1011 r
b1011 z
b1011 y
b1011 "#
b1011 ""
b0110000011 F
b0110 T
b000011 N
b0110000011 2
b0110000011 (
b0110000011 K
b1100000110 L
b0110001011 B
b0110001011 C
b0110001011 D
b0110001011 E
b100 \
b0110000011 ]
b0110 X
b010 Q
b000011 R
#40
0!
0,
0#
#45
1!
1,
1#
b0100 G
0=
08
1c
0;
b01 I
1",
0O
0Z
b011100000 %
b011100000 /
04
b111 b
b00000 _
b11100000 "%
b00011111 "/
b1001011100 F
b1001 T
b011100 N
b1001011100 2
b1001011100 (
b1001011100 K
b0011101001 L
1f
1m
1t
1{
1"$
b100111 a
b100111 `
b100111 i
b100111 h
b100111 p
b100111 o
b100111 w
b100111 v
b100111 ~
b100111 }
b0000000000 "&
b0000000000 ?
b0011111010 "(
b0011111010 @
b1110101000 "*
b1110101000 A
1"+
b011 Q
b011100 R
b101 \
b1001011100 ]
b0001 e
b0001 d
b10001101000010000000110111110101 ".
b1001110001 >
b1001111011 B
b1001111011 C
b1001111011 D
b1001111011 E
b1001 X
b0100 l
b0100 k
b0100 s
b0100 r
b0100 z
b0100 y
b0100 "#
b0100 ""
b1000111001 F
b1000 T
b111001 N
b1000111001 2
b1000111001 (
b1000111001 K
b1001110001 L
b1001110100 B
b1001110100 C
b1001110100 D
b1001110100 E
b1000111001 ]
1V
16
b001 W
b1000 X
1P
15
b100 Q
b111001 R
#50
0!
0,
0#
#55
1!
1,
1#
b0000 G
b10001101111101111111001000001010 "-
b01110010000010000000110111110101 9
b11101010 "/
1<
1;
1O
1U
b010011001 %
b010011001 /
b100 b
b11001 _
b10011001 "%
b10010011 "/
b01101001000001101100001011111110 ".
0P
05
0V
06
b0010 e
b0010 d
b100110 a
b100110 `
0f
b1001100010 >
b1101 e
b1101 d
b1011011001 F
b1011 T
b011001 N
b1011011001 2
b1011011001 (
b1011011001 K
b1001101101 L
b1001101101 >
1[
17
b110 \
b1011011001 ]
b011 W
b1011 X
1P
15
b011 Q
b011001 R
#60
0!
0,
0#
#65
1!
1,
1#
b01101001100010110011010100001100 "-
b10010110011101001100101011110011 9
b10010101 "/
1=
18
0c
0<
0U
1Z
b111111110 %
b111111110 /
14
b111 b
b11110 _
b11111110 "%
b11110010 "/
b0000000000 F
b0000 T
b000000 N
b0000000000 2
b0000000000 (
b0000000000 K
b0000000000 L
b01010011101100111001001100110000 ".
0f
0m
0t
0{
0"$
b100001 a
b100001 `
b011000 i
b011000 h
b011000 p
b011000 o
b011000 w
b011000 v
b011000 ~
b011000 }
b1000010111 "&
b1000010111 ?
b1100000101 "(
b1100000101 @
b0001010111 "*
b0001010111 A
1V
16
b000 W
b0000 X
0[
07
b000 \
b0000000000 ]
b1110 e
b1110 d
b1000011110 >
b0110000100 B
b0110000100 C
b0110000100 D
b0110000100 E
0P
05
b000 Q
b000000 R
b1011 l
b1011 k
b1011 s
b1011 r
b1011 z
b1011 y
b1011 "#
b1011 ""
b1110100001 F
b1110 T
b100001 N
b1110100001 2
b1110100001 (
b1110100001 K
b1000010111 L
b0110001011 B
b0110001011 C
b0110001011 D
b0110001011 E
1[
17
b101 \
b1110100001 ]
b011 W
b1110 X
b010 Q
b100001 R
#70
0!
0,
0#
#75
1!
1,
1#
b01010011110110100001100000000101 "-
b10101100001001011110011111111010 9
b11111011 "/
1<
0;
0O
1U
b001111101 %
b001111101 /
04
b011 b
b11101 _
b01111101 "%
b01111000 "/
b0111100001 F
b0111 T
b0111100001 2
b0111100001 (
b0111100001 K
b1000011110 L
b01011110110111101111100100001110 ".
1P
15
0V
06
b0111 X
b1100 e
b1100 d
b010001 a
b010001 `
b0000000000 "&
b0000000000 ?
b0100011100 >
b0111100001 ]
b0011100010 F
b0011 T
b100010 N
b0011100010 2
b0011100010 (
b0011100010 K
b0100011100 L
0[
07
b100 \
b0011100010 ]
1V
16
b010 W
b0011 X
b100010 R
#80
0!
0,
0#
#85
1!
1,
1#
b01011110100011010010001100010110 "-
b10100001011100101101110011101001 9
b01101011 "/
0=
08
1c
1;
1O
0Z
b000110111 %
b000110111 /
b001 b
b10111 _
b00110111 "%
b00100001 "/
b01001100011010010001000001011110 ".
1f
1m
1t
1{
1"$
b111010 a
b111010 `
b100111 i
b100111 h
b100111 p
b100111 o
b100111 w
b100111 v
b100111 ~
b100111 }
b0011111010 "(
b0011111010 @
b1110101000 "*
b1110101000 A
0P
05
1[
17
b1001 e
b1001 d
b1110101001 >
b1001111011 B
b1001111011 C
b1001111011 D
b1001111011 E
b0100 l
b0100 k
b0100 s
b0100 r
b0100 z
b0100 y
b0100 "#
b0100 ""
b1001010111 F
b1001 T
b010111 N
b1001010111 2
b1001010111 (
b1001010111 K
b1110101001 L
b1001110100 B
b1001110100 C
b1001110100 D
b1001110100 E
b110 \
b1001010111 ]
b1001 X
b100 Q
b010111 R
#90
0!
0,
0#
#95
1!
1,
1#
b01001100001101111001110101111101 "-
b10110011110010000110001010000010 9
b01001010 "/
1=
18
0c
0;
0O
1Z
b110111100 %
b110111100 /
14
b101 b
b11100 _
b10111100 "%
b11000001 "/
b10 J
b0001010111 F
b0001 T
b0001010111 2
b0001010111 (
b10110011110010000110001010000010 :
b00010 g
b100 j
b00010 n
b011 q
b01000 u
b110 x
b10011 |
b101 "!
b0001010111 K
b1110101000 L
b11101100011000111111001000100110 ".
1f
0m
0t
0{
1"$
b001110 a
b001110 `
b010010 i
b010010 h
b010010 p
b010010 o
b000110 w
b000110 v
b110010 ~
b110010 }
b1100000101 "&
b1100000101 ?
b1100000101 "(
b1100000101 @
b0001010111 "*
b0001010111 A
1P
15
b101 \
b0001010111 ]
b1010 e
b1010 d
0"+
b0011101010 >
b0100100100 B
b0100100100 C
b0001100100 D
b1100100100 E
0V
06
b001 W
b0001 X
b1101 l
b1101 k
b1100 s
b1100 r
b0110 z
b0110 y
b1010 "#
b1010 ""
b1110101000 F
b1110 T
b101000 N
b1110101000 2
b1110101000 (
b1110101000 K
b0001010111 L
b0100101101 B
b0100101100 C
b0001100110 D
b1100101010 E
b1110101000 ]
b011 W
b1110 X
b010 Q
b101000 R
#100
0!
0,
0#
#105
1!
1,
1#
0<
1;
b10 I
0",
1O
0U
0$
0.
b1011010010 F
b1011 T
b010010 N
b1011010010 2
b1011010010 (
b1011010010 K
b0100101101 L
0P
05
b010010 R
1V
16
b1011 X
b1011010010 ]
#110
0!
0,
0#
#115
1!
1,
1#
b0001 H
b11111111111111111111111111111111 "-
b00000000000000000000000000000000 9
b01000011 "/
1<
0;
0O
1U
b0011010010 F
b0011 T
b0011010010 2
b0011010010 (
b0011010010 K
b0100101100 L
b11101111110101010001000000101010 ".
1P
15
b010 W
b0011 X
0[
07
b100 \
b0011010010 ]
#120
0!
0,
0#
#125
1!
1,
1#
b0010 H
0=
08
1c
1;
1O
0Z
b0110011000 F
b0110 T
b011000 N
b0110011000 2
b0110011000 (
b0110011000 K
b0001100110 L
0f
1m
1t
1{
0"$
b101101 i
b101101 h
b101101 p
b101101 o
b111001 w
b111001 v
b0011111010 "&
b0011111010 ?
b0011111010 "(
b0011111010 @
b1110101000 "*
b1110101000 A
0P
05
b011000 R
1[
17
b0110011000 ]
b1011011101 B
b1011011100 C
b1110010110 D
b0110 X
b0010 l
b0010 k
b0011 s
b0011 r
b0110100111 F
b100111 N
b0110100111 2
b0110100111 (
b0110100111 K
b1110010110 L
b1011010010 B
b1011010011 C
b110 \
b0110100111 ]
b100 Q
b100111 R
#130
0!
0,
0#
#135
1!
1,
1#
b0011 H
1=
18
0c
0;
0O
1Z
b0101010011 F
b0101 T
b010011 N
b0101010011 2
b0101010011 (
b0101010011 K
b1100101010 L
1f
0m
0t
0{
1"$
b010010 i
b010010 h
b010010 p
b010010 o
b000110 w
b000110 v
b1100000101 "&
b1100000101 ?
b1100000101 "(
b1100000101 @
b0001010111 "*
b0001010111 A
b011 Q
b010011 R
b101 \
b0101010011 ]
b0100100010 B
b0100100011 C
b0001100110 D
b0101 X
b1101 l
b1101 k
b1100 s
b1100 r
b0100101101 B
b0100101100 C
#140
0!
0,
0#
#145
1!
1,
1#
b0100 H
b00 J
b1010000011 F
b1010 T
b000011 N
b1010000011 2
b1010000011 (
b00000000000000000000000000000000 :
b00000 g
b000 j
b00000 n
b000 q
b00000 u
b000 x
b00000 |
b000 "!
b1010000011 K
b1100000101 L
0[
07
b100 \
b1010000011 ]
b1010 X
1P
15
b010 Q
b000011 R
b011000 i
b011000 h
b1011 l
b1011 k
b011000 p
b011000 o
b1011 s
b1011 r
b011000 w
b011000 v
b1011 z
b1011 y
b011000 ~
b011000 }
b0100 "#
b0100 ""
0"$
b0110001011 B
b0110001011 C
b0110001011 D
b0110000100 E
b1011 "#
b1011 ""
b0110001011 E
#150
0!
0,
0#
#155
1!
1,
1#
b0101 H
0=
08
1c
1;
b00 I
1O
0Z
b0000000000 F
b0000 T
b000000 N
b0000000000 2
b0000000000 (
01
0'
0f
1m
1t
1{
1"$
b100111 i
b100111 h
b100111 p
b100111 o
b100111 w
b100111 v
b100111 ~
b100111 }
b0011111010 "&
b0011111010 ?
b0011111010 "(
b0011111010 @
b1110101000 "*
b1110101000 A
05
b000 Q
b000000 R
b000 \
b0000000000 ]
b1001111011 B
b1001111011 C
b1001111011 D
b1001111011 E
06
b000 W
b0000 X
b0100 l
b0100 k
b0100 s
b0100 r
b0100 z
b0100 y
b0100 "#
b0100 ""
b1001110100 B
b1001110100 C
b1001110100 D
b1001110100 E
#160
0!
0,
0#
#165
1!
1,
1#
b0000 H
0<
0;
