dump.vcd
$date
	Thu May 13 16:27:16 2021
$end

$version
	Synopsys VCS version R-2020.12
$end

$timescale
	1ns
$end

$comment Csum: 1 402ff56fd3bb274a $end


$scope module rushi $end
$upscope $end


$scope module top $end
$var reg 1 ! clk $end
$var reg 1 " reset $end

$scope begin unnamed$$_vcs_4 $end
$upscope $end


$scope begin unnamed$$_vcs_0 $end
$upscope $end


$scope begin unnamed$$_vcs_1 $end
$upscope $end


$scope begin unnamed$$_vcs_2 $end
$upscope $end


$scope begin unnamed$$_vcs_3 $end
$upscope $end


$scope module int_f $end
$var reg 1 # clk $end
$var reg 1 $ pushin $end
$var reg 9 % datain [8:0] $end
$var reg 1 & startin $end
$var reg 1 ' pushout $end
$var reg 10 ( dataout [9:0] $end
$var reg 1 ) startout $end
$var reg 1 * reset $end
$var reg 5 + datain_size [4:0] $end
$upscope $end


$scope module enc $end
$var wire 1 , clk $end
$var wire 1 - reset $end
$var wire 1 . pushin $end
$var wire 9 / datain [8:0] $end
$var wire 1 0 startin $end
$var reg 1 1 pushout $end
$var wire 10 2 dataout [9:0] $end
$var reg 1 3 startout $end
$var wire 1 4 Kbit $end
$var wire 1 5 RD $end
$var wire 32 6 crcResult [31:0] $end
$var reg 32 7 crcData [31:0] $end
$var wire 10 8 outTemp [9:0] $end
$var wire 10 9 kcode [9:0] $end
$var wire 10 : kcodeCRC0 [9:0] $end
$var wire 10 ; kcodeCRC1 [9:0] $end
$var wire 10 < firstCRC [9:0] $end
$var wire 10 = secondCRC [9:0] $end
$var wire 10 > thirdCRC [9:0] $end
$var wire 10 ? fourthCRC [9:0] $end
$var reg 10 @ trueOutput [9:0] $end
$var reg 4 A counterK281 [3:0] $end
$var reg 4 B counterK285 [3:0] $end
$var reg 2 C currentState [1:0] $end
$var reg 2 D nextState [1:0] $end

$scope function rearrange $end
$var reg 10 E rearrange [9:0] $end
$var reg 10 F data [9:0] $end
$var integer 32 G i $end
$upscope $end


$scope module rd $end
$var wire 1 , clk $end
$var wire 1 - reset $end
$var wire 1 0 startin $end
$var wire 10 @ dataout [9:0] $end
$var wire 1 1 pushout $end
$var reg 1 5 RDout $end
$var reg 1 H currentState $end
$var reg 1 I nextState $end

$scope function countOnes $end
$var reg 3 J countOnes [2:0] $end
$var reg 10 K data [9:0] $end
$var integer 32 L i $end
$upscope $end

$upscope $end


$scope module ec0 $end
$var wire 5 M datain [4:0] $end
$var wire 1 N RD $end
$var wire 6 O dataout [5:0] $end
$var reg 6 P abcdei_d [5:0] $end
$upscope $end


$scope module ec1 $end
$var wire 3 Q datain [2:0] $end
$var wire 1 R RD $end
$var wire 4 S dataout [3:0] $end
$var reg 4 T fghj_d [3:0] $end
$upscope $end


$scope module ec2 $end
$var wire 5 U datain [4:0] $end
$var wire 1 N RD $end
$var wire 6 V dataout [5:0] $end
$var reg 6 W abcdei_d [5:0] $end
$upscope $end


$scope module ec3 $end
$var wire 3 X datain [2:0] $end
$var wire 1 R RD $end
$var wire 4 Y dataout [3:0] $end
$var reg 4 Z fghj_d [3:0] $end
$upscope $end


$scope module ec4 $end
$var wire 5 [ datain [4:0] $end
$var wire 1 N RD $end
$var wire 6 \ dataout [5:0] $end
$var reg 6 ] abcdei_d [5:0] $end
$upscope $end


$scope module ec5 $end
$var wire 3 ^ datain [2:0] $end
$var wire 1 R RD $end
$var wire 4 _ dataout [3:0] $end
$var reg 4 ` fghj_d [3:0] $end
$upscope $end


$scope module ec6 $end
$var wire 5 a datain [4:0] $end
$var wire 1 N RD $end
$var wire 6 b dataout [5:0] $end
$var reg 6 c abcdei_d [5:0] $end
$upscope $end


$scope module ec7 $end
$var wire 3 d datain [2:0] $end
$var wire 1 R RD $end
$var wire 4 e dataout [3:0] $end
$var reg 4 f fghj_d [3:0] $end
$upscope $end


$scope module ec8 $end
$var wire 5 g datain [4:0] $end
$var wire 1 N RD $end
$var wire 6 h dataout [5:0] $end
$var reg 6 i abcdei_d [5:0] $end
$upscope $end


$scope module ec9 $end
$var wire 3 j datain [2:0] $end
$var wire 1 R RD $end
$var wire 4 k dataout [3:0] $end
$var reg 4 l fghj_d [3:0] $end
$upscope $end


$scope module kc0 $end
$var wire 8 m datain [7:0] $end
$var wire 1 N RD $end
$var wire 10 9 dataout [9:0] $end
$var reg 10 n outTemp [9:0] $end
$upscope $end


$scope module kc1 $end
$var wire 8 o datain [7:0] $end
$var wire 1 N RD $end
$var wire 10 : dataout [9:0] $end
$var reg 10 p outTemp [9:0] $end
$upscope $end


$scope module kc2 $end
$var wire 8 q datain [7:0] $end
$var wire 1 N RD $end
$var wire 10 ; dataout [9:0] $end
$var reg 10 r outTemp [9:0] $end
$upscope $end


$scope module crc0 $end
$var wire 1 , clk $end
$var wire 1 - rst $end
$var wire 8 m crc32_in [7:0] $end
$var wire 1 s valid $end
$var wire 1 t is_S1DATA $end
$var wire 32 6 crc32_out [31:0] $end
$var reg 32 u crc32_out_buff [31:0] $end
$var reg 32 v crc32_table [31:0] $end
$var wire 8 w crc32_lut_in [7:0] $end
$upscope $end

$upscope $end

$upscope $end


$scope module uvm_pkg $end
$var reg 32 x UVM_UNBOUNDED_CONNECTIONS [31:0] $end
$var reg 1 y uvm_start_uvm_declarations $end
$var reg 32 z uvm_global_random_seed [31:0] $end
$upscope $end

$enddefinitions $end

#0
$dumpvars
1y
b11111111111111111111111111111111 x
b01000010000001111100110001000111 z
0!
1"
bxxxxx +
b0000000000 (
b000000000 %
04
05
01
0H
0I
03
xt
0s
b000 J
b0000000000 K
b00000000000000000000000000001010 L
b0000 A
b0000 B
b11111111 w
b11111111111111111111111111111111 u
b00101101000000101110111110001101 v
b00000000000000000000000000000000 7
b00000000000000000000000000000000 6
b00 C
b00 D
bxxxxxxxxxx F
bxxxxxxxxxxxxxxxxxxxxxxxxxxxxxxxx G
bxxxxxxxxxx E
b0000000000 @
b100111 P
b0100 T
b100111 W
b0100 Z
b100111 ]
b0100 `
b100111 c
b0100 f
b100111 i
b0100 l
b0000000000 n
b0011111010 p
b1110101000 r
1-
b000000000 /
b0000000000 2
b1001110100 8
b100111 O
b0100 S
b1001110100 <
b100111 V
b0100 Y
b1001110100 =
b100111 \
b0100 _
b1001110100 >
b100111 b
b0100 e
b1001110100 ?
b100111 h
b0100 k
0N
1R
b00000 U
b000 X
b00000 [
b000 ^
b00000 a
b000 d
b00000 g
b000 j
b0000000000 9
b10111100 o
b0011111010 :
b11110111 q
b1110101000 ;
0$
0'
0&
0)
0.
00
0#
0,
1*
b00000000 m
b00000 M
b000 Q
$end
0t
#4
0"
0*
0-
#5
1!
1,
1#
1&
10
1$
1.
b100111100 %
b100111100 /
14
b001 Q
b11100 M
b00111100 m
b11000011 w
11
1'
13
1)
b0000000000 E
b00000000000000000000000000001010 G
b0000000000 F
b1001 T
b1001 S
b001111 P
b001111 O
b00000010011011011001001100001010 v
b0011111001 n
b0011111001 9
b0011111001 8
b1001111100 @
b1001111100 2
b1001111100 (
b1001111100 E
b0011111001 F
1I
b110 J
b1001111100 K
#10
0!
0,
0#
#15
1!
1,
1#
b0001 A
0&
00
03
0)
#20
0!
0,
0#
#25
1!
1,
1#
b0010 A
1H
15
0R
1N
b1011 Z
b1011 Y
b1011 `
b1011 _
b1011 f
b1011 e
b1011 l
b1011 k
b110000 P
b110000 O
b011000 W
b011000 V
b011000 ]
b011000 \
b011000 c
b011000 b
b011000 i
b011000 h
b1100000110 n
b1100000110 9
b1100000101 p
b1100000101 :
b0001010111 r
b0001010111 ;
b0110001011 <
b0110001011 =
b0110001011 >
b0110001011 ?
b1100001001 8
b0110000011 @
b0110000011 2
b0110000011 (
b0110000011 E
b1100000110 F
0I
b100 J
b0110000011 K
#30
0!
0,
0#
#35
1!
1,
1#
b0011 A
0H
b01 D
05
1R
0N
b0100 Z
b0100 Y
b0100 `
b0100 _
b0100 f
b0100 e
b0100 l
b0100 k
b001111 P
b001111 O
b100111 W
b100111 V
b100111 ]
b100111 \
b100111 c
b100111 b
b100111 i
b100111 h
b0011111001 n
b0011111001 9
b0011111010 p
b0011111010 :
b1110101000 r
b1110101000 ;
b1001110100 <
b1001110100 =
b1001110100 >
b1001110100 ?
b0011111001 8
b1001111100 @
b1001111100 2
b1001111100 (
b1001111100 E
b0011111001 F
1I
b110 J
b1001111100 K
#40
0!
0,
0#
#45
1!
1,
1#
b0100 A
1H
b01 C
1t
b011100000 %
b011100000 /
04
b111 Q
b00000 M
b11100000 m
b00011111 w
15
0R
1N
1s
b1110 T
b1110 S
b011000 P
b011000 O
b10001101000010000000110111110101 v
b0000000000 n
b0000000000 9
b0110001110 8
b1011 Z
b1011 Y
b1011 `
b1011 _
b1011 f
b1011 e
b1011 l
b1011 k
b011000 W
b011000 V
b011000 ]
b011000 \
b011000 c
b011000 b
b011000 i
b011000 h
b1100000101 p
b1100000101 :
b0001010111 r
b0001010111 ;
b0111000110 @
b0111000110 2
b0111000110 (
b0111000110 E
b0110001110 F
b0110001011 <
b0110001011 =
b0110001011 >
b0110001011 ?
b101 J
b0111000110 K
#50
0!
0,
0#
#55
1!
1,
1#
b0000 A
b10001101111101111111001000001010 u
b01110010000010000000110111110101 6
b11101010 w
b010011001 %
b010011001 /
b100 Q
b11001 M
b10011001 m
b10010011 w
b01101001000001101100001011111110 v
b1101 T
b1101 S
b100110 P
b100110 O
b1001101101 8
b1011011001 @
b1011011001 2
b1011011001 (
b1011011001 E
b1001101101 F
b110 J
b1011011001 K
#60
0!
0,
0#
#65
1!
1,
1#
b01101001100010110011010100001100 u
b10010110011101001100101011110011 6
b10010101 w
b111111110 %
b111111110 /
14
b111 Q
b11110 M
b11111110 m
b11110010 w
b0000000000 @
b0000000000 2
b0000000000 (
b0000000000 E
b0000000000 F
b01010011101100111001001100110000 v
b1110 T
b1110 S
b100001 P
b100001 O
b1000011110 8
0I
b000 J
b0000000000 K
#70
0!
0,
0#
#75
1!
1,
1#
b01010011110110100001100000000101 u
b10101100001001011110011111111010 6
b11111011 w
0H
b001111101 %
b001111101 /
04
b011 Q
b11101 M
b01111101 m
b01111000 w
b0111100001 @
b0111100001 2
b0111100001 (
b0111100001 E
b1000011110 F
b01011110110111101111100100001110 v
05
1R
0N
b101 J
b0111100001 K
b0011 T
b0011 S
b101110 P
b101110 O
b1011100011 8
b0100 Z
b0100 Y
b0100 `
b0100 _
b0100 f
b0100 e
b0100 l
b0100 k
b100111 W
b100111 V
b100111 ]
b100111 \
b100111 c
b100111 b
b100111 i
b100111 h
b0011111010 p
b0011111010 :
b1110101000 r
b1110101000 ;
b1100011101 @
b1100011101 2
b1100011101 (
b1100011101 E
b1011100011 F
b1001110100 <
b1001110100 =
b1001110100 >
b1001110100 ?
1I
b110 J
b1100011101 K
#80
0!
0,
0#
#85
1!
1,
1#
b01011110100011010010001100010110 u
b10100001011100101101110011101001 6
b01101011 w
1H
b000110111 %
b000110111 /
b001 Q
b10111 M
b00110111 m
b00100001 w
b01001100011010010001000001011110 v
15
0R
1N
b1001 T
b1001 S
b000101 P
b000101 O
b0001011001 8
b1011 Z
b1011 Y
b1011 `
b1011 _
b1011 f
b1011 e
b1011 l
b1011 k
b011000 W
b011000 V
b011000 ]
b011000 \
b011000 c
b011000 b
b011000 i
b011000 h
b1100000101 p
b1100000101 :
b0001010111 r
b0001010111 ;
b1001101000 @
b1001101000 2
b1001101000 (
b1001101000 E
b0001011001 F
b0110001011 <
b0110001011 =
b0110001011 >
b0110001011 ?
0I
b100 J
b1001101000 K
#90
0!
0,
0#
#95
1!
1,
1#
b01001100001101111001110101111101 u
b10110011110010000110001010000010 6
b01001010 w
0H
b110111100 %
b110111100 /
14
b101 Q
b11100 M
b10111100 m
b11000001 w
b10 D
b1110101000 @
b1110101000 2
b1110101000 (
b10110011110010000110001010000010 7
b00010 U
b100 X
b00010 [
b011 ^
b01000 a
b110 d
b10011 g
b101 j
b1110101000 E
b0001010111 F
b11101100011000111111001000100110 v
05
1R
0N
b101 J
b1110101000 K
b1010 T
b1010 S
b001111 P
b001111 O
0s
b0011111010 n
b0011111010 9
b0011111010 8
b101101 W
b101101 V
b0010 Z
b0010 Y
b101101 ]
b101101 \
b0011 `
b0011 _
b111001 c
b111001 b
b0110 f
b0110 e
b110010 i
b110010 h
b1010 l
b1010 k
b0011111010 p
b0011111010 :
b1110101000 r
b1110101000 ;
b0001010111 @
b0001010111 2
b0001010111 (
b0001010111 E
b1110101000 F
b1011010010 <
b1011010011 =
b1110010110 >
b1100101010 ?
b0001010111 K
#100
0!
0,
0#
#105
1!
1,
1#
b10 C
0t
0$
0.
b0100101101 @
b0100101101 2
b0100101101 (
b0100101101 E
b1011010010 F
b0100101101 K
#110
0!
0,
0#
#115
1!
1,
1#
b0001 B
b11111111111111111111111111111111 u
b00000000000000000000000000000000 6
b01000011 w
b1100101101 @
b1100101101 2
b1100101101 (
b1100101101 E
b1011010011 F
b11101111110101010001000000101010 v
1I
b110 J
b1100101101 K
#120
0!
0,
0#
#125
1!
1,
1#
b0010 B
1H
b0110100111 @
b0110100111 2
b0110100111 (
b0110100111 E
b1110010110 F
15
0R
1N
b0110100111 K
b1101 Z
b1101 Y
b1100 `
b1100 _
b110000 P
b110000 O
b010010 W
b010010 V
b010010 ]
b010010 \
b000110 c
b000110 b
b1100000101 n
b1100000101 9
b1100000101 p
b1100000101 :
b0001010111 r
b0001010111 ;
b0100101101 <
b0100101100 =
b1100001010 8
b0001100110 >
b0110011000 @
b0110011000 2
b0110011000 (
b0110011000 E
b0001100110 F
0I
b100 J
b0110011000 K
#130
0!
0,
0#
#135
1!
1,
1#
b0011 B
0H
b0101010011 @
b0101010011 2
b0101010011 (
b0101010011 E
b1100101010 F
05
1R
0N
b101 J
b0101010011 K
b0010 Z
b0010 Y
b0011 `
b0011 _
b001111 P
b001111 O
b101101 W
b101101 V
b101101 ]
b101101 \
b111001 c
b111001 b
b0011111010 n
b0011111010 9
b0011111010 p
b0011111010 :
b1110101000 r
b1110101000 ;
b1011010010 <
b1011010011 =
b0011111010 8
b1110010110 >
#140
0!
0,
0#
#145
1!
1,
1#
b0100 B
b00 D
b0101111100 @
b0101111100 2
b0101111100 (
b00000000000000000000000000000000 7
b00000 U
b000 X
b00000 [
b000 ^
b00000 a
b000 d
b00000 g
b000 j
b0101111100 E
b0011111010 F
1I
b110 J
b0101111100 K
b100111 W
b100111 V
b0100 Z
b0100 Y
b100111 ]
b100111 \
b0100 `
b0100 _
b100111 c
b100111 b
b0100 f
b0100 e
b100111 i
b100111 h
b0100 l
b0100 k
b1001110100 <
b1001110100 =
b1001110100 >
b1001110100 ?
#150
0!
0,
0#
#155
1!
1,
1#
b0101 B
1H
b00 C
b0000000000 @
b0000000000 2
b0000000000 (
01
0'
15
0R
1N
b000 J
b0000000000 K
b1011 Z
b1011 Y
b1011 `
b1011 _
b1011 f
b1011 e
b1011 l
b1011 k
b110000 P
b110000 O
b011000 W
b011000 V
b011000 ]
b011000 \
b011000 c
b011000 b
b011000 i
b011000 h
b1100000101 n
b1100000101 9
b1100000101 p
b1100000101 :
b0001010111 r
b0001010111 ;
b0110001011 <
b0110001011 =
b0110001011 >
b0110001011 ?
b1100001010 8
#160
0!
0,
0#
#165
1!
1,
1#
b0000 B
