dump.vcd
$date
	Sat May  8 17:56:10 2021
$end

$version
	Synopsys VCS version R-2020.12
$end

$timescale
	1ns
$end

$comment Csum: 1 402ff56fd3bb274a $end


$scope module rushi $end
$upscope $end


$scope module top $end
$var reg 1 ! clk $end
$var reg 1 " reset $end
$var wire 1 # startout $end

$scope begin unnamed$$_vcs_4 $end
$upscope $end


$scope begin unnamed$$_vcs_0 $end
$upscope $end


$scope begin unnamed$$_vcs_1 $end
$upscope $end


$scope begin unnamed$$_vcs_2 $end
$upscope $end


$scope begin unnamed$$_vcs_3 $end
$upscope $end


$scope module int_f $end
$var reg 1 $ clk $end
$var reg 1 % pushin $end
$var reg 9 & datain [8:0] $end
$var reg 1 ' startin $end
$var reg 1 ( pushout $end
$var reg 10 ) dataout [9:0] $end
$var reg 1 * startout $end
$var reg 5 + datain_size [4:0] $end
$var reg 1 , reset $end
$upscope $end


$scope module enc $end
$var wire 1 - clk $end
$var wire 1 . reset $end
$var wire 1 / pushin $end
$var wire 9 0 datain [8:0] $end
$var wire 1 1 startin $end
$var reg 1 2 pushout $end
$var wire 10 3 dataout [9:0] $end
$var reg 1 4 startout $end
$var wire 1 5 Kbit $end
$var wire 1 6 RD $end
$var wire 32 7 crcResult [31:0] $end
$var reg 32 8 crcData [31:0] $end
$var wire 10 9 outTemp [9:0] $end
$var wire 10 : kcode [9:0] $end
$var wire 10 ; kcodeCRC0 [9:0] $end
$var wire 10 < kcodeCRC1 [9:0] $end
$var wire 10 = firstCRC [9:0] $end
$var wire 10 > secondCRC [9:0] $end
$var wire 10 ? thirdCRC [9:0] $end
$var wire 10 @ fourthCRC [9:0] $end
$var reg 10 A trueOutput [9:0] $end
$var reg 4 B counterK281 [3:0] $end
$var reg 4 C counterK285 [3:0] $end
$var reg 2 D currentState [1:0] $end
$var reg 2 E nextState [1:0] $end

$scope function rearrange $end
$var reg 10 F rearrange [9:0] $end
$var reg 10 G data [9:0] $end
$var integer 32 H i $end
$upscope $end


$scope module rd $end
$var wire 1 - clk $end
$var wire 1 . reset $end
$var wire 1 1 startin $end
$var wire 10 A dataout [9:0] $end
$var wire 1 2 pushout $end
$var reg 1 6 RDout $end
$var reg 1 I currentState $end
$var reg 1 J nextState $end

$scope function countOnes $end
$var reg 2 K countOnes [1:0] $end
$var reg 10 L data [9:0] $end
$var reg 4 M ones [3:0] $end
$var reg 4 N zeros [3:0] $end
$var integer 32 O i $end
$upscope $end

$upscope $end


$scope module ec0 $end
$var wire 5 P datain [4:0] $end
$var wire 1 Q RD $end
$var wire 6 R dataout [5:0] $end
$var reg 6 S abcdei_d [5:0] $end
$upscope $end


$scope module ec1 $end
$var wire 3 T datain [2:0] $end
$var wire 1 U RD $end
$var wire 4 V dataout [3:0] $end
$var reg 4 W fghj_d [3:0] $end
$upscope $end


$scope module ec2 $end
$var wire 5 X datain [4:0] $end
$var wire 1 Q RD $end
$var wire 6 Y dataout [5:0] $end
$var reg 6 Z abcdei_d [5:0] $end
$upscope $end


$scope module ec3 $end
$var wire 3 [ datain [2:0] $end
$var wire 1 U RD $end
$var wire 4 \ dataout [3:0] $end
$var reg 4 ] fghj_d [3:0] $end
$upscope $end


$scope module ec4 $end
$var wire 5 ^ datain [4:0] $end
$var wire 1 Q RD $end
$var wire 6 _ dataout [5:0] $end
$var reg 6 ` abcdei_d [5:0] $end
$upscope $end


$scope module ec5 $end
$var wire 3 a datain [2:0] $end
$var wire 1 U RD $end
$var wire 4 b dataout [3:0] $end
$var reg 4 c fghj_d [3:0] $end
$upscope $end


$scope module ec6 $end
$var wire 5 d datain [4:0] $end
$var wire 1 Q RD $end
$var wire 6 e dataout [5:0] $end
$var reg 6 f abcdei_d [5:0] $end
$upscope $end


$scope module ec7 $end
$var wire 3 g datain [2:0] $end
$var wire 1 U RD $end
$var wire 4 h dataout [3:0] $end
$var reg 4 i fghj_d [3:0] $end
$upscope $end


$scope module ec8 $end
$var wire 5 j datain [4:0] $end
$var wire 1 Q RD $end
$var wire 6 k dataout [5:0] $end
$var reg 6 l abcdei_d [5:0] $end
$upscope $end


$scope module ec9 $end
$var wire 3 m datain [2:0] $end
$var wire 1 U RD $end
$var wire 4 n dataout [3:0] $end
$var reg 4 o fghj_d [3:0] $end
$upscope $end


$scope module kc0 $end
$var wire 8 p datain [7:0] $end
$var wire 1 Q RD $end
$var wire 10 : dataout [9:0] $end
$var reg 10 q outTemp [9:0] $end
$upscope $end


$scope module kc1 $end
$var wire 8 r datain [7:0] $end
$var wire 1 Q RD $end
$var wire 10 ; dataout [9:0] $end
$var reg 10 s outTemp [9:0] $end
$upscope $end


$scope module kc2 $end
$var wire 8 t datain [7:0] $end
$var wire 1 Q RD $end
$var wire 10 < dataout [9:0] $end
$var reg 10 u outTemp [9:0] $end
$upscope $end


$scope module crc0 $end
$var wire 1 - clk $end
$var wire 1 . rst $end
$var wire 8 p crc32_in [7:0] $end
$var wire 1 / pushin $end
$var wire 32 7 crc32_out [31:0] $end
$var reg 32 v crc32_out_buff [31:0] $end
$var reg 32 w crc32_table [31:0] $end
$var wire 8 x crc32_lut_in [7:0] $end
$upscope $end

$upscope $end

$upscope $end


$scope module uvm_pkg $end
$var reg 32 y UVM_UNBOUNDED_CONNECTIONS [31:0] $end
$var reg 1 z uvm_start_uvm_declarations $end
$var reg 32 { uvm_global_random_seed [31:0] $end
$upscope $end

$enddefinitions $end

#0
$dumpvars
1z
b11111111111111111111111111111111 y
b01000010000001111100110001000111 {
0!
1"
0#
b10100 +
b0000000000 )
b000000000 &
05
06
02
0I
0J
04
b11 K
b0000000000 L
b00000000000000000000000000001010 O
bxxxx M
bxxxx N
b0000 B
b0000 C
b11111111 x
b11111111111111111111111111111111 v
b00101101000000101110111110001101 w
b00000000000000000000000000000000 8
b00000000000000000000000000000000 7
b00 D
b00 E
bxxxxxxxxxx G
bxxxxxxxxxxxxxxxxxxxxxxxxxxxxxxxx H
bxxxxxxxxxx F
b0000000000 A
b100111 S
b0100 W
b100111 Z
b0100 ]
b100111 `
b0100 c
b100111 f
b0100 i
b100111 l
b0100 o
b0000000000 q
b0011111010 s
b1110101000 u
1.
b000000000 0
b0000000000 3
b1001110100 9
b100111 R
b0100 V
b1001110100 =
b100111 Y
b0100 \
b1001110100 >
b100111 _
b0100 b
b1001110100 ?
b100111 e
b0100 h
b1001110100 @
b100111 k
b0100 n
0Q
1U
b00000 X
b000 [
b00000 ^
b000 a
b00000 d
b000 g
b00000 j
b000 m
b0000000000 :
b10111100 r
b0011111010 ;
b11110111 t
b1110101000 <
0%
0(
x'
x*
0/
x1
0$
0-
1,
b00000000 p
b00000 P
b000 T
$end
#4
0"
0,
0.
#5
1!
1-
1$
1'
11
#10
0!
0-
0$
b100111100 &
b100111100 0
15
b001 T
b11100 P
b00111100 p
b11000011 x
1%
1/
12
1(
b0000000000 F
b00000000000000000000000000001010 H
b0000000000 G
b1001 W
b1001 V
b001111 S
b001111 R
b00000010011011011001001100001010 w
b0011111001 q
b0011111001 :
b0011111001 9
b1001111100 A
b1001111100 3
b1001111100 )
b1001111100 F
b0011111001 G
b1001111100 L
#15
1!
1-
1$
b0001 B
b00000010100100100110110011110101 v
b11111101011011011001001100001010 7
b11001001 x
14
1#
b11100010101110000111101000010100 w
#20
0!
0-
0$
#25
1!
1-
1$
b0010 B
b11100010101110101110100001111000 v
b00011101010001010001011110000111 7
b01000100 x
04
0#
b01110001101100011000010110001001 w
#30
0!
0-
0$
#35
1!
1-
1$
b0011 B
b01110001010100110011111101100001 v
b10001110101011001100000010011110 7
b01011101 x
b01 E
b00010101110110100010110101001001 w
#40
0!
0-
0$
#45
1!
1-
1$
b0100 B
b01 D
b00010101101010110111111001110110 v
b11101010010101001000000110001001 7
b01001010 x
b10 E
b11101010010101001000000110001001 8
b01001 X
b100 [
b00001 ^
b100 a
b10100 d
b010 g
b01010 j
b111 m
b10010110000010011010100010001110 w
b100101 Z
b100101 Y
b0010 ]
b0010 \
b011101 `
b011101 _
b0010 c
b0010 b
b001011 f
b001011 e
b0101 i
b0101 h
b010101 l
b010101 k
b0001 o
b0001 n
b1001010010 =
b0111010010 >
b0010110101 ?
b0101010001 @
#50
0!
0-
0$
b011101011 &
b011101011 0
05
b111 T
b01011 P
b11101011 p
b10011101 x
b0001 W
b0001 V
b110100 S
b110100 R
b10001110101111101110111111111001 w
b0000000000 q
b0000000000 :
b1101000001 9
b1000001011 A
b1000001011 3
b1000001011 )
b1000001011 F
b1101000001 G
b1000001011 L
#55
1!
1-
1$
b0000 B
b10 D
b10001110101010110100010010000111 v
b01110001010101001011101101111000 7
b01101100 x
b0001010111 A
b0001010111 3
b0001010111 )
b0001010111 F
b1110101000 G
b01000100000001000010110101110011 w
b0001010111 L
#60
0!
0-
0$
b010001001 &
b010001001 0
b100 T
b01001 P
b10001001 p
b00001110 x
b0010 W
b0010 V
b100101 S
b100101 R
b11100111101110000010110100000111 w
b1001010010 9
#65
1!
1-
1$
b0001 C
b11100111001101101000011001000011 v
b00011000110010010111100110111100 7
b11001010 x
b0100101001 A
b0100101001 3
b0100101001 )
b0100101001 F
b1001010010 G
b01111011101100010010101110101110 w
b0100101001 L
#70
0!
0-
0$
b010010001 &
b010010001 0
b10001 P
b10010001 p
b11010010 x
b100011 S
b100011 R
b01101000110111011011001111111000 w
b1000110010 9
#75
1!
1-
1$
b0010 C
b01101000001110101000010101111110 v
b10010111110001010111101010000001 7
b11101111 x
b0100101110 A
b0100101110 3
b0100101110 )
b0100101110 F
b0111010010 G
b00110000101101011111111111101001 w
b0100101110 L
#80
0!
0-
0$
b010111001 &
b010111001 0
b101 T
b11001 P
b10111001 p
b11000111 x
b1010 W
b1010 V
b100110 S
b100110 R
b00000101000000000101011100010011 w
b1001101010 9
#85
1!
1-
1$
b0011 C
b00000101011010000110110110010110 v
b11111010100101111001001001101001 7
b00101111 x
b1010110100 A
b1010110100 3
b1010110100 )
b1010110100 F
b0010110101 G
b10101011110100010011110101011001 w
b1010110100 L
#90
0!
0-
0$
b000110111 &
b000110111 0
b001 T
b10111 P
b00110111 p
b10100001 x
b1001 W
b1001 V
b111010 S
b111010 R
b10100001110100011001001101111110 w
b1110101001 9
#95
1!
1-
1$
b0100 C
b10100001110101001111101100010011 v
b01011110001010110000010011101100 7
b00100100 x
b1000101010 A
b1000101010 3
b1000101010 )
b1000101010 F
b0101010001 G
b00111100000000111110010011010001 w
b1000101010 L
#100
0!
0-
0$
b010110101 &
b010110101 0
b101 T
b10101 P
b10110101 p
b10100110 x
b1010 W
b1010 V
b101010 S
b101010 R
b00111111101101010000011011011101 w
b1010101010 9
#105
1!
1-
1$
b0101 C
b00111111000101001101001000100110 v
b11000000111010110010110111011001 7
b10010011 x
b00 E
b0101111100 A
b0101111100 3
b0101111100 )
b00000000000000000000000000000000 8
b00000 X
b000 [
b00000 ^
b000 a
b00000 d
b000 g
b00000 j
b000 m
b0101111100 F
b0011111010 G
b01101001000001101100001011111110 w
b0101111100 L
b100111 Z
b100111 Y
b0100 ]
b0100 \
b100111 `
b100111 _
b0100 c
b0100 b
b100111 f
b100111 e
b0100 i
b0100 h
b100111 l
b100111 k
b0100 o
b0100 n
b1001110100 =
b1001110100 >
b1001110100 ?
b1001110100 @
#110
0!
0-
0$
b001110101 &
b001110101 0
b011 T
b01110101 p
b01010011 x
b0011 W
b0011 V
b11110010011000100000000001001110 w
b1010100011 9
#115
1!
1-
1$
b0110 C
b00 D
b11110010010111010001010010011100 v
b00001101101000101110101101100011 7
b11101001 x
b0000000000 A
b0000000000 3
b0000000000 )
b0000000000 F
b0000000000 G
b11011001110101100101101011011100 w
b0000000000 L
#120
0!
0-
0$
b010000010 &
b010000010 0
b100 T
b00010 P
b10000010 p
b00011110 x
b0010 W
b0010 V
b101101 S
b101101 R
b11111010000011110011110101100011 w
b1011010010 9
#125
1!
1-
1$
b0001 B
b0000 C
b11111010111111010110000001110111 v
b00000101000000101001111110001000 7
b11110101 x
14
1#
b11001101110101110000011010010011 w
#130
0!
0-
0$
b011101111 &
b011101111 0
b111 T
b01111 P
b11101111 p
b10011000 x
b0001 W
b0001 V
b010111 S
b010111 R
b11111110110101000001101101110110 w
b0101110001 9
#135
1!
1-
1$
b0010 B
b11111110001011101110011000010110 v
b00000001110100010001100111101001 7
b11111001 x
04
0#
b11000100011000010100101010111000 w
#140
0!
0-
0$
b010100001 &
b010100001 0
b101 T
b00001 P
b10100001 p
b10110111 x
b1010 W
b1010 V
b011101 S
b011101 R
b01010101000001010010011000101111 w
b0111011010 9
#145
1!
1-
1$
b0011 B
b01010101111110110000100011001001 v
b10101010000001001111011100110110 7
b01101000 x
b01 E
b01000011011010011110100101101010 w
#150
0!
0-
0$
b011110101 &
b011110101 0
b111 T
b10101 P
b11110101 p
b00111100 x
b0001 W
b0001 V
b101010 S
b101010 R
b00101111011011110111110010000111 w
b1010100001 9
#155
1!
1-
1$
b0100 B
b01 D
b00101111001110101000011110001111 v
b11010000110001010111100001110000 7
b01111010 x
b10 E
b1000010101 A
b1000010101 3
b1000010101 )
b11010000110001010111100001110000 8
b10000 X
b011 [
b11000 ^
b011 a
b00101 d
b110 g
b10000 j
b110 m
b1000010101 F
b1010100001 G
b10110000110100001001100000100010 w
b1000010101 L
b011011 Z
b011011 Y
b0011 ]
b0011 \
b110011 `
b110011 _
b0011 c
b0011 b
b101001 f
b101001 e
b0110 i
b0110 h
b011011 l
b011011 k
b0110 o
b0110 n
b0110110011 =
b1100110011 >
b1010010110 ?
b0110110110 @
#160
0!
0-
0$
b010111011 &
b010111011 0
b101 T
b11011 P
b10111011 p
b00110100 x
b1010 W
b1010 V
b110110 S
b110110 R
b00100001101101001111010010110101 w
b1101101010 9
b0101011011 A
b0101011011 3
b0101011011 )
b0101011011 F
b1101101010 G
b0101011011 L
#165
1!
1-
1$
b0000 B
b10 D
b00100001100110111100111000110010 v
b11011110011001000011000111001101 7
b10001001 x
b0001010111 A
b0001010111 3
b0001010111 )
b0001010111 F
b1110101000 G
b10010100011001000011101110000100 w
b0001010111 L
#170
0!
0-
0$
b010001101 &
b010001101 0
b100 T
b01101 P
b10001101 p
b10111111 x
b0010 W
b0010 V
b101100 S
b101100 R
b01011011110111101010111000011101 w
b1011000010 9
#175
1!
1-
1$
b0001 C
b01011011111111110011010111010011 v
b10100100000000001100101000101100 7
b01011110 x
b1100110110 A
b1100110110 3
b1100110110 )
b1100110110 F
b0110110011 G
b10001100110100110111110011110011 w
b1100110110 L
#180
0!
0-
0$
b001111011 &
b001111011 0
b011 T
b11011 P
b01111011 p
b10101000 x
b0011 W
b0011 V
b110110 S
b110110 R
b11011000000011010010101111011010 w
b1101100011 9
#185
1!
1-
1$
b0010 C
b11011000010101101101010011101111 v
b00100111101010010010101100010000 7
b10010100 x
b1100110011 A
b1100110011 3
b1100110011 )
b1100110011 F
b1100110011 G
b11110111011000100101011101011101 w
b1100110011 L
#190
0!
0-
0$
b001011010 &
b001011010 0
b010 T
b11010 P
b01011010 p
b10110101 x
b0101 W
b0101 V
b010110 S
b010110 R
b10111011000010110100011100000011 w
b0101100101 9
#195
1!
1-
1$
b0011 C
b10111011110100110001000111010111 v
b01000100001011001110111000101000 7
b10001101 x
b0110100101 A
b0110100101 3
b0110100101 )
b0110100101 F
b1010010110 G
b10010011000010011111111110011101 w
b0110100101 L
#200
0!
0-
0$
b010100111 &
b010100111 0
b101 T
b00111 P
b10100111 p
b01110000 x
b1010 W
b1010 V
b111000 S
b111000 R
b01010000000001010111000100111100 w
b1110001010 9
#205
1!
1-
1$
b0100 C
b01010000101111101010001000101101 v
b10101111010000010101110111010010 7
b10001010 x
b0110110110 A
b0110110110 3
b0110110110 )
b0110110110 F
b0110110110 G
b00001101011011010110101000111110 w
b0110110110 L
#210
0!
0-
0$
b010001001 &
b010001001 0
b100 T
b01001 P
b10001001 p
b10100100 x
b0010 W
b0010 V
b100101 S
b100101 R
b11010001101110110110011111110001 w
b1001010010 9
#215
1!
1-
1$
b0101 C
b11010001111010111101100101010011 v
b00101110000101000010011010101100 7
b11011010 x
b00 E
b0101111100 A
b0101111100 3
b0101111100 )
b00000000000000000000000000000000 8
b00000 X
b000 [
b00000 ^
b000 a
b00000 d
b000 g
b00000 j
b000 m
b0101111100 F
b0011111010 G
b01100110000001100011101111001010 w
b0101111100 L
b100111 Z
b100111 Y
b0100 ]
b0100 \
b100111 `
b100111 _
b0100 c
b0100 b
b100111 f
b100111 e
b0100 i
b0100 h
b100111 l
b100111 k
b0100 o
b0100 n
b1001110100 =
b1001110100 >
b1001110100 ?
b1001110100 @
#220
0!
0-
0$
b010010001 &
b010010001 0
b10001 P
b10010001 p
b11000010 x
b100011 S
b100011 R
b01110101011010101010001110011100 w
b1000110010 9
#225
1!
1-
1$
b0110 C
b00 D
b01110101101110110100100001000101 v
b10001010010001001011011110111010 7
b11010100 x
b0000000000 A
b0000000000 3
b0000000000 )
b0000000000 F
b0000000000 G
b10000001101111100001011011001101 w
b0000000000 L
#230
0!
0-
0$
b010000111 &
b010000111 0
b00111 P
b10000111 p
b11000010 x
b111000 S
b111000 R
b01110101011010101010001110011100 w
b1110000010 9
#235
1!
1-
1$
b0001 B
b0000 C
b01110101000111110001100011010100 v
b10001010111000001110011100101011 7
b01010011 x
14
1#
b11110010011000100000000001001110 w
#240
0!
0-
0$
b010000101 &
b010000101 0
b00101 P
b10000101 p
b01010001 x
b101001 S
b101001 R
b00011100011011000110000101100010 w
b1010010010 9
#245
1!
1-
1$
b0010 B
b00011100000110010111111001111010 v
b11100011111001101000000110000101 7
b11111111 x
04
0#
b00101101000000101110111110001101 w
#250
0!
0-
0$
b110111100 &
b110111100 0
15
b101 T
b11100 P
b10111100 p
b11000110 x
b1010 W
b1010 V
b001111 S
b001111 R
b01110010000001110110011110000101 w
b0011111010 q
b0011111010 :
b0011111010 9
b0101111100 A
b0101111100 3
b0101111100 )
b0101111100 F
b0011111010 G
b0101111100 L
#255
1!
1-
1$
b0011 B
b01110010000110110111111011111011 v
b10001101111001001000000100000100 7
b01000111 x
b01 E
b11101000101110001101010000110011 w
#260
0!
0-
0$
0%
0/
b00 E
b0000000000 A
b0000000000 3
b0000000000 )
02
0(
b0000000000 L
