dump.vcd
$date
	Sun May 16 12:13:34 2021
$end

$version
	Synopsys VCS version R-2020.12
$end

$timescale
	1ns
$end

$comment Csum: 1 9a0d6264bbd70687 $end


$scope module rushi $end
$upscope $end


$scope module top $end
$var reg 1 ! clk $end
$var reg 1 " reset $end

$scope begin unnamed$$_vcs_4 $end
$upscope $end


$scope begin unnamed$$_vcs_0 $end
$upscope $end


$scope begin unnamed$$_vcs_1 $end
$upscope $end


$scope begin unnamed$$_vcs_2 $end
$upscope $end


$scope begin unnamed$$_vcs_3 $end
$upscope $end


$scope module int_f $end
$var reg 1 # clk $end
$var reg 1 $ pushin $end
$var reg 9 % datain [8:0] $end
$var reg 1 & startin $end
$var reg 1 ' pushout $end
$var reg 10 ( dataout [9:0] $end
$var reg 1 ) startout $end
$var reg 1 * reset $end
$var reg 5 + datain_size [4:0] $end
$upscope $end


$scope module enc $end
$var wire 1 , clk $end
$var wire 1 - reset $end
$var wire 1 . pushin $end
$var wire 9 / datain [8:0] $end
$var wire 1 0 startin $end
$var reg 1 1 pushout $end
$var wire 10 2 dataout [9:0] $end
$var reg 1 3 startout $end
$var wire 1 4 Kbit $end
$var wire 1 5 RD6B $end
$var wire 1 6 RD4B $end
$var wire 1 7 RD $end
$var wire 1 8 curRD $end
$var wire 32 9 crcResult [31:0] $end
$var reg 32 : crcData [31:0] $end
$var reg 1 ; curRD6B $end
$var reg 1 < curRD4B $end
$var reg 1 = curRD0 $end
$var wire 10 > outTemp [9:0] $end
$var wire 10 ? kcode [9:0] $end
$var wire 10 @ kcodeCRC0 [9:0] $end
$var wire 10 A kcodeCRC1 [9:0] $end
$var wire 10 B firstCRC [9:0] $end
$var wire 10 C secondCRC [9:0] $end
$var wire 10 D thirdCRC [9:0] $end
$var wire 10 E fourthCRC [9:0] $end
$var reg 10 F trueOutput [9:0] $end
$var reg 4 G counterK281 [3:0] $end
$var reg 4 H counterK285 [3:0] $end
$var reg 2 I currentState [1:0] $end
$var reg 2 J nextState [1:0] $end

$scope function rearrange $end
$var reg 10 K rearrange [9:0] $end
$var reg 10 L data [9:0] $end
$var integer 32 M i $end
$upscope $end


$scope module rd6b $end
$var wire 1 , clk $end
$var wire 1 - reset $end
$var wire 1 0 startin $end
$var wire 6 N dataout [5:0] $end
$var wire 1 1 pushout $end
$var reg 1 5 RDout $end
$var reg 1 O currentState $end
$var reg 1 P nextState $end

$scope function countOnes $end
$var reg 3 Q countOnes [2:0] $end
$var reg 6 R data [5:0] $end
$var integer 32 S i $end
$upscope $end

$upscope $end


$scope module rd4b $end
$var wire 1 , clk $end
$var wire 1 - reset $end
$var wire 1 0 startin $end
$var wire 4 T dataout [3:0] $end
$var wire 1 1 pushout $end
$var reg 1 6 RDout $end
$var reg 1 U currentState $end
$var reg 1 V nextState $end

$scope function countOnes $end
$var reg 3 W countOnes [2:0] $end
$var reg 4 X data [3:0] $end
$var integer 32 Y i $end
$upscope $end

$upscope $end


$scope module rd10b $end
$var wire 1 , clk $end
$var wire 1 - reset $end
$var wire 1 0 startin $end
$var wire 10 F dataout [9:0] $end
$var wire 1 1 pushout $end
$var reg 1 7 RDout $end
$var reg 1 Z currentState $end
$var reg 1 [ nextState $end

$scope function countOnes $end
$var reg 3 \ countOnes [2:0] $end
$var reg 10 ] data [9:0] $end
$var integer 32 ^ i $end
$upscope $end

$upscope $end


$scope module ec0 $end
$var wire 5 _ datain [4:0] $end
$var wire 1 8 RD $end
$var wire 6 ` dataout [5:0] $end
$var reg 6 a abcdei_d [5:0] $end
$upscope $end


$scope module ec1 $end
$var wire 3 b datain [2:0] $end
$var wire 1 c RD $end
$var wire 5 _ lower [4:0] $end
$var wire 4 d dataout [3:0] $end
$var reg 4 e fghj_d [3:0] $end
$var wire 1 f RD0 $end
$upscope $end


$scope module ec2 $end
$var wire 5 g datain [4:0] $end
$var wire 1 8 RD $end
$var wire 6 h dataout [5:0] $end
$var reg 6 i abcdei_d [5:0] $end
$upscope $end


$scope module ec3 $end
$var wire 3 j datain [2:0] $end
$var wire 1 c RD $end
$var wire 5 g lower [4:0] $end
$var wire 4 k dataout [3:0] $end
$var reg 4 l fghj_d [3:0] $end
$var wire 1 m RD0 $end
$upscope $end


$scope module ec4 $end
$var wire 5 n datain [4:0] $end
$var wire 1 8 RD $end
$var wire 6 o dataout [5:0] $end
$var reg 6 p abcdei_d [5:0] $end
$upscope $end


$scope module ec5 $end
$var wire 3 q datain [2:0] $end
$var wire 1 c RD $end
$var wire 5 n lower [4:0] $end
$var wire 4 r dataout [3:0] $end
$var reg 4 s fghj_d [3:0] $end
$var wire 1 t RD0 $end
$upscope $end


$scope module ec6 $end
$var wire 5 u datain [4:0] $end
$var wire 1 8 RD $end
$var wire 6 v dataout [5:0] $end
$var reg 6 w abcdei_d [5:0] $end
$upscope $end


$scope module ec7 $end
$var wire 3 x datain [2:0] $end
$var wire 1 c RD $end
$var wire 5 u lower [4:0] $end
$var wire 4 y dataout [3:0] $end
$var reg 4 z fghj_d [3:0] $end
$var wire 1 { RD0 $end
$upscope $end


$scope module ec8 $end
$var wire 5 | datain [4:0] $end
$var wire 1 8 RD $end
$var wire 6 } dataout [5:0] $end
$var reg 6 ~ abcdei_d [5:0] $end
$upscope $end


$scope module ec9 $end
$var wire 3 "! datain [2:0] $end
$var wire 1 c RD $end
$var wire 5 | lower [4:0] $end
$var wire 4 "" dataout [3:0] $end
$var reg 4 "# fghj_d [3:0] $end
$var wire 1 "$ RD0 $end
$upscope $end


$scope module kc0 $end
$var wire 8 "% datain [7:0] $end
$var wire 1 8 RD $end
$var wire 10 ? dataout [9:0] $end
$var reg 10 "& outTemp [9:0] $end
$upscope $end


$scope module kc1 $end
$var wire 8 "' datain [7:0] $end
$var wire 1 8 RD $end
$var wire 10 @ dataout [9:0] $end
$var reg 10 "( outTemp [9:0] $end
$upscope $end


$scope module kc2 $end
$var wire 8 ") datain [7:0] $end
$var wire 1 8 RD $end
$var wire 10 A dataout [9:0] $end
$var reg 10 "* outTemp [9:0] $end
$upscope $end


$scope module crc0 $end
$var wire 1 , clk $end
$var wire 1 - rst $end
$var wire 8 "% crc32_in [7:0] $end
$var wire 1 "+ valid $end
$var wire 1 ", is_S1DATA $end
$var wire 32 9 crc32_out [31:0] $end
$var reg 32 "- crc32_out_buff [31:0] $end
$var reg 32 ". crc32_table [31:0] $end
$var wire 8 "/ crc32_lut_in [7:0] $end
$upscope $end

$upscope $end

$upscope $end


$scope module uvm_pkg $end
$var reg 32 "0 UVM_UNBOUNDED_CONNECTIONS [31:0] $end
$var reg 1 "1 uvm_start_uvm_declarations $end
$var reg 32 "2 uvm_global_random_seed [31:0] $end
$upscope $end

$enddefinitions $end

#0
$dumpvars
1"1
b11111111111111111111111111111111 "0
b01000010000001111100110001000111 "2
0!
1"
bxxxxx +
b0000000000 (
b000000000 %
04
05
0=
0<
0;
01
07
0Z
0[
06
0U
0V
0O
0P
03
x",
0"+
b000 Q
b000000 R
b00000000000000000000000000000110 S
b0000 G
b0000 H
b11111111 "/
b11111111111111111111111111111111 "-
b00101101000000101110111110001101 ".
b00000000000000000000000000000000 :
b00000000000000000000000000000000 9
b00 I
b00 J
b0000000000 ]
b00000000000000000000000000001010 ^
b000 \
b0000 X
b00000000000000000000000000000100 Y
b000 W
bxxxxxxxxxx L
bxxxxxxxxxxxxxxxxxxxxxxxxxxxxxxxx M
bxxxxxxxxxx K
bxxxx T
bxxxxxx N
b0000000000 F
b100111 a
1f
b0100 e
b100111 i
1m
b0100 l
b100111 p
1t
b0100 s
b100111 w
1{
b0100 z
b100111 ~
1"$
b0100 "#
b0000000000 "&
b0011111010 "(
b1110101000 "*
1-
b000000000 /
b0000000000 2
b1001110100 >
b100111 `
b0100 d
b1001110100 B
b100111 h
b0100 k
b1001110100 C
b100111 o
b0100 r
b1001110100 D
b100111 v
b0100 y
b1001110100 E
b100111 }
b0100 ""
08
1c
b00000 g
b000 j
b00000 n
b000 q
b00000 u
b000 x
b00000 |
b000 "!
b0000000000 ?
b10111100 "'
b0011111010 @
b11110111 ")
b1110101000 A
0$
0'
0&
0)
0.
00
0#
0,
1*
b00000000 "%
b00000 _
b000 b
$end
b0000 T
b000000 N
0",
#4
0"
0*
0-
#5
1!
1,
1#
1&
10
1$
1.
b100111100 %
b100111100 /
14
b001 b
b11100 _
b00111100 "%
b11000011 "/
11
1'
13
1)
b0000000000 K
b00000000000000000000000000001010 M
b0000000000 L
b1001 e
b1001 d
b001110 a
b001110 `
0f
b00000010011011011001001100001010 ".
b0011111001 "&
b0011111001 ?
b0011101001 >
1P
15
1V
16
1[
17
b1001111100 F
b1001 T
b111100 N
b1001111100 2
b1001111100 (
b1001111100 K
b0011111001 L
b110 \
b1001111100 ]
0V
06
b010 W
b1001 X
b100 Q
b111100 R
#10
0!
0,
0#
#15
1!
1,
1#
b0001 G
1=
1;
1O
1Z
0&
00
18
0c
03
0)
0P
05
0[
07
1f
0m
0t
0{
0"$
b011000 i
b011000 h
b011000 p
b011000 o
b011000 w
b011000 v
b011000 ~
b011000 }
b1100000110 "&
b1100000110 ?
b1100000101 "(
b1100000101 @
b0001010111 "*
b0001010111 A
b0110000100 B
b0110000100 C
b0110000100 D
b0110000100 E
b1011 l
b1011 k
b1011 s
b1011 r
b1011 z
b1011 y
b1011 "#
b1011 ""
b0110000011 F
b0110 T
b000011 N
b0110000011 2
b0110000011 (
b0110000011 K
b1100000110 L
b0110001011 B
b0110001011 C
b0110001011 D
b0110001011 E
b100 \
b0110000011 ]
b0110 X
b010 Q
b000011 R
#20
0!
0,
0#
#25
1!
1,
1#
b0010 G
0=
08
1c
0;
0O
0Z
0f
1m
1t
1{
1"$
b100111 i
b100111 h
b100111 p
b100111 o
b100111 w
b100111 v
b100111 ~
b100111 }
b0011111001 "&
b0011111001 ?
b0011111010 "(
b0011111010 @
b1110101000 "*
b1110101000 A
1P
15
1[
17
b1001111011 B
b1001111011 C
b1001111011 D
b1001111011 E
b0100 l
b0100 k
b0100 s
b0100 r
b0100 z
b0100 y
b0100 "#
b0100 ""
b1001111100 F
b1001 T
b111100 N
b1001111100 2
b1001111100 (
b1001111100 K
b0011111001 L
b1001110100 B
b1001110100 C
b1001110100 D
b1001110100 E
b110 \
b1001111100 ]
b1001 X
b100 Q
b111100 R
#30
0!
0,
0#
#35
1!
1,
1#
b0011 G
1=
18
0c
1;
1O
1Z
b01 J
1f
0m
0t
0{
0"$
b011000 i
b011000 h
b011000 p
b011000 o
b011000 w
b011000 v
b011000 ~
b011000 }
b1100000110 "&
b1100000110 ?
b1100000101 "(
b1100000101 @
b0001010111 "*
b0001010111 A
0P
05
0[
07
b0110000100 B
b0110000100 C
b0110000100 D
b0110000100 E
b1011 l
b1011 k
b1011 s
b1011 r
b1011 z
b1011 y
b1011 "#
b1011 ""
b0110000011 F
b0110 T
b000011 N
b0110000011 2
b0110000011 (
b0110000011 K
b1100000110 L
b0110001011 B
b0110001011 C
b0110001011 D
b0110001011 E
b100 \
b0110000011 ]
b0110 X
b010 Q
b000011 R
#40
0!
0,
0#
#45
1!
1,
1#
b0100 G
0=
08
1c
0;
b01 I
1",
0O
0Z
b011100100 %
b011100100 /
04
b111 b
b00100 _
b11100100 "%
b00011011 "/
b1001011100 F
b1001 T
b011100 N
b1001011100 2
b1001011100 (
b1001011100 K
b0011101001 L
1f
1m
1t
1{
1"$
b110101 a
b110101 `
b100111 i
b100111 h
b100111 p
b100111 o
b100111 w
b100111 v
b100111 ~
b100111 }
b0000000000 "&
b0000000000 ?
b0011111010 "(
b0011111010 @
b1110101000 "*
b1110101000 A
1"+
b011 Q
b011100 R
b101 \
b1001011100 ]
b0001 e
b0001 d
b10001010011001011100100111101100 ".
b1101010001 >
b1001111011 B
b1001111011 C
b1001111011 D
b1001111011 E
b1001 X
b0100 l
b0100 k
b0100 s
b0100 r
b0100 z
b0100 y
b0100 "#
b0100 ""
b1000101011 F
b1000 T
b101011 N
b1000101011 2
b1000101011 (
b1000101011 K
b1101010001 L
b1001110100 B
b1001110100 C
b1001110100 D
b1001110100 E
b1000101011 ]
1V
16
b001 W
b1000 X
1P
15
b100 Q
b101011 R
#50
0!
0,
0#
#55
1!
1,
1#
b0000 G
b10001010100110100011011000010011 "-
b01110101011001011100100111101100 9
b11110111 "/
1<
1;
1O
1U
b010011011 %
b010011011 /
b100 b
b11011 _
b10011011 "%
b10001000 "/
b11100011011000110000101100010010 ".
0P
05
0V
06
b0010 e
b0010 d
b110110 a
b110110 `
b1101100010 >
b0100011011 F
b0100 T
b011011 N
b0100011011 2
b0100011011 (
b0100011011 K
b1101100010 L
b0100011011 ]
b0100 X
b011011 R
#60
0!
0,
0#
#65
1!
1,
1#
b11100011111010011001000100100100 "-
b00011100000101100110111011011011 9
b10111111 "/
0<
0;
0O
0U
b010100110 %
b010100110 /
b101 b
b00110 _
b10100110 "%
b10000010 "/
b00000011101101101110001000001100 ".
1P
15
1V
16
b1010 e
b1010 d
b011001 a
b011001 `
0f
b0110011010 >
b0101100110 F
b0101 T
b100110 N
b0101100110 2
b0101100110 (
b0101100110 K
b0110011010 L
b0101100110 ]
0V
06
b010 W
b0101 X
0P
05
b011 Q
b100110 R
#70
0!
0,
0#
#75
1!
1,
1#
b00000011010101010000101110011101 "-
b11111100101010101111010001100010 9
b00111011 "/
b001111111 %
b001111111 /
b011 b
b11111 _
b01111111 "%
b11100010 "/
b01001110000001001000001101010100 ".
b1100 e
b1100 d
b101011 a
b101011 `
1f
b1010111100 >
b0011 e
b0011 d
b1100110101 F
b1100 T
b110101 N
b1100110101 2
b1100110101 (
b1100110101 K
b1010110011 L
b1010110011 >
1[
17
b110 \
b1100110101 ]
b1100 X
1P
15
b100 Q
b110101 R
#80
0!
0,
0#
#85
1!
1,
1#
b01001110000001111101011001011111 "-
b10110001111110000010100110100000 9
b00100000 "/
1=
18
0c
1;
1O
1Z
b000110111 %
b000110111 /
b001 b
b10111 _
b00110111 "%
b01101000 "/
b01000011011010011110100101101010 ".
0f
0m
0t
0{
0"$
b000101 a
b000101 `
b011000 i
b011000 h
b011000 p
b011000 o
b011000 w
b011000 v
b011000 ~
b011000 }
b1100000101 "(
b1100000101 @
b0001010111 "*
b0001010111 A
0P
05
0[
07
b1001 e
b1001 d
b0001011001 >
b0110000100 B
b0110000100 C
b0110000100 D
b0110000100 E
b1011 l
b1011 k
b1011 s
b1011 r
b1011 z
b1011 y
b1011 "#
b1011 ""
b1001101000 F
b1001 T
b101000 N
b1001101000 2
b1001101000 (
b1001101000 K
b0001011001 L
b0110001011 B
b0110001011 C
b0110001011 D
b0110001011 E
b100 \
b1001101000 ]
b1001 X
b010 Q
b101000 R
#90
0!
0,
0#
#95
1!
1,
1#
b01000011001001111110111010111100 "-
b10111100110110000001000101000011 9
b10001011 "/
0=
08
1c
0;
0O
0Z
b110111100 %
b110111100 /
14
b101 b
b11100 _
b10111100 "%
b00000000 "/
b10 J
b1110101000 F
b1110 T
b1110101000 2
b1110101000 (
b10111100110110000001000101000011 :
b00011 g
b010 j
b10001 n
b11000 u
b110 x
b11100 |
b101 "!
b1110101000 K
b0001010111 L
b00000000000000000000000000000000 ".
0f
0m
0t
1{
0"$
b001110 a
b001110 `
b110001 i
b110001 h
b100011 p
b100011 o
b110011 w
b110011 v
b001110 ~
b001110 }
b0011111010 "&
b0011111010 ?
b0011111010 "(
b0011111010 @
b1110101000 "*
b1110101000 A
1P
15
b101 \
b1110101000 ]
b1010 e
b1010 d
0"+
b0011101010 >
b1100011011 B
b1000111011 C
b1100111011 D
b0011101011 E
1V
16
b011 W
b1110 X
b0101 l
b0101 k
b0110 z
b0110 y
b1010 "#
b1010 ""
b0001010111 F
b0001 T
b010111 N
b0001010111 2
b0001010111 (
b0001010111 K
b1110101000 L
b1100010101 B
b1100110110 D
b0011101010 E
b0001010111 ]
b001 W
b0001 X
b100 Q
b010111 R
#100
0!
0,
0#
#105
1!
1,
1#
1<
1;
b10 I
0",
1O
1U
0$
0.
b1010100011 F
b1010 T
b100011 N
b1010100011 2
b1010100011 (
b1010100011 K
b1100010101 L
b011 Q
b100011 R
b010 W
b1010 X
b1010100011 ]
#110
0!
0,
0#
#115
1!
1,
1#
b0001 H
b11111111111111111111111111111111 "-
b00000000000000000000000000000000 9
b01000011 "/
b1101110001 F
b1101 T
b110001 N
b1101110001 2
b1101110001 (
b1101110001 K
b1000111011 L
b11101111110101010001000000101010 ".
1[
17
b110 \
b1101110001 ]
0V
06
b011 W
b1101 X
b110001 R
#120
0!
0,
0#
#125
1!
1,
1#
b0010 H
1=
18
0c
0<
0U
1Z
b0110110011 F
b0110 T
b110011 N
b0110110011 2
b0110110011 (
b0110110011 K
b1100110110 L
1f
1m
1t
0{
1"$
b001100 w
b001100 v
b1100000101 "&
b1100000101 ?
b1100000101 "(
b1100000101 @
b0001010111 "*
b0001010111 A
b010 W
b0110 X
0[
07
b0110110011 ]
b0011000110 D
0P
05
b100 Q
b110011 R
b0100 s
b0100 r
b0110001100 F
b001100 N
b0110001100 2
b0110001100 (
b0110001100 K
b0011000110 L
b1000110100 C
b100 \
b0110001100 ]
b010 Q
b001100 R
#130
0!
0,
0#
#135
1!
1,
1#
b0011 H
0=
08
1c
0;
0O
0Z
b0101011100 F
b0101 T
b011100 N
b0101011100 2
b0101011100 (
b0101011100 K
b0011101010 L
0f
0m
0t
1{
0"$
b110011 w
b110011 v
b0011111010 "&
b0011111010 ?
b0011111010 "(
b0011111010 @
b1110101000 "*
b1110101000 A
b011 Q
b011100 R
b101 \
b0101011100 ]
b1100110110 D
b0101 X
b1011 s
b1011 r
b1000111011 C
#140
0!
0,
0#
#145
1!
1,
1#
b0100 H
b00 J
b0101111100 F
b111100 N
b0101111100 2
b0101111100 (
b00000000000000000000000000000000 :
b00000 g
b000 j
b00000 n
b00000 u
b000 x
b00000 |
b000 "!
b0101111100 K
b0011111010 L
1[
17
b110 \
b0101111100 ]
1P
15
b100 Q
b111100 R
b100111 i
b100111 h
b1011 l
b1011 k
1m
b100111 p
b100111 o
1t
b100111 w
b100111 v
b0100 z
b0100 y
b100111 ~
b100111 }
b1011 "#
b1011 ""
1"$
b1001111011 B
b1001111011 C
b1001110100 D
b1001111011 E
b0100 l
b0100 k
b0100 s
b0100 r
b0100 "#
b0100 ""
b1001110100 B
b1001110100 C
b1001110100 E
#150
0!
0,
0#
#155
1!
1,
1#
b0101 H
1=
18
0c
1;
b00 I
1O
1Z
b0000000000 F
b0000 T
b000000 N
b0000000000 2
b0000000000 (
01
0'
1f
0m
0t
0{
0"$
b011000 i
b011000 h
b011000 p
b011000 o
b011000 w
b011000 v
b011000 ~
b011000 }
b1100000101 "&
b1100000101 ?
b1100000101 "(
b1100000101 @
b0001010111 "*
b0001010111 A
05
b000 Q
b000000 R
07
b000 \
b0000000000 ]
b0110000100 B
b0110000100 C
b0110000100 D
b0110000100 E
b000 W
b0000 X
b1011 l
b1011 k
b1011 s
b1011 r
b1011 z
b1011 y
b1011 "#
b1011 ""
b0110001011 B
b0110001011 C
b0110001011 D
b0110001011 E
#160
0!
0,
0#
#165
1!
1,
1#
b0000 H
0=
08
1c
0;
0f
1m
1t
1{
1"$
b100111 i
b100111 h
b100111 p
b100111 o
b100111 w
b100111 v
b100111 ~
b100111 }
b0011111010 "&
b0011111010 ?
b0011111010 "(
b0011111010 @
b1110101000 "*
b1110101000 A
b1001111011 B
b1001111011 C
b1001111011 D
b1001111011 E
b0100 l
b0100 k
b0100 s
b0100 r
b0100 z
b0100 y
b0100 "#
b0100 ""
b1001110100 B
b1001110100 C
b1001110100 D
b1001110100 E
#170
0!
0,
0#
#175
1!
1,
1#
#180
0!
0,
0#
#185
1!
1,
1#
#190
0!
0,
0#
#195
1!
1,
1#
b000000000 %
b000000000 /
04
b000 b
b00000 _
b00000000 "%
b11111111 "/
b1011 e
b1011 d
b100111 a
b100111 `
1f
b00101101000000101110111110001101 ".
b0000000000 "&
b0000000000 ?
b1001111011 >
b0100 e
b0100 d
b1001110100 >
#200
0!
0,
0#
#205
1!
1,
1#
1&
10
1$
1.
b100111100 %
b100111100 /
14
b001 b
b11100 _
b00111100 "%
b11000011 "/
11
1'
13
1)
b0000000000 K
b0000000000 L
b1001 e
b1001 d
b001110 a
b001110 `
0f
b00000010011011011001001100001010 ".
b0011111001 "&
b0011111001 ?
b0011101001 >
15
1V
16
17
b1001111100 F
b1001 T
b111100 N
b1001111100 2
b1001111100 (
b1001111100 K
b0011111001 L
b110 \
b1001111100 ]
0V
06
b010 W
b1001 X
b100 Q
b111100 R
#210
0!
0,
0#
#215
1!
1,
1#
b0001 G
1=
1;
0&
00
18
0c
03
0)
0P
05
0[
07
1f
0m
0t
0{
0"$
b011000 i
b011000 h
b011000 p
b011000 o
b011000 w
b011000 v
b011000 ~
b011000 }
b1100000110 "&
b1100000110 ?
b1100000101 "(
b1100000101 @
b0001010111 "*
b0001010111 A
b0110000100 B
b0110000100 C
b0110000100 D
b0110000100 E
b1011 l
b1011 k
b1011 s
b1011 r
b1011 z
b1011 y
b1011 "#
b1011 ""
b0110000011 F
b0110 T
b000011 N
b0110000011 2
b0110000011 (
b0110000011 K
b1100000110 L
b0110001011 B
b0110001011 C
b0110001011 D
b0110001011 E
b100 \
b0110000011 ]
b0110 X
b010 Q
b000011 R
#220
0!
0,
0#
#225
1!
1,
1#
b0010 G
0=
08
1c
0;
0O
0Z
0f
1m
1t
1{
1"$
b100111 i
b100111 h
b100111 p
b100111 o
b100111 w
b100111 v
b100111 ~
b100111 }
b0011111001 "&
b0011111001 ?
b0011111010 "(
b0011111010 @
b1110101000 "*
b1110101000 A
1P
15
1[
17
b1001111011 B
b1001111011 C
b1001111011 D
b1001111011 E
b0100 l
b0100 k
b0100 s
b0100 r
b0100 z
b0100 y
b0100 "#
b0100 ""
b1001111100 F
b1001 T
b111100 N
b1001111100 2
b1001111100 (
b1001111100 K
b0011111001 L
b1001110100 B
b1001110100 C
b1001110100 D
b1001110100 E
b110 \
b1001111100 ]
b1001 X
b100 Q
b111100 R
#230
0!
0,
0#
#235
1!
1,
1#
b0011 G
1=
18
0c
1;
1O
1Z
b01 J
1f
0m
0t
0{
0"$
b011000 i
b011000 h
b011000 p
b011000 o
b011000 w
b011000 v
b011000 ~
b011000 }
b1100000110 "&
b1100000110 ?
b1100000101 "(
b1100000101 @
b0001010111 "*
b0001010111 A
0P
05
0[
07
b0110000100 B
b0110000100 C
b0110000100 D
b0110000100 E
b1011 l
b1011 k
b1011 s
b1011 r
b1011 z
b1011 y
b1011 "#
b1011 ""
b0110000011 F
b0110 T
b000011 N
b0110000011 2
b0110000011 (
b0110000011 K
b1100000110 L
b0110001011 B
b0110001011 C
b0110001011 D
b0110001011 E
b100 \
b0110000011 ]
b0110 X
b010 Q
b000011 R
#240
0!
0,
0#
#245
1!
1,
1#
b0100 G
0=
08
1c
0;
b01 I
1",
0O
0Z
b010101100 %
b010101100 /
04
b101 b
b01100 _
b10101100 "%
b01010011 "/
b1001011100 F
b1001 T
b011100 N
b1001011100 2
b1001011100 (
b1001011100 K
b0011101001 L
0f
1m
1t
1{
1"$
b001101 a
b001101 `
b100111 i
b100111 h
b100111 p
b100111 o
b100111 w
b100111 v
b100111 ~
b100111 }
b0000000000 "&
b0000000000 ?
b0011111010 "(
b0011111010 @
b1110101000 "*
b1110101000 A
1"+
b011 Q
b011100 R
b101 \
b1001011100 ]
b1010 e
b1010 d
b11110010011000100000000001001110 ".
b0011011010 >
b1001111011 B
b1001111011 C
b1001111011 D
b1001111011 E
b1001 X
b0100 l
b0100 k
b0100 s
b0100 r
b0100 z
b0100 y
b0100 "#
b0100 ""
b0101101100 F
b0101 T
b101100 N
b0101101100 2
b0101101100 (
b0101101100 K
b0011011010 L
b1001110100 B
b1001110100 C
b1001110100 D
b1001110100 E
b0101101100 ]
b0101 X
b101100 R
#250
0!
0,
0#
#255
1!
1,
1#
b0000 G
b11110010100111011111111110110001 "-
b00001101011000100000000001001110 9
b00011101 "/
b010001000 %
b010001000 /
b100 b
b01000 _
b10001000 "%
b00111001 "/
b01011111000001011000100000001000 ".
b1101 e
b1101 d
b111001 a
b111001 `
1f
b1110011101 >
b0010 e
b0010 d
b0100100111 F
b0100 T
b100111 N
b0100100111 2
b0100100111 (
b0100100111 K
b1110010010 L
b1110010010 >
b0100100111 ]
1V
16
b001 W
b0100 X
1P
15
b100 Q
b100111 R
#260
0!
0,
0#
#265
1!
1,
1#
b01011111111101110001010111110111 "-
b10100000000010001110101000001000 9
b01111111 "/
1<
1;
1O
1U
b010111011 %
b010111011 /
b101 b
b11011 _
b10111011 "%
b01001100 "/
b01111111011010100000110110111011 ".
0P
05
0V
06
b1010 e
b1010 d
b110110 a
b110110 `
b1101101010 >
b0101011011 F
b0101 T
b011011 N
b0101011011 2
b0101011011 (
b0101011011 K
b1101101010 L
1[
17
b110 \
b0101011011 ]
1V
16
b010 W
b0101 X
b011011 R
#270
0!
0,
0#
#275
1!
1,
1#
b01111111001101011111101010101110 "-
b10000000110010100000010101010001 9
b00010101 "/
1=
18
0c
0;
0O
1Z
b001001101 %
b001001101 /
b010 b
b01101 _
b01001101 "%
b11100011 "/
b00111001000000111011001111000010 ".
1f
0m
0t
0{
0"$
b101100 a
b101100 `
b011000 i
b011000 h
b011000 p
b011000 o
b011000 w
b011000 v
b011000 ~
b011000 }
b1100000101 "(
b1100000101 @
b0001010111 "*
b0001010111 A
1P
15
0[
07
b0101 e
b0101 d
b1011000101 >
b0110000100 B
b0110000100 C
b0110000100 D
b0110000100 E
b1011 l
b1011 k
b1011 s
b1011 r
b1011 z
b1011 y
b1011 "#
b1011 ""
b1010001101 F
b1010 T
b001101 N
b1010001101 2
b1010001101 (
b1010001101 K
b1011000101 L
b0110001011 B
b0110001011 C
b0110001011 D
b0110001011 E
1[
17
b101 \
b1010001101 ]
b1010 X
0P
05
b011 Q
b001101 R
#280
0!
0,
0#
#285
1!
1,
1#
b00111001011111001000011000111000 "-
b11000110100000110111100111000111 9
b01110101 "/
b011110001 %
b011110001 /
b111 b
b10001 _
b11110001 "%
b11001001 "/
b11100010101110000111101000010100 ".
b0001 e
b0001 d
b100011 a
b100011 `
b1000110001 >
b1000110001 F
b1000 T
b110001 N
b1000110001 2
b1000110001 (
b1000110001 K
b1000110001 L
0[
07
b100 \
b1000110001 ]
0V
06
b001 W
b1000 X
b110001 R
#290
0!
0,
0#
#295
1!
1,
1#
b11100010100000010000011010010010 "-
b00011101011111101111100101101101 9
b01100011 "/
0=
08
1c
0<
0U
0Z
b110111100 %
b110111100 /
14
b101 b
b11100 _
b10111100 "%
b00101110 "/
b10 J
b1110101000 F
b1110 T
b101000 N
b1110101000 2
b1110101000 (
b00011101011111101111100101101101 :
b01101 g
b011 j
b11001 n
b111 q
b11110 u
b011 x
b11101 |
b1110101000 K
b0001010111 L
b11011100110101100000110111001111 ".
0f
0m
0t
1{
1"$
b001110 a
b001110 `
b101100 i
b101100 h
b100110 p
b100110 o
b011110 w
b011110 v
b101110 ~
b101110 }
b0011111010 "&
b0011111010 ?
b0011111010 "(
b0011111010 @
b1110101000 "*
b1110101000 A
1V
16
b011 W
b1110 X
b101 \
b1110101000 ]
b1010 e
b1010 d
0"+
b0011101010 >
b1011001011 B
b1001101011 C
b0111101011 D
b1011101011 E
1P
15
b010 Q
b101000 R
b1100 l
b1100 k
b1110 s
b1110 r
b0011 z
b0011 y
b0100 "#
b0100 ""
b0001010111 F
b0001 T
b010111 N
b0001010111 2
b0001010111 (
b0001010111 K
b1110101000 L
b1011001100 B
b1001101110 C
b0111100011 D
b1011100100 E
b0001010111 ]
b001 W
b0001 X
b100 Q
b010111 R
#300
0!
0,
0#
#305
1!
1,
1#
1<
1;
b10 I
0",
1O
1U
0$
0.
b0011001101 F
b0011 T
b001101 N
b0011001101 2
b0011001101 (
b0011001101 K
b1011001100 L
b011 Q
b001101 R
b010 W
b0011 X
b0011001101 ]
#310
0!
0,
0#
#315
1!
1,
1#
b0001 H
b11111111111111111111111111111111 "-
b00000000000000000000000000000000 9
b01000011 "/
b0111011001 F
b0111 T
b011001 N
b0111011001 2
b0111011001 (
b0111011001 K
b1001101110 L
b11101111110101010001000000101010 ".
1[
17
b110 \
b0111011001 ]
0V
06
b011 W
b0111 X
b011001 R
#320
0!
0,
0#
#325
1!
1,
1#
b0010 H
1=
18
0c
0<
0U
1Z
b1100011110 F
b1100 T
b011110 N
b1100011110 2
b1100011110 (
b1100011110 K
b0111100011 L
1f
1m
1t
0{
0"$
b100001 w
b100001 v
b010001 ~
b010001 }
b1100000101 "&
b1100000101 ?
b1100000101 "(
b1100000101 @
b0001010111 "*
b0001010111 A
b010 W
b1100 X
0[
07
b1100011110 ]
b1000010011 D
b0100010100 E
0P
05
b100 Q
b011110 R
b0011 l
b0011 k
b0001 s
b0001 r
b1100 z
b1100 y
b1011 "#
b1011 ""
b0011100001 F
b0011 T
b100001 N
b0011100001 2
b0011100001 (
b0011100001 K
b1000011100 L
b1011000011 B
b1001100001 C
b1000011100 D
b0100011011 E
b100 \
b0011100001 ]
b0011 X
b010 Q
b100001 R
#330
0!
0,
0#
